build/sim/mem/uart/uart_tb.vcd
$date
	Sun Sep  7 21:42:36 2025
$end
$version
	Icarus Verilog
$end
$timescale
	1ps
$end
$scope module tb_uart $end
$var wire 32 ! wbs_data_read [31:0] $end
$var wire 1 " wbs_ack $end
$var wire 1 # uart_tx $end
$var parameter 32 $ ADDR_WIDTH $end
$var parameter 32 % BASE_ADDR $end
$var parameter 32 & BAUD_DIV $end
$var parameter 16 ' BAUD_DIV_RST $end
$var parameter 32 ( BAUD_RATE $end
$var parameter 32 ) CLK_FREQ $end
$var parameter 32 * CLK_PERIOD $end
$var parameter 32 + DATA_WIDTH $end
$var parameter 32 , SIZE_KB $end
$var reg 1 - clk $end
$var reg 1 . rst_n $end
$var reg 32 / task_error_count [31:0] $end
$var reg 32 0 test_num [31:0] $end
$var reg 32 1 total_errors [31:0] $end
$var reg 1 2 uart_rx $end
$var reg 32 3 wbs_addr [31:0] $end
$var reg 1 4 wbs_cyc $end
$var reg 32 5 wbs_data_write [31:0] $end
$var reg 4 6 wbs_sel [3:0] $end
$var reg 1 7 wbs_stb $end
$var reg 1 8 wbs_we $end
$var integer 32 9 i [31:0] $end
$scope module dut $end
$var wire 1 - clk $end
$var wire 1 . rst_n $end
$var wire 1 2 uart_rx $end
$var wire 1 : uart_select $end
$var wire 32 ; wbs_addr [31:0] $end
$var wire 1 4 wbs_cyc $end
$var wire 32 < wbs_data_write [31:0] $end
$var wire 4 = wbs_sel [3:0] $end
$var wire 1 7 wbs_stb $end
$var wire 1 8 wbs_we $end
$var wire 1 # uart_tx $end
$var wire 32 > tmp_wbs_data_read [31:0] $end
$var wire 1 ? tmp_wbs_ack $end
$var parameter 32 @ ADDR_WIDTH $end
$var parameter 32 A BASE_ADDR $end
$var parameter 16 B BAUD_DIV_RST $end
$var parameter 32 C DATA_WIDTH $end
$var parameter 32 D SIZE_KB $end
$var reg 1 " wbs_ack $end
$var reg 32 E wbs_data_read [31:0] $end
$scope module uart_inst $end
$var wire 1 - clk $end
$var wire 1 . rst_n $end
$var wire 1 2 uart_rx $end
$var wire 32 F wbs_addr [31:0] $end
$var wire 1 G wbs_cyc $end
$var wire 32 H wbs_data_write [31:0] $end
$var wire 4 I wbs_sel [3:0] $end
$var wire 1 J wbs_stb $end
$var wire 1 8 wbs_we $end
$var wire 1 # uart_tx $end
$var wire 1 K tx_empty $end
$var wire 1 L tx_done $end
$var wire 1 M tx_busy $end
$var wire 1 N sel_tx_data $end
$var wire 1 O sel_status $end
$var wire 1 P sel_rx_data $end
$var wire 1 Q sel_ctrl $end
$var wire 1 R sel_baud_div $end
$var wire 1 S rx_ready $end
$var wire 1 T rx_overrun $end
$var wire 1 U rx_frame_error $end
$var wire 8 V rx_data [7:0] $end
$var wire 12 W reg_offset [11:0] $end
$var parameter 32 X ADDR_WIDTH $end
$var parameter 16 Y BAUD_DIV_RST $end
$var parameter 32 Z CTRL_RX_ENABLE $end
$var parameter 32 [ CTRL_TX_ENABLE $end
$var parameter 32 \ DATA_WIDTH $end
$var parameter 32 ] STATUS_RX_FRAME_ERR $end
$var parameter 32 ^ STATUS_RX_OVERRUN $end
$var parameter 32 _ STATUS_RX_READY $end
$var parameter 32 ` STATUS_TX_BUSY $end
$var parameter 32 a STATUS_TX_EMPTY $end
$var reg 16 b baud_div_reg [15:0] $end
$var reg 8 c ctrl_reg [7:0] $end
$var reg 8 d rx_data_reg [7:0] $end
$var reg 8 e status_reg [7:0] $end
$var reg 1 f tmp_r_ack $end
$var reg 1 g tmp_w_ack $end
$var reg 8 h tx_data_reg [7:0] $end
$var reg 1 i tx_start_pulse $end
$var reg 1 ? wbs_ack $end
$var reg 32 j wbs_data_read [31:0] $end
$scope module uart_rx_inst $end
$var wire 16 k baud_div [15:0] $end
$var wire 1 - clk $end
$var wire 1 . rst_n $end
$var wire 1 l rx_enable $end
$var wire 1 m rx_falling_edge $end
$var wire 1 2 uart_rx $end
$var parameter 3 n RX_DATA $end
$var parameter 3 o RX_ERROR $end
$var parameter 3 p RX_IDLE $end
$var parameter 3 q RX_START $end
$var parameter 3 r RX_STOP $end
$var reg 16 s baud_counter [15:0] $end
$var reg 1 t baud_tick $end
$var reg 3 u rx_bit_counter [2:0] $end
$var reg 8 v rx_data [7:0] $end
$var reg 1 U rx_frame_error $end
$var reg 1 T rx_overrun $end
$var reg 1 S rx_ready $end
$var reg 8 w rx_shift_reg [7:0] $end
$var reg 3 x rx_state [2:0] $end
$var reg 1 y uart_rx_prev $end
$var reg 1 z uart_rx_sync $end
$upscope $end
$scope module uart_tx_inst $end
$var wire 16 { baud_div [15:0] $end
$var wire 1 - clk $end
$var wire 1 . rst_n $end
$var wire 8 | tx_data [7:0] $end
$var wire 1 } tx_enable $end
$var wire 1 i tx_start $end
$var parameter 2 ~ TX_DATA $end
$var parameter 2 !" TX_IDLE $end
$var parameter 2 "" TX_START $end
$var parameter 2 #" TX_STOP $end
$var reg 16 $" baud_counter [15:0] $end
$var reg 1 %" baud_tick $end
$var reg 3 &" tx_bit_counter [2:0] $end
$var reg 1 M tx_busy $end
$var reg 1 L tx_done $end
$var reg 1 K tx_empty $end
$var reg 8 '" tx_shift_reg [7:0] $end
$var reg 2 (" tx_state [1:0] $end
$var reg 1 # uart_tx $end
$upscope $end
$upscope $end
$upscope $end
$scope task test_loopback $end
$var reg 32 )" error_count [31:0] $end
$var reg 32 *" read_data [31:0] $end
$var reg 8 +" test_data [7:0] $end
$upscope $end
$scope task test_uart_configuration $end
$var reg 32 ," error_count [31:0] $end
$var reg 32 -" read_data [31:0] $end
$upscope $end
$scope task test_uart_receiver $end
$var reg 32 ." error_count [31:0] $end
$var reg 32 /" read_data [31:0] $end
$var reg 8 0" test_data [7:0] $end
$var integer 32 1" bit_time [31:0] $end
$upscope $end
$scope task test_uart_transmitter $end
$var reg 32 2" error_count [31:0] $end
$var reg 32 3" read_data [31:0] $end
$var reg 8 4" test_data [7:0] $end
$var integer 32 5" bit_time [31:0] $end
$upscope $end
$scope task wb_read $end
$var reg 32 6" addr [31:0] $end
$var reg 32 7" data [31:0] $end
$upscope $end
$scope task wb_write $end
$var reg 32 8" addr [31:0] $end
$var reg 32 9" data [31:0] $end
$var reg 4 :" sel [3:0] $end
$upscope $end
$upscope $end
$enddefinitions $end
$comment Show the parameter values. $end
$dumpall
b11 #"
b1 ""
b0 !"
b10 ~
b11 r
b1 q
b0 p
b100 o
b10 n
b0 a
b1 `
b10 _
b11 ^
b100 ]
b100000 \
b0 [
b1 Z
b1101000 Y
b100000 X
b100 D
b100000 C
b1101000 B
b100000000000000000000000000000 A
b100000 @
b100 ,
b100000 +
b1010 *
b101111101011110000100000000 )
b11100001000000000 (
b1101000 '
b1101100100 &
b100000000000000000000000000000 %
b100000 $
$end
#0
$dumpvars
bx :"
bx 9"
bx 8"
bx 7"
bx 6"
bx 5"
bx 4"
bx 3"
bx 2"
bx 1"
bx 0"
bx /"
bx ."
bx -"
bx ,"
bx +"
bx *"
bx )"
b0 ("
b0 '"
b0 &"
0%"
b0 $"
1}
b0 |
b1101000 {
1z
1y
b0 x
b0 w
b0 v
b0 u
0t
b0 s
0m
1l
b1101000 k
b0 j
0i
b0 h
0g
0f
b1 e
b0 d
b11 c
b1101000 b
b0 W
b0 V
0U
0T
1S
0R
0Q
0P
0O
1N
0M
0L
1K
0J
b0 I
b0 H
0G
b0 F
bx E
0?
b0 >
b0 =
b0 <
b0 ;
0:
bx 9
08
07
b0 6
b0 5
04
b0 3
12
b0 1
b0 0
b0 /
0.
0-
1#
x"
bx !
$end
#5000
0"
b0 !
b0 E
1-
#10000
0-
#15000
1-
#20000
0-
#25000
1-
#30000
0-
#35000
1-
#40000
0-
#45000
1-
#50000
0-
#55000
1-
#60000
0-
#65000
1-
#70000
0-
#75000
1-
#80000
0-
#85000
1-
#90000
0-
#95000
1-
#100000
0-
1.
#105000
b101 e
0S
1%"
b1101000 $"
1-
#110000
0-
#115000
b1100111 $"
0%"
b1 e
1-
#120000
0-
b1111 :"
b1101100100 9"
b100000000000000000000000001000 8"
b0 -"
b0 ,"
b1 0
#125000
b1100110 $"
1G
1J
1:
0N
1R
b1000 W
b1111 6
b1111 =
b1111 I
b1101100100 5
b1101100100 <
b1101100100 H
b100000000000000000000000001000 3
b100000000000000000000000001000 ;
b100000000000000000000000001000 F
18
17
14
1-
#130000
0-
#135000
b1100101 $"
b1101100100 b
b1101100100 k
b1101100100 {
1g
1-
#140000
0-
#145000
1?
1g
b1100100 $"
1-
#150000
0-
#155000
b1100011 $"
1g
1"
1-
#160000
0-
#165000
0g
b1100010 $"
0J
0G
08
07
04
1-
#170000
0-
#175000
b1100001 $"
0?
b11 9"
b100000000000000000000000001100 8"
1-
#180000
0-
#185000
b1100000 $"
0"
0R
1Q
b1100 W
1J
1G
b11 5
b11 <
b11 H
b100000000000000000000000001100 3
b100000000000000000000000001100 ;
b100000000000000000000000001100 F
18
17
14
1-
#190000
0-
#195000
b1011111 $"
1g
1-
#200000
0-
#205000
1?
1g
b1011110 $"
1-
#210000
0-
#215000
b1011101 $"
1g
1"
1-
#220000
0-
#225000
0g
b1011100 $"
0J
0G
08
07
04
1-
#230000
0-
#235000
b1011011 $"
0?
b100000000000000000000000001000 6"
1-
#240000
0-
#245000
b1011010 $"
0"
b1101100100 >
b1101100100 j
1f
1R
0Q
b1000 W
1J
1G
b100000000000000000000000001000 3
b100000000000000000000000001000 ;
b100000000000000000000000001000 F
17
14
1-
#250000
0-
#255000
b1011001 $"
1?
b1101100100 !
b1101100100 E
1-
#260000
0-
#265000
b1011000 $"
1"
1-
#270000
0-
#275000
b1010111 $"
0f
b0 >
b0 j
0J
0G
07
04
b1101100100 7"
1-
#280000
0-
#285000
0?
b1010110 $"
b0 !
b0 E
b100000000000000000000000001100 6"
b1101100100 -"
1-
#290000
0-
#295000
b1010101 $"
0"
b11 >
b11 j
1f
0R
1Q
b1100 W
1J
1G
b100000000000000000000000001100 3
b100000000000000000000000001100 ;
b100000000000000000000000001100 F
17
14
1-
#300000
0-
#305000
1?
b1010100 $"
b11 !
b11 E
1-
#310000
0-
#315000
b1010011 $"
1"
1-
#320000
0-
#325000
b1010010 $"
0f
b0 >
b0 j
0J
0G
07
04
b11 7"
1-
#330000
0-
#335000
b1010001 $"
0?
b0 !
b0 E
b11 -"
1-
#340000
0-
#345000
b1010000 $"
0"
1-
#350000
0-
#355000
b1001111 $"
b1 >
b1 j
1f
0Q
1O
b10000 W
1J
1G
b100000000000000000000000010000 3
b100000000000000000000000010000 ;
b100000000000000000000000010000 F
17
14
1-
b100000000000000000000000010000 6"
b10100101 4"
b10000111101000 5"
b0 3"
b0 2"
b10 0
#360000
0-
#365000
1?
b1001110 $"
b1 !
b1 E
1-
#370000
0-
#375000
b1001101 $"
1"
1-
#380000
0-
#385000
b1001100 $"
0f
b0 >
b0 j
0J
0G
07
04
b1 7"
1-
#390000
0-
#395000
b1001011 $"
0?
b0 !
b0 E
b1 :"
b10100101 9"
b100000000000000000000000000000 8"
b1 3"
1-
#400000
0-
#405000
b1001010 $"
0"
1N
0O
b0 W
1J
1G
b1 6
b1 =
b1 I
b10100101 5
b10100101 <
b10100101 H
b100000000000000000000000000000 3
b100000000000000000000000000000 ;
b100000000000000000000000000000 F
18
17
14
1-
#410000
0-
#415000
b1001001 $"
1i
b10100101 h
b10100101 |
1g
1-
#420000
0-
#425000
1?
1i
1g
0K
1M
b10100101 '"
b1 ("
b1001000 $"
1-
#430000
0-
#435000
b1000111 $"
1i
1g
b10 e
1"
1-
#440000
0-
#445000
0g
b1000110 $"
0J
0G
08
07
04
1-
#450000
0-
#455000
b1000101 $"
0?
1-
#460000
0-
#465000
b1000100 $"
0"
b10 >
b10 j
1f
0N
1O
b10000 W
1J
1G
b100000000000000000000000010000 3
b100000000000000000000000010000 ;
b100000000000000000000000010000 F
17
14
1-
#470000
0-
#475000
b1000011 $"
1?
b10 !
b10 E
1-
#480000
0-
#485000
b1000010 $"
1"
1-
#490000
0-
#495000
b1000001 $"
0f
b0 >
b0 j
0J
0G
07
04
b10 7"
1-
#500000
0-
#505000
0?
b1000000 $"
b0 !
b0 E
b10 3"
1-
#510000
0-
#515000
b111111 $"
0"
1-
#520000
0-
#525000
b111110 $"
1-
#530000
0-
#535000
b111101 $"
1-
#540000
0-
#545000
b111100 $"
1-
#550000
0-
#555000
b111011 $"
1-
#560000
0-
#565000
b111010 $"
1-
#570000
0-
#575000
b111001 $"
1-
#580000
0-
#585000
b111000 $"
1-
#590000
0-
#595000
b110111 $"
1-
#600000
0-
#605000
b110110 $"
1-
#610000
0-
#615000
b110101 $"
1-
#620000
0-
#625000
b110100 $"
1-
#630000
0-
#635000
b110011 $"
1-
#640000
0-
#645000
b110010 $"
1-
#650000
0-
#655000
b110001 $"
1-
#660000
0-
#665000
b110000 $"
1-
#670000
0-
#675000
b101111 $"
1-
#680000
0-
#685000
b101110 $"
1-
#690000
0-
#695000
b101101 $"
1-
#700000
0-
#705000
b101100 $"
1-
#710000
0-
#715000
b101011 $"
1-
#720000
0-
#725000
b101010 $"
1-
#730000
0-
#735000
b101001 $"
1-
#740000
0-
#745000
b101000 $"
1-
#750000
0-
#755000
b100111 $"
1-
#760000
0-
#765000
b100110 $"
1-
#770000
0-
#775000
b100101 $"
1-
#780000
0-
#785000
b100100 $"
1-
#790000
0-
#795000
b100011 $"
1-
#800000
0-
#805000
b100010 $"
1-
#810000
0-
#815000
b100001 $"
1-
#820000
0-
#825000
b100000 $"
1-
#830000
0-
#835000
b11111 $"
1-
#840000
0-
#845000
b11110 $"
1-
#850000
0-
#855000
b11101 $"
1-
#860000
0-
#865000
b11100 $"
1-
#870000
0-
#875000
b11011 $"
1-
#880000
0-
#885000
b11010 $"
1-
#890000
0-
#895000
b11001 $"
1-
#900000
0-
#905000
b11000 $"
1-
#910000
0-
#915000
b10111 $"
1-
#920000
0-
#925000
b10110 $"
1-
#930000
0-
#935000
b10101 $"
1-
#940000
0-
#945000
b10100 $"
1-
#950000
0-
#955000
b10011 $"
1-
#960000
0-
#965000
b10010 $"
1-
#970000
0-
#975000
b10001 $"
1-
#980000
0-
#985000
b10000 $"
1-
#990000
0-
#995000
b1111 $"
1-
#1000000
0-
#1005000
b1110 $"
1-
#1010000
0-
#1015000
b1101 $"
1-
#1020000
0-
#1025000
b1100 $"
1-
#1030000
0-
#1035000
b1011 $"
1-
#1040000
0-
#1045000
b1010 $"
1-
#1050000
0-
#1055000
b1001 $"
1-
#1060000
0-
#1065000
b1000 $"
1-
#1070000
0-
#1075000
b111 $"
1-
#1080000
0-
#1085000
b110 $"
1-
#1090000
0-
#1095000
b101 $"
1-
#1100000
0-
#1105000
b100 $"
1-
#1110000
0-
#1115000
b11 $"
1-
#1120000
0-
#1125000
b10 $"
1-
#1130000
0-
#1135000
b1 $"
1-
#1140000
0-
#1145000
b0 $"
1-
#1150000
0-
#1155000
1%"
b1101100100 $"
1-
#1160000
0-
#1165000
b10 ("
0#
b1101100011 $"
0%"
1-
#1170000
0-
#1175000
b1101100010 $"
1-
#1180000
0-
#1185000
b1101100001 $"
1-
#1190000
0-
#1195000
b1101100000 $"
1-
#1200000
0-
#1205000
b1101011111 $"
1-
#1210000
0-
#1215000
b1101011110 $"
1-
#1220000
0-
#1225000
b1101011101 $"
1-
#1230000
0-
#1235000
b1101011100 $"
1-
#1240000
0-
#1245000
b1101011011 $"
1-
#1250000
0-
#1255000
b1101011010 $"
1-
#1260000
0-
#1265000
b1101011001 $"
1-
#1270000
0-
#1275000
b1101011000 $"
1-
#1280000
0-
#1285000
b1101010111 $"
1-
#1290000
0-
#1295000
b1101010110 $"
1-
#1300000
0-
#1305000
b1101010101 $"
1-
#1310000
0-
#1315000
b1101010100 $"
1-
#1320000
0-
#1325000
b1101010011 $"
1-
#1330000
0-
#1335000
b1101010010 $"
1-
#1340000
0-
#1345000
b1101010001 $"
1-
#1350000
0-
#1355000
b1101010000 $"
1-
#1360000
0-
#1365000
b1101001111 $"
1-
#1370000
0-
#1375000
b1101001110 $"
1-
#1380000
0-
#1385000
b1101001101 $"
1-
#1390000
0-
#1395000
b1101001100 $"
1-
#1400000
0-
#1405000
b1101001011 $"
1-
#1410000
0-
#1415000
b1101001010 $"
1-
#1420000
0-
#1425000
b1101001001 $"
1-
#1430000
0-
#1435000
b1101001000 $"
1-
#1440000
0-
#1445000
b1101000111 $"
1-
#1450000
0-
#1455000
b1101000110 $"
1-
#1460000
0-
#1465000
b1101000101 $"
1-
#1470000
0-
#1475000
b1101000100 $"
1-
#1480000
0-
#1485000
b1101000011 $"
1-
#1490000
0-
#1495000
b1101000010 $"
1-
#1500000
0-
#1505000
b1101000001 $"
1-
#1510000
0-
#1515000
b1101000000 $"
1-
#1520000
0-
#1525000
b1100111111 $"
1-
#1530000
0-
#1535000
b1100111110 $"
1-
#1540000
0-
#1545000
b1100111101 $"
1-
#1550000
0-
#1555000
b1100111100 $"
1-
#1560000
0-
#1565000
b1100111011 $"
1-
#1570000
0-
#1575000
b1100111010 $"
1-
#1580000
0-
#1585000
b1100111001 $"
1-
#1590000
0-
#1595000
b1100111000 $"
1-
#1600000
0-
#1605000
b1100110111 $"
1-
#1610000
0-
#1615000
b1100110110 $"
1-
#1620000
0-
#1625000
b1100110101 $"
1-
#1630000
0-
#1635000
b1100110100 $"
1-
#1640000
0-
#1645000
b1100110011 $"
1-
#1650000
0-
#1655000
b1100110010 $"
1-
#1660000
0-
#1665000
b1100110001 $"
1-
#1670000
0-
#1675000
b1100110000 $"
1-
#1680000
0-
#1685000
b1100101111 $"
1-
#1690000
0-
#1695000
b1100101110 $"
1-
#1700000
0-
#1705000
b1100101101 $"
1-
#1710000
0-
#1715000
b1100101100 $"
1-
#1720000
0-
#1725000
b1100101011 $"
1-
#1730000
0-
#1735000
b1100101010 $"
1-
#1740000
0-
#1745000
b1100101001 $"
1-
#1750000
0-
#1755000
b1100101000 $"
1-
#1760000
0-
#1765000
b1100100111 $"
1-
#1770000
0-
#1775000
b1100100110 $"
1-
#1780000
0-
#1785000
b1100100101 $"
1-
#1790000
0-
#1795000
b1100100100 $"
1-
#1800000
0-
#1805000
b1100100011 $"
1-
#1810000
0-
#1815000
b1100100010 $"
1-
#1820000
0-
#1825000
b1100100001 $"
1-
#1830000
0-
#1835000
b1100100000 $"
1-
#1840000
0-
#1845000
b1100011111 $"
1-
#1850000
0-
#1855000
b1100011110 $"
1-
#1860000
0-
#1865000
b1100011101 $"
1-
#1870000
0-
#1875000
b1100011100 $"
1-
#1880000
0-
#1885000
b1100011011 $"
1-
#1890000
0-
#1895000
b1100011010 $"
1-
#1900000
0-
#1905000
b1100011001 $"
1-
#1910000
0-
#1915000
b1100011000 $"
1-
#1920000
0-
#1925000
b1100010111 $"
1-
#1930000
0-
#1935000
b1100010110 $"
1-
#1940000
0-
#1945000
b1100010101 $"
1-
#1950000
0-
#1955000
b1100010100 $"
1-
#1960000
0-
#1965000
b1100010011 $"
1-
#1970000
0-
#1975000
b1100010010 $"
1-
#1980000
0-
#1985000
b1100010001 $"
1-
#1990000
0-
#1995000
b1100010000 $"
1-
#2000000
0-
#2005000
b1100001111 $"
1-
#2010000
0-
#2015000
b1100001110 $"
1-
#2020000
0-
#2025000
b1100001101 $"
1-
#2030000
0-
#2035000
b1100001100 $"
1-
#2040000
0-
#2045000
b1100001011 $"
1-
#2050000
0-
#2055000
b1100001010 $"
1-
#2060000
0-
#2065000
b1100001001 $"
1-
#2070000
0-
#2075000
b1100001000 $"
1-
#2080000
0-
#2085000
b1100000111 $"
1-
#2090000
0-
#2095000
b1100000110 $"
1-
#2100000
0-
#2105000
b1100000101 $"
1-
#2110000
0-
#2115000
b1100000100 $"
1-
#2120000
0-
#2125000
b1100000011 $"
1-
#2130000
0-
#2135000
b1100000010 $"
1-
#2140000
0-
#2145000
b1100000001 $"
1-
#2150000
0-
#2155000
b1100000000 $"
1-
#2160000
0-
#2165000
b1011111111 $"
1-
#2170000
0-
#2175000
b1011111110 $"
1-
#2180000
0-
#2185000
b1011111101 $"
1-
#2190000
0-
#2195000
b1011111100 $"
1-
#2200000
0-
#2205000
b1011111011 $"
1-
#2210000
0-
#2215000
b1011111010 $"
1-
#2220000
0-
#2225000
b1011111001 $"
1-
#2230000
0-
#2235000
b1011111000 $"
1-
#2240000
0-
#2245000
b1011110111 $"
1-
#2250000
0-
#2255000
b1011110110 $"
1-
#2260000
0-
#2265000
b1011110101 $"
1-
#2270000
0-
#2275000
b1011110100 $"
1-
#2280000
0-
#2285000
b1011110011 $"
1-
#2290000
0-
#2295000
b1011110010 $"
1-
#2300000
0-
#2305000
b1011110001 $"
1-
#2310000
0-
#2315000
b1011110000 $"
1-
#2320000
0-
#2325000
b1011101111 $"
1-
#2330000
0-
#2335000
b1011101110 $"
1-
#2340000
0-
#2345000
b1011101101 $"
1-
#2350000
0-
#2355000
b1011101100 $"
1-
#2360000
0-
#2365000
b1011101011 $"
1-
#2370000
0-
#2375000
b1011101010 $"
1-
#2380000
0-
#2385000
b1011101001 $"
1-
#2390000
0-
#2395000
b1011101000 $"
1-
#2400000
0-
#2405000
b1011100111 $"
1-
#2410000
0-
#2415000
b1011100110 $"
1-
#2420000
0-
#2425000
b1011100101 $"
1-
#2430000
0-
#2435000
b1011100100 $"
1-
#2440000
0-
#2445000
b1011100011 $"
1-
#2450000
0-
#2455000
b1011100010 $"
1-
#2460000
0-
#2465000
b1011100001 $"
1-
#2470000
0-
#2475000
b1011100000 $"
1-
#2480000
0-
#2485000
b1011011111 $"
1-
#2490000
0-
#2495000
b1011011110 $"
1-
#2500000
0-
#2505000
b1011011101 $"
1-
#2510000
0-
#2515000
b1011011100 $"
1-
#2520000
0-
#2525000
b1011011011 $"
1-
#2530000
0-
#2535000
b1011011010 $"
1-
#2540000
0-
#2545000
b1011011001 $"
1-
#2550000
0-
#2555000
b1011011000 $"
1-
#2560000
0-
#2565000
b1011010111 $"
1-
#2570000
0-
#2575000
b1011010110 $"
1-
#2580000
0-
#2585000
b1011010101 $"
1-
#2590000
0-
#2595000
b1011010100 $"
1-
#2600000
0-
#2605000
b1011010011 $"
1-
#2610000
0-
#2615000
b1011010010 $"
1-
#2620000
0-
#2625000
b1011010001 $"
1-
#2630000
0-
#2635000
b1011010000 $"
1-
#2640000
0-
#2645000
b1011001111 $"
1-
#2650000
0-
#2655000
b1011001110 $"
1-
#2660000
0-
#2665000
b1011001101 $"
1-
#2670000
0-
#2675000
b1011001100 $"
1-
#2680000
0-
#2685000
b1011001011 $"
1-
#2690000
0-
#2695000
b1011001010 $"
1-
#2700000
0-
#2705000
b1011001001 $"
1-
#2710000
0-
#2715000
b1011001000 $"
1-
#2720000
0-
#2725000
b1011000111 $"
1-
#2730000
0-
#2735000
b1011000110 $"
1-
#2740000
0-
#2745000
b1011000101 $"
1-
#2750000
0-
#2755000
b1011000100 $"
1-
#2760000
0-
#2765000
b1011000011 $"
1-
#2770000
0-
#2775000
b1011000010 $"
1-
#2780000
0-
#2785000
b1011000001 $"
1-
#2790000
0-
#2795000
b1011000000 $"
1-
#2800000
0-
#2805000
b1010111111 $"
1-
#2810000
0-
#2815000
b1010111110 $"
1-
#2820000
0-
#2825000
b1010111101 $"
1-
#2830000
0-
#2835000
b1010111100 $"
1-
#2840000
0-
#2845000
b1010111011 $"
1-
#2850000
0-
#2855000
b1010111010 $"
1-
#2860000
0-
#2865000
b1010111001 $"
1-
#2870000
0-
#2875000
b1010111000 $"
1-
#2880000
0-
#2885000
b1010110111 $"
1-
#2890000
0-
#2895000
b1010110110 $"
1-
#2900000
0-
#2905000
b1010110101 $"
1-
#2910000
0-
#2915000
b1010110100 $"
1-
#2920000
0-
#2925000
b1010110011 $"
1-
#2930000
0-
#2935000
b1010110010 $"
1-
#2940000
0-
#2945000
b1010110001 $"
1-
#2950000
0-
#2955000
b1010110000 $"
1-
#2960000
0-
#2965000
b1010101111 $"
1-
#2970000
0-
#2975000
b1010101110 $"
1-
#2980000
0-
#2985000
b1010101101 $"
1-
#2990000
0-
#2995000
b1010101100 $"
1-
#3000000
0-
#3005000
b1010101011 $"
1-
#3010000
0-
#3015000
b1010101010 $"
1-
#3020000
0-
#3025000
b1010101001 $"
1-
#3030000
0-
#3035000
b1010101000 $"
1-
#3040000
0-
#3045000
b1010100111 $"
1-
#3050000
0-
#3055000
b1010100110 $"
1-
#3060000
0-
#3065000
b1010100101 $"
1-
#3070000
0-
#3075000
b1010100100 $"
1-
#3080000
0-
#3085000
b1010100011 $"
1-
#3090000
0-
#3095000
b1010100010 $"
1-
#3100000
0-
#3105000
b1010100001 $"
1-
#3110000
0-
#3115000
b1010100000 $"
1-
#3120000
0-
#3125000
b1010011111 $"
1-
#3130000
0-
#3135000
b1010011110 $"
1-
#3140000
0-
#3145000
b1010011101 $"
1-
#3150000
0-
#3155000
b1010011100 $"
1-
#3160000
0-
#3165000
b1010011011 $"
1-
#3170000
0-
#3175000
b1010011010 $"
1-
#3180000
0-
#3185000
b1010011001 $"
1-
#3190000
0-
#3195000
b1010011000 $"
1-
#3200000
0-
#3205000
b1010010111 $"
1-
#3210000
0-
#3215000
b1010010110 $"
1-
#3220000
0-
#3225000
b1010010101 $"
1-
#3230000
0-
#3235000
b1010010100 $"
1-
#3240000
0-
#3245000
b1010010011 $"
1-
#3250000
0-
#3255000
b1010010010 $"
1-
#3260000
0-
#3265000
b1010010001 $"
1-
#3270000
0-
#3275000
b1010010000 $"
1-
#3280000
0-
#3285000
b1010001111 $"
1-
#3290000
0-
#3295000
b1010001110 $"
1-
#3300000
0-
#3305000
b1010001101 $"
1-
#3310000
0-
#3315000
b1010001100 $"
1-
#3320000
0-
#3325000
b1010001011 $"
1-
#3330000
0-
#3335000
b1010001010 $"
1-
#3340000
0-
#3345000
b1010001001 $"
1-
#3350000
0-
#3355000
b1010001000 $"
1-
#3360000
0-
#3365000
b1010000111 $"
1-
#3370000
0-
#3375000
b1010000110 $"
1-
#3380000
0-
#3385000
b1010000101 $"
1-
#3390000
0-
#3395000
b1010000100 $"
1-
#3400000
0-
#3405000
b1010000011 $"
1-
#3410000
0-
#3415000
b1010000010 $"
1-
#3420000
0-
#3425000
b1010000001 $"
1-
#3430000
0-
#3435000
b1010000000 $"
1-
#3440000
0-
#3445000
b1001111111 $"
1-
#3450000
0-
#3455000
b1001111110 $"
1-
#3460000
0-
#3465000
b1001111101 $"
1-
#3470000
0-
#3475000
b1001111100 $"
1-
#3480000
0-
#3485000
b1001111011 $"
1-
#3490000
0-
#3495000
b1001111010 $"
1-
#3500000
0-
#3505000
b1001111001 $"
1-
#3510000
0-
#3515000
b1001111000 $"
1-
#3520000
0-
#3525000
b1001110111 $"
1-
#3530000
0-
#3535000
b1001110110 $"
1-
#3540000
0-
#3545000
b1001110101 $"
1-
#3550000
0-
#3555000
b1001110100 $"
1-
#3560000
0-
#3565000
b1001110011 $"
1-
#3570000
0-
#3575000
b1001110010 $"
1-
#3580000
0-
#3585000
b1001110001 $"
1-
#3590000
0-
#3595000
b1001110000 $"
1-
#3600000
0-
#3605000
b1001101111 $"
1-
#3610000
0-
#3615000
b1001101110 $"
1-
#3620000
0-
#3625000
b1001101101 $"
1-
#3630000
0-
#3635000
b1001101100 $"
1-
#3640000
0-
#3645000
b1001101011 $"
1-
#3650000
0-
#3655000
b1001101010 $"
1-
#3660000
0-
#3665000
b1001101001 $"
1-
#3670000
0-
#3675000
b1001101000 $"
1-
#3680000
0-
#3685000
b1001100111 $"
1-
#3690000
0-
#3695000
b1001100110 $"
1-
#3700000
0-
#3705000
b1001100101 $"
1-
#3710000
0-
#3715000
b1001100100 $"
1-
#3720000
0-
#3725000
b1001100011 $"
1-
#3730000
0-
#3735000
b1001100010 $"
1-
#3740000
0-
#3745000
b1001100001 $"
1-
#3750000
0-
#3755000
b1001100000 $"
1-
#3760000
0-
#3765000
b1001011111 $"
1-
#3770000
0-
#3775000
b1001011110 $"
1-
#3780000
0-
#3785000
b1001011101 $"
1-
#3790000
0-
#3795000
b1001011100 $"
1-
#3800000
0-
#3805000
b1001011011 $"
1-
#3810000
0-
#3815000
b1001011010 $"
1-
#3820000
0-
#3825000
b1001011001 $"
1-
#3830000
0-
#3835000
b1001011000 $"
1-
#3840000
0-
#3845000
b1001010111 $"
1-
#3850000
0-
#3855000
b1001010110 $"
1-
#3860000
0-
#3865000
b1001010101 $"
1-
#3870000
0-
#3875000
b1001010100 $"
1-
#3880000
0-
#3885000
b1001010011 $"
1-
#3890000
0-
#3895000
b1001010010 $"
1-
#3900000
0-
#3905000
b1001010001 $"
1-
#3910000
0-
#3915000
b1001010000 $"
1-
#3920000
0-
#3925000
b1001001111 $"
1-
#3930000
0-
#3935000
b1001001110 $"
1-
#3940000
0-
#3945000
b1001001101 $"
1-
#3950000
0-
#3955000
b1001001100 $"
1-
#3960000
0-
#3965000
b1001001011 $"
1-
#3970000
0-
#3975000
b1001001010 $"
1-
#3980000
0-
#3985000
b1001001001 $"
1-
#3990000
0-
#3995000
b1001001000 $"
1-
#4000000
0-
#4005000
b1001000111 $"
1-
#4010000
0-
#4015000
b1001000110 $"
1-
#4020000
0-
#4025000
b1001000101 $"
1-
#4030000
0-
#4035000
b1001000100 $"
1-
#4040000
0-
#4045000
b1001000011 $"
1-
#4050000
0-
#4055000
b1001000010 $"
1-
#4060000
0-
#4065000
b1001000001 $"
1-
#4070000
0-
#4075000
b1001000000 $"
1-
#4080000
0-
#4085000
b1000111111 $"
1-
#4090000
0-
#4095000
b1000111110 $"
1-
#4100000
0-
#4105000
b1000111101 $"
1-
#4110000
0-
#4115000
b1000111100 $"
1-
#4120000
0-
#4125000
b1000111011 $"
1-
#4130000
0-
#4135000
b1000111010 $"
1-
