build/sim/mem/uart/uart_tb.vcd
$date
	Tue Sep  9 14:04:57 2025
$end
$version
	Icarus Verilog
$end
$timescale
	1ps
$end
$scope module tb_uart $end
$var wire 32 ! wbs_data_read2 [31:0] $end
$var wire 32 " wbs_data_read [31:0] $end
$var wire 1 # wbs_ack2 $end
$var wire 1 $ wbs_ack $end
$var wire 1 % uart_tx2 $end
$var wire 1 & uart_tx $end
$var parameter 32 ' ADDR_WIDTH $end
$var parameter 32 ( BASE_ADDR $end
$var parameter 32 ) BAUD_DIV $end
$var parameter 16 * BAUD_DIV_RST $end
$var parameter 32 + BAUD_RATE $end
$var parameter 32 , CLK_FREQ $end
$var parameter 32 - CLK_PERIOD $end
$var parameter 32 . CTRL_RX_ENABLE $end
$var parameter 32 / CTRL_TX_ENABLE $end
$var parameter 32 0 DATA_WIDTH $end
$var parameter 32 1 SIZE_KB $end
$var parameter 32 2 STATUS_RX_FRAME_ERR $end
$var parameter 32 3 STATUS_RX_OVERRUN $end
$var parameter 32 4 STATUS_RX_READY $end
$var parameter 32 5 STATUS_TX_BUSY $end
$var parameter 32 6 STATUS_TX_READY $end
$var reg 1 7 clk $end
$var reg 1 8 rst_n $end
$var reg 32 9 task_error_count [31:0] $end
$var reg 32 : test_num [31:0] $end
$var reg 32 ; total_errors [31:0] $end
$var reg 1 < uart_rx $end
$var reg 1 = uart_rx2 $end
$var reg 32 > wbs_addr [31:0] $end
$var reg 32 ? wbs_addr2 [31:0] $end
$var reg 1 @ wbs_cyc $end
$var reg 1 A wbs_cyc2 $end
$var reg 32 B wbs_data_write [31:0] $end
$var reg 32 C wbs_data_write2 [31:0] $end
$var reg 4 D wbs_sel [3:0] $end
$var reg 4 E wbs_sel2 [3:0] $end
$var reg 1 F wbs_stb $end
$var reg 1 G wbs_stb2 $end
$var reg 1 H wbs_we $end
$var reg 1 I wbs_we2 $end
$var integer 32 J i [31:0] $end
$scope module dut $end
$var wire 1 7 clk $end
$var wire 1 8 rst_n $end
$var wire 1 < uart_rx $end
$var wire 1 K uart_select $end
$var wire 32 L wbs_addr [31:0] $end
$var wire 1 @ wbs_cyc $end
$var wire 32 M wbs_data_write [31:0] $end
$var wire 4 N wbs_sel [3:0] $end
$var wire 1 F wbs_stb $end
$var wire 1 H wbs_we $end
$var wire 1 & uart_tx $end
$var wire 32 O tmp_wbs_data_read [31:0] $end
$var wire 1 P tmp_wbs_ack $end
$var parameter 32 Q ADDR_WIDTH $end
$var parameter 32 R BASE_ADDR $end
$var parameter 16 S BAUD_DIV_RST $end
$var parameter 32 T DATA_WIDTH $end
$var parameter 32 U SIZE_KB $end
$var reg 1 $ wbs_ack $end
$var reg 32 V wbs_data_read [31:0] $end
$scope module uart_inst $end
$var wire 1 7 clk $end
$var wire 1 8 rst_n $end
$var wire 1 W rx_data_read $end
$var wire 1 X status_read $end
$var wire 1 < uart_rx $end
$var wire 32 Y wbs_addr [31:0] $end
$var wire 1 Z wbs_cyc $end
$var wire 32 [ wbs_data_write [31:0] $end
$var wire 4 \ wbs_sel [3:0] $end
$var wire 1 ] wbs_stb $end
$var wire 1 H wbs_we $end
$var wire 1 & uart_tx $end
$var wire 1 ^ tx_ready $end
$var wire 1 _ tx_busy $end
$var wire 1 ` sel_tx_data $end
$var wire 1 a sel_status $end
$var wire 1 b sel_rx_data $end
$var wire 1 c sel_ctrl $end
$var wire 1 d sel_baud_div $end
$var wire 1 e rx_ready $end
$var wire 1 f rx_overrun $end
$var wire 1 g rx_frame_error $end
$var wire 8 h rx_data [7:0] $end
$var wire 12 i reg_offset [11:0] $end
$var wire 1 j baud_tick $end
$var parameter 32 k ADDR_WIDTH $end
$var parameter 16 l BAUD_DIV_RST $end
$var parameter 32 m CTRL_RX_ENABLE $end
$var parameter 32 n CTRL_TX_ENABLE $end
$var parameter 32 o DATA_WIDTH $end
$var parameter 12 p REG_UART_BAUD_DIV $end
$var parameter 12 q REG_UART_CTRL $end
$var parameter 12 r REG_UART_RX_DATA $end
$var parameter 12 s REG_UART_STATUS $end
$var parameter 12 t REG_UART_TX_DATA $end
$var parameter 32 u STATUS_RX_FRAME_ERR $end
$var parameter 32 v STATUS_RX_OVERRUN $end
$var parameter 32 w STATUS_RX_READY $end
$var parameter 32 x STATUS_TX_BUSY $end
$var parameter 32 y STATUS_TX_READY $end
$var reg 16 z baud_div_reg [15:0] $end
$var reg 8 { ctrl_reg [7:0] $end
$var reg 8 | rx_data_reg [7:0] $end
$var reg 8 } status_reg [7:0] $end
$var reg 1 ~ tmp_r_ack $end
$var reg 1 !" tmp_w_ack $end
$var reg 8 "" tx_data_reg [7:0] $end
$var reg 1 #" tx_start_pulse $end
$var reg 1 P wbs_ack $end
$var reg 32 $" wbs_data_read [31:0] $end
$scope module uart_baudgen_inst $end
$var wire 16 %" baud_div [15:0] $end
$var wire 1 7 clk $end
$var wire 1 &" enable $end
$var wire 1 8 rst_n $end
$var reg 16 '" baud_counter [15:0] $end
$var reg 1 j baud_tick $end
$upscope $end
$scope module uart_rx_inst $end
$var wire 1 j baud_tick $end
$var wire 1 7 clk $end
$var wire 1 8 rst_n $end
$var wire 1 W rx_clear $end
$var wire 1 (" rx_enable $end
$var wire 1 )" rx_falling_edge $end
$var wire 1 < uart_rx $end
$var parameter 3 *" RX_DATA $end
$var parameter 3 +" RX_ERROR $end
$var parameter 3 ," RX_IDLE $end
$var parameter 3 -" RX_START $end
$var parameter 3 ." RX_STOP $end
$var reg 3 /" rx_bit_counter [2:0] $end
$var reg 8 0" rx_data [7:0] $end
$var reg 1 g rx_frame_error $end
$var reg 1 f rx_overrun $end
$var reg 1 e rx_ready $end
$var reg 8 1" rx_shift_reg [7:0] $end
$var reg 3 2" rx_state [2:0] $end
$var reg 1 3" uart_rx_prev $end
$var reg 1 4" uart_rx_sync $end
$upscope $end
$scope module uart_tx_inst $end
$var wire 1 j baud_tick $end
$var wire 1 7 clk $end
$var wire 1 8 rst_n $end
$var wire 8 5" tx_data [7:0] $end
$var wire 1 6" tx_enable $end
$var wire 1 #" tx_start $end
$var parameter 2 7" TX_DATA $end
$var parameter 2 8" TX_IDLE $end
$var parameter 2 9" TX_START $end
$var parameter 2 :" TX_STOP $end
$var reg 3 ;" tx_bit_counter [2:0] $end
$var reg 1 _ tx_busy $end
$var reg 1 ^ tx_ready $end
$var reg 8 <" tx_shift_reg [7:0] $end
$var reg 2 =" tx_state [1:0] $end
$var reg 1 & uart_tx $end
$upscope $end
$upscope $end
$upscope $end
$scope module dut2 $end
$var wire 1 7 clk $end
$var wire 1 8 rst_n $end
$var wire 1 = uart_rx $end
$var wire 1 >" uart_select $end
$var wire 32 ?" wbs_addr [31:0] $end
$var wire 1 A wbs_cyc $end
$var wire 32 @" wbs_data_write [31:0] $end
$var wire 4 A" wbs_sel [3:0] $end
$var wire 1 G wbs_stb $end
$var wire 1 I wbs_we $end
$var wire 1 % uart_tx $end
$var wire 32 B" tmp_wbs_data_read [31:0] $end
$var wire 1 C" tmp_wbs_ack $end
$var parameter 32 D" ADDR_WIDTH $end
$var parameter 32 E" BASE_ADDR $end
$var parameter 16 F" BAUD_DIV_RST $end
$var parameter 32 G" DATA_WIDTH $end
$var parameter 32 H" SIZE_KB $end
$var reg 1 # wbs_ack $end
$var reg 32 I" wbs_data_read [31:0] $end
$scope module uart_inst $end
$var wire 1 7 clk $end
$var wire 1 8 rst_n $end
$var wire 1 J" rx_data_read $end
$var wire 1 K" status_read $end
$var wire 1 = uart_rx $end
$var wire 32 L" wbs_addr [31:0] $end
$var wire 1 M" wbs_cyc $end
$var wire 32 N" wbs_data_write [31:0] $end
$var wire 4 O" wbs_sel [3:0] $end
$var wire 1 P" wbs_stb $end
$var wire 1 I wbs_we $end
$var wire 1 % uart_tx $end
$var wire 1 Q" tx_ready $end
$var wire 1 R" tx_busy $end
$var wire 1 S" sel_tx_data $end
$var wire 1 T" sel_status $end
$var wire 1 U" sel_rx_data $end
$var wire 1 V" sel_ctrl $end
$var wire 1 W" sel_baud_div $end
$var wire 1 X" rx_ready $end
$var wire 1 Y" rx_overrun $end
$var wire 1 Z" rx_frame_error $end
$var wire 8 [" rx_data [7:0] $end
$var wire 12 \" reg_offset [11:0] $end
$var wire 1 ]" baud_tick $end
$var parameter 32 ^" ADDR_WIDTH $end
$var parameter 16 _" BAUD_DIV_RST $end
$var parameter 32 `" CTRL_RX_ENABLE $end
$var parameter 32 a" CTRL_TX_ENABLE $end
$var parameter 32 b" DATA_WIDTH $end
$var parameter 12 c" REG_UART_BAUD_DIV $end
$var parameter 12 d" REG_UART_CTRL $end
$var parameter 12 e" REG_UART_RX_DATA $end
$var parameter 12 f" REG_UART_STATUS $end
$var parameter 12 g" REG_UART_TX_DATA $end
$var parameter 32 h" STATUS_RX_FRAME_ERR $end
$var parameter 32 i" STATUS_RX_OVERRUN $end
$var parameter 32 j" STATUS_RX_READY $end
$var parameter 32 k" STATUS_TX_BUSY $end
$var parameter 32 l" STATUS_TX_READY $end
$var reg 16 m" baud_div_reg [15:0] $end
$var reg 8 n" ctrl_reg [7:0] $end
$var reg 8 o" rx_data_reg [7:0] $end
$var reg 8 p" status_reg [7:0] $end
$var reg 1 q" tmp_r_ack $end
$var reg 1 r" tmp_w_ack $end
$var reg 8 s" tx_data_reg [7:0] $end
$var reg 1 t" tx_start_pulse $end
$var reg 1 C" wbs_ack $end
$var reg 32 u" wbs_data_read [31:0] $end
$scope module uart_baudgen_inst $end
$var wire 16 v" baud_div [15:0] $end
$var wire 1 7 clk $end
$var wire 1 w" enable $end
$var wire 1 8 rst_n $end
$var reg 16 x" baud_counter [15:0] $end
$var reg 1 ]" baud_tick $end
$upscope $end
$scope module uart_rx_inst $end
$var wire 1 ]" baud_tick $end
$var wire 1 7 clk $end
$var wire 1 8 rst_n $end
$var wire 1 J" rx_clear $end
$var wire 1 y" rx_enable $end
$var wire 1 z" rx_falling_edge $end
$var wire 1 = uart_rx $end
$var parameter 3 {" RX_DATA $end
$var parameter 3 |" RX_ERROR $end
$var parameter 3 }" RX_IDLE $end
$var parameter 3 ~" RX_START $end
$var parameter 3 !# RX_STOP $end
$var reg 3 "# rx_bit_counter [2:0] $end
$var reg 8 ## rx_data [7:0] $end
$var reg 1 Z" rx_frame_error $end
$var reg 1 Y" rx_overrun $end
$var reg 1 X" rx_ready $end
$var reg 8 $# rx_shift_reg [7:0] $end
$var reg 3 %# rx_state [2:0] $end
$var reg 1 &# uart_rx_prev $end
$var reg 1 '# uart_rx_sync $end
$upscope $end
$scope module uart_tx_inst $end
$var wire 1 ]" baud_tick $end
$var wire 1 7 clk $end
$var wire 1 8 rst_n $end
$var wire 8 (# tx_data [7:0] $end
$var wire 1 )# tx_enable $end
$var wire 1 t" tx_start $end
$var parameter 2 *# TX_DATA $end
$var parameter 2 +# TX_IDLE $end
$var parameter 2 ,# TX_START $end
$var parameter 2 -# TX_STOP $end
$var reg 3 .# tx_bit_counter [2:0] $end
$var reg 1 R" tx_busy $end
$var reg 1 Q" tx_ready $end
$var reg 8 /# tx_shift_reg [7:0] $end
$var reg 2 0# tx_state [1:0] $end
$var reg 1 % uart_tx $end
$upscope $end
$upscope $end
$upscope $end
$scope task test_loopback $end
$var reg 32 1# error_count [31:0] $end
$var reg 32 2# read_data [31:0] $end
$var reg 8 3# test_data [7:0] $end
$var integer 32 4# bit_time [31:0] $end
$scope begin $ivl_for_loop0 $end
$var integer 32 5# j [31:0] $end
$upscope $end
$upscope $end
$scope task test_uart_configuration $end
$var reg 32 6# error_count [31:0] $end
$var reg 32 7# read_data [31:0] $end
$upscope $end
$scope task test_uart_receiver $end
$var reg 32 8# error_count [31:0] $end
$var reg 32 9# read_data [31:0] $end
$var reg 8 :# test_data [7:0] $end
$var integer 32 ;# bit_time [31:0] $end
$upscope $end
$scope task test_uart_transmitter $end
$var reg 32 <# error_count [31:0] $end
$var reg 32 =# read_data [31:0] $end
$var reg 8 ># test_data [7:0] $end
$var integer 32 ?# bit_time [31:0] $end
$upscope $end
$scope task wb_read $end
$var reg 32 @# addr [31:0] $end
$var reg 32 A# data [31:0] $end
$upscope $end
$scope task wb_read2 $end
$var reg 32 B# addr [31:0] $end
$var reg 32 C# data [31:0] $end
$upscope $end
$scope task wb_write $end
$var reg 32 D# addr [31:0] $end
$var reg 32 E# data [31:0] $end
$var reg 4 F# sel [3:0] $end
$upscope $end
$scope task wb_write2 $end
$var reg 32 G# addr [31:0] $end
$var reg 32 H# data [31:0] $end
$var reg 4 I# sel [3:0] $end
$upscope $end
$upscope $end
$enddefinitions $end
$comment Show the parameter values. $end
$dumpall
b11 -#
b1 ,#
b0 +#
b10 *#
b11 !#
b1 ~"
b0 }"
b100 |"
b10 {"
b0 l"
b1 k"
b10 j"
b11 i"
b100 h"
b0 g"
b10000 f"
b100 e"
b1100 d"
b1000 c"
b100000 b"
b0 a"
b1 `"
b1101000 _"
b100000 ^"
b100 H"
b100000 G"
b1101000 F"
b100000000000000000000000000000 E"
b100000 D"
b11 :"
b1 9"
b0 8"
b10 7"
b11 ."
b1 -"
b0 ,"
b100 +"
b10 *"
b0 y
b1 x
b10 w
b11 v
b100 u
b0 t
b10000 s
b100 r
b1100 q
b1000 p
b100000 o
b0 n
b1 m
b1101000 l
b100000 k
b100 U
b100000 T
b1101000 S
b100000000000000000000000000000 R
b100000 Q
b0 6
b1 5
b10 4
b11 3
b100 2
b100 1
b100000 0
b0 /
b1 .
b1010 -
b101111101011110000100000000 ,
b11100001000000000 +
b1101000 *
b1101100100 )
b100000000000000000000000000000 (
b100000 '
$end
#0
$dumpvars
bx I#
bx H#
bx G#
bx F#
bx E#
bx D#
bx C#
bx B#
bx A#
bx @#
bx ?#
bx >#
bx =#
bx <#
bx ;#
bx :#
bx 9#
bx 8#
bx 7#
bx 6#
bx 5#
bx 4#
bx 3#
bx 2#
bx 1#
b0 0#
b0 /#
b0 .#
1)#
b0 (#
1'#
1&#
b0 %#
b0 $#
b0 ##
b0 "#
0z"
1y"
bx x"
1w"
b1101000 v"
b0 u"
0t"
b0 s"
0r"
0q"
b1 p"
b0 o"
b11 n"
b1101000 m"
0]"
bx \"
b0 ["
0Z"
0Y"
0X"
xW"
xV"
xU"
xT"
xS"
0R"
1Q"
xP"
bx O"
bx N"
xM"
bx L"
xK"
xJ"
bx I"
0C"
b0 B"
bx A"
bx @"
bx ?"
x>"
b0 ="
b0 <"
b0 ;"
16"
b0 5"
14"
13"
b0 2"
b0 1"
b0 0"
b0 /"
0)"
1("
bx '"
1&"
b1101000 %"
b0 $"
0#"
b0 ""
0!"
0~
b1 }
b0 |
b11 {
b1101000 z
0j
b0 i
b0 h
0g
0f
0e
0d
0c
0b
0a
1`
0_
1^
0]
b0 \
b0 [
0Z
b0 Y
0X
0W
bx V
0P
b0 O
b0 N
b0 M
b0 L
0K
bx J
xI
0H
xG
0F
bx E
b0 D
bx C
b0 B
xA
0@
bx ?
b0 >
x=
1<
b0 ;
b0 :
b0 9
08
07
1&
1%
x$
x#
bx "
bx !
$end
#5000
b1101000 x"
b1101000 '"
0$
b0 "
b0 V
0#
b0 !
b0 I"
17
#10000
07
#15000
17
#20000
07
#25000
17
#30000
07
#35000
17
#40000
07
#45000
17
#50000
07
#55000
17
#60000
07
#65000
17
#70000
07
#75000
17
#80000
07
#85000
17
#90000
07
#95000
17
#100000
07
18
#105000
xz"
x'#
b1100111 x"
b1100111 '"
17
#110000
07
#115000
b1100110 '"
b1100110 x"
x&#
17
#120000
07
b1111 F#
b1101100100 E#
b100000000000000000000000001000 D#
b0 7#
b0 6#
b1 :
#125000
b1100101 x"
b1100101 '"
1Z
1]
1K
0`
1d
b1000 i
b1111 D
b1111 N
b1111 \
b1101100100 B
b1101100100 M
b1101100100 [
b100000000000000000000000001000 >
b100000000000000000000000001000 L
b100000000000000000000000001000 Y
1H
1F
1@
17
#130000
07
#135000
b1100100 '"
b1101100100 z
b1101100100 %"
1!"
b1100100 x"
17
#140000
07
#145000
b1100011 x"
1P
1!"
b1100011 '"
17
#150000
07
#155000
b1100010 '"
1!"
b1100010 x"
1$
17
#160000
07
#165000
b1100001 x"
0!"
b1100001 '"
0]
0Z
0H
0F
0@
17
#170000
07
#175000
b1100000 '"
0P
b1100000 x"
b11 E#
b100000000000000000000000001100 D#
17
#180000
07
#185000
b1011111 x"
b1011111 '"
0$
0d
1c
b1100 i
1]
1Z
b11 B
b11 M
b11 [
b100000000000000000000000001100 >
b100000000000000000000000001100 L
b100000000000000000000000001100 Y
1H
1F
1@
17
#190000
07
#195000
b1011110 '"
1!"
b1011110 x"
17
#200000
07
#205000
b1011101 x"
1P
1!"
b1011101 '"
17
#210000
07
#215000
b1011100 '"
1!"
b1011100 x"
1$
17
#220000
07
#225000
b1011011 x"
0!"
b1011011 '"
0]
0Z
0H
0F
0@
17
#230000
07
#235000
b1011010 '"
0P
b1011010 x"
b100000000000000000000000001000 @#
17
#240000
07
#245000
b1011001 x"
b1011001 '"
0$
b1101100100 O
b1101100100 $"
1~
1d
0c
b1000 i
1]
1Z
b100000000000000000000000001000 >
b100000000000000000000000001000 L
b100000000000000000000000001000 Y
1F
1@
17
#250000
07
#255000
b1011000 '"
1P
b1011000 x"
b1101100100 "
b1101100100 V
17
#260000
07
#265000
b1010111 x"
b1010111 '"
1$
17
#270000
07
#275000
b1010110 '"
b1010110 x"
0~
b0 O
b0 $"
0]
0Z
0F
0@
b1101100100 A#
17
#280000
07
#285000
b1010101 x"
0P
b1010101 '"
b0 "
b0 V
b100000000000000000000000001100 @#
b1101100100 7#
17
#290000
07
#295000
b1010100 '"
b1010100 x"
0$
b11 O
b11 $"
1~
0d
1c
b1100 i
1]
1Z
b100000000000000000000000001100 >
b100000000000000000000000001100 L
b100000000000000000000000001100 Y
1F
1@
17
#300000
07
#305000
b1010011 x"
1P
b1010011 '"
b11 "
b11 V
17
#310000
07
#315000
b1010010 '"
b1010010 x"
1$
17
#320000
07
#325000
b1010001 x"
b1010001 '"
0~
b0 O
b0 $"
0]
0Z
0F
0@
b11 A#
17
#330000
07
#335000
b1010000 '"
0P
b1010000 x"
b0 "
b0 V
b11 7#
17
#340000
07
#345000
b1001111 x"
b1001111 '"
0$
17
#350000
07
#355000
b1001110 '"
b1001110 x"
1X
b1 O
b1 $"
1~
0c
1a
b10000 i
1]
1Z
b100000000000000000000000010000 >
b100000000000000000000000010000 L
b100000000000000000000000010000 Y
1F
1@
17
b100000000000000000000000010000 @#
b10100101 >#
b10000111101000 ?#
b0 =#
b0 <#
b10 :
#360000
07
#365000
b1001101 x"
1P
b1001101 '"
b1 "
b1 V
17
#370000
07
#375000
b1001100 '"
b1001100 x"
1$
17
#380000
07
#385000
b1001011 x"
b1001011 '"
0X
0~
b0 O
b0 $"
0]
0Z
0F
0@
b1 A#
17
#390000
07
#395000
b1001010 '"
0P
b1001010 x"
b0 "
b0 V
b1 F#
b10100101 E#
b100000000000000000000000000000 D#
b1 =#
17
#400000
07
#405000
b1001001 x"
b1001001 '"
0$
1`
0a
b0 i
1]
1Z
b1 D
b1 N
b1 \
b10100101 B
b10100101 M
b10100101 [
b100000000000000000000000000000 >
b100000000000000000000000000000 L
b100000000000000000000000000000 Y
1H
1F
1@
17
#410000
07
#415000
b1001000 '"
1#"
b10100101 ""
b10100101 5"
1!"
b1001000 x"
17
#420000
07
#425000
b1000111 x"
1P
1#"
1!"
0^
1_
b10100101 <"
b1 ="
b1000111 '"
17
#430000
07
#435000
b1000110 '"
1#"
1!"
b10 }
b1000110 x"
1$
17
#440000
07
#445000
b1000101 x"
0#"
0!"
b1000101 '"
0]
0Z
0H
0F
0@
17
#450000
07
#455000
b1000100 '"
0P
b1000100 x"
17
#460000
07
#465000
b1000011 x"
b1000011 '"
0$
17
#470000
07
#475000
b1000010 '"
b1000010 x"
1X
b10 O
b10 $"
1~
0`
1a
b10000 i
1]
1Z
b100000000000000000000000010000 >
b100000000000000000000000010000 L
b100000000000000000000000010000 Y
1F
1@
17
#480000
07
#485000
b1000001 x"
1P
b1000001 '"
b10 "
b10 V
17
#490000
07
#495000
b1000000 '"
b1000000 x"
1$
17
#500000
07
#505000
b111111 x"
b111111 '"
0X
0~
b0 O
b0 $"
0]
0Z
0F
0@
b10 A#
17
#510000
07
#515000
b111110 '"
0P
b111110 x"
b0 "
b0 V
b10 =#
17
#520000
07
#525000
b111101 x"
b111101 '"
0$
17
#530000
07
#535000
b111100 '"
b111100 x"
17
#540000
07
#545000
b111011 x"
b111011 '"
17
#550000
07
#555000
b111010 '"
b111010 x"
17
#560000
07
#565000
b111001 x"
b111001 '"
17
#570000
07
#575000
b111000 '"
b111000 x"
17
#580000
07
#585000
b110111 x"
b110111 '"
17
#590000
07
#595000
b110110 '"
b110110 x"
17
#600000
07
#605000
b110101 x"
b110101 '"
17
#610000
07
#615000
b110100 '"
b110100 x"
17
#620000
07
#625000
b110011 x"
b110011 '"
17
#630000
07
#635000
b110010 '"
b110010 x"
17
#640000
07
#645000
b110001 x"
b110001 '"
17
#650000
07
#655000
b110000 '"
b110000 x"
17
#660000
07
#665000
b101111 x"
b101111 '"
17
#670000
07
#675000
b101110 '"
b101110 x"
17
#680000
07
#685000
b101101 x"
b101101 '"
17
#690000
07
#695000
b101100 '"
b101100 x"
17
#700000
07
#705000
b101011 x"
b101011 '"
17
#710000
07
#715000
b101010 '"
b101010 x"
17
#720000
07
#725000
b101001 x"
b101001 '"
17
#730000
07
#735000
b101000 '"
b101000 x"
17
#740000
07
#745000
b100111 x"
b100111 '"
17
#750000
07
#755000
b100110 '"
b100110 x"
17
#760000
07
#765000
b100101 x"
b100101 '"
17
#770000
07
#775000
b100100 '"
b100100 x"
17
#780000
07
#785000
b100011 x"
b100011 '"
17
#790000
07
#795000
b100010 '"
b100010 x"
17
#800000
07
#805000
b100001 x"
b100001 '"
17
#810000
07
#815000
b100000 '"
b100000 x"
17
#820000
07
#825000
b11111 x"
b11111 '"
17
#830000
07
#835000
b11110 '"
b11110 x"
17
#840000
07
#845000
b11101 x"
b11101 '"
17
#850000
07
#855000
b11100 '"
b11100 x"
17
#860000
07
#865000
b11011 x"
b11011 '"
17
#870000
07
#875000
b11010 '"
b11010 x"
17
#880000
07
#885000
b11001 x"
b11001 '"
17
#890000
07
#895000
b11000 '"
b11000 x"
17
#900000
07
#905000
b10111 x"
b10111 '"
17
#910000
07
#915000
b10110 '"
b10110 x"
17
#920000
07
#925000
b10101 x"
b10101 '"
17
#930000
07
#935000
b10100 '"
b10100 x"
17
#940000
07
#945000
b10011 x"
b10011 '"
17
#950000
07
#955000
b10010 '"
b10010 x"
17
#960000
07
#965000
b10001 x"
b10001 '"
17
#970000
07
#975000
b10000 '"
b10000 x"
17
#980000
07
#985000
b1111 x"
b1111 '"
17
#990000
07
#995000
b1110 '"
b1110 x"
17
#1000000
07
#1005000
b1101 x"
b1101 '"
17
#1010000
07
#1015000
b1100 '"
b1100 x"
17
#1020000
07
#1025000
b1011 x"
b1011 '"
17
#1030000
07
#1035000
b1010 '"
b1010 x"
17
#1040000
07
#1045000
b1001 x"
b1001 '"
17
#1050000
07
#1055000
b1000 '"
b1000 x"
17
#1060000
07
#1065000
b111 x"
b111 '"
17
#1070000
07
#1075000
b110 '"
b110 x"
17
#1080000
07
#1085000
b101 x"
b101 '"
17
#1090000
07
#1095000
b100 '"
b100 x"
17
#1100000
07
#1105000
b11 x"
b11 '"
17
#1110000
07
#1115000
b10 '"
b10 x"
17
#1120000
07
#1125000
b1 x"
b1 '"
17
#1130000
07
#1135000
b0 '"
b0 x"
17
#1140000
07
#1145000
1]"
b1101000 x"
1j
b1101100100 '"
17
#1150000
07
#1155000
b1101100011 '"
0j
b10 ="
0&
b1100111 x"
0]"
17
#1160000
07
#1165000
b1100110 x"
b1101100010 '"
17
#1170000
07
#1175000
b1101100001 '"
b1100101 x"
17
#1180000
07
#1185000
b1100100 x"
b1101100000 '"
17
#1190000
07
#1195000
b1101011111 '"
b1100011 x"
17
#1200000
07
#1205000
b1100010 x"
b1101011110 '"
17
#1210000
07
#1215000
b1101011101 '"
b1100001 x"
17
#1220000
07
#1225000
b1100000 x"
b1101011100 '"
17
#1230000
07
#1235000
b1101011011 '"
b1011111 x"
17
#1240000
07
#1245000
b1011110 x"
b1101011010 '"
17
#1250000
07
#1255000
b1101011001 '"
b1011101 x"
17
#1260000
07
#1265000
b1011100 x"
b1101011000 '"
17
#1270000
07
#1275000
b1101010111 '"
b1011011 x"
17
#1280000
07
#1285000
b1011010 x"
b1101010110 '"
17
#1290000
07
#1295000
b1101010101 '"
b1011001 x"
17
#1300000
07
#1305000
b1011000 x"
b1101010100 '"
17
#1310000
07
#1315000
b1101010011 '"
b1010111 x"
17
#1320000
07
#1325000
b1010110 x"
b1101010010 '"
17
#1330000
07
#1335000
b1101010001 '"
b1010101 x"
17
#1340000
07
#1345000
b1010100 x"
b1101010000 '"
17
#1350000
07
#1355000
b1101001111 '"
b1010011 x"
17
#1360000
07
#1365000
b1010010 x"
b1101001110 '"
17
#1370000
07
#1375000
b1101001101 '"
b1010001 x"
17
#1380000
07
#1385000
b1010000 x"
b1101001100 '"
17
#1390000
07
#1395000
b1101001011 '"
b1001111 x"
17
#1400000
07
#1405000
b1001110 x"
b1101001010 '"
17
#1410000
07
#1415000
b1101001001 '"
b1001101 x"
17
#1420000
07
#1425000
b1001100 x"
b1101001000 '"
17
#1430000
07
#1435000
b1101000111 '"
b1001011 x"
17
#1440000
07
#1445000
b1001010 x"
b1101000110 '"
17
#1450000
07
#1455000
b1101000101 '"
b1001001 x"
17
#1460000
07
#1465000
b1001000 x"
b1101000100 '"
17
#1470000
07
#1475000
b1101000011 '"
b1000111 x"
17
#1480000
07
#1485000
b1000110 x"
b1101000010 '"
17
#1490000
07
#1495000
b1101000001 '"
b1000101 x"
17
#1500000
07
#1505000
b1000100 x"
b1101000000 '"
17
#1510000
07
#1515000
b1100111111 '"
b1000011 x"
17
#1520000
07
#1525000
b1000010 x"
b1100111110 '"
17
#1530000
07
#1535000
b1100111101 '"
b1000001 x"
17
#1540000
07
#1545000
b1000000 x"
b1100111100 '"
17
#1550000
07
#1555000
b1100111011 '"
b111111 x"
17
#1560000
07
#1565000
b111110 x"
b1100111010 '"
17
#1570000
07
#1575000
b1100111001 '"
b111101 x"
17
#1580000
07
#1585000
b111100 x"
b1100111000 '"
17
#1590000
07
#1595000
b1100110111 '"
b111011 x"
17
#1600000
07
#1605000
b111010 x"
b1100110110 '"
17
#1610000
07
#1615000
b1100110101 '"
b111001 x"
17
#1620000
07
#1625000
b111000 x"
b1100110100 '"
17
#1630000
07
#1635000
b1100110011 '"
b110111 x"
17
#1640000
07
#1645000
b110110 x"
b1100110010 '"
17
#1650000
07
#1655000
b1100110001 '"
b110101 x"
17
#1660000
07
#1665000
b110100 x"
b1100110000 '"
17
#1670000
07
#1675000
b1100101111 '"
b110011 x"
17
#1680000
07
#1685000
b110010 x"
b1100101110 '"
17
#1690000
07
#1695000
b1100101101 '"
b110001 x"
17
#1700000
07
#1705000
b110000 x"
b1100101100 '"
17
#1710000
07
#1715000
b1100101011 '"
b101111 x"
17
#1720000
07
#1725000
b101110 x"
b1100101010 '"
17
#1730000
07
#1735000
b1100101001 '"
b101101 x"
17
#1740000
07
#1745000
b101100 x"
b1100101000 '"
17
#1750000
07
#1755000
b1100100111 '"
b101011 x"
17
#1760000
07
#1765000
b101010 x"
b1100100110 '"
17
#1770000
07
#1775000
b1100100101 '"
b101001 x"
17
#1780000
07
#1785000
b101000 x"
b1100100100 '"
17
#1790000
07
#1795000
b1100100011 '"
b100111 x"
17
#1800000
07
#1805000
b100110 x"
b1100100010 '"
17
#1810000
07
#1815000
b1100100001 '"
b100101 x"
17
#1820000
07
#1825000
b100100 x"
b1100100000 '"
17
#1830000
07
#1835000
b1100011111 '"
b100011 x"
17
#1840000
07
#1845000
b100010 x"
b1100011110 '"
17
#1850000
07
#1855000
b1100011101 '"
b100001 x"
17
#1860000
07
#1865000
b100000 x"
b1100011100 '"
17
#1870000
07
#1875000
b1100011011 '"
b11111 x"
17
#1880000
07
#1885000
b11110 x"
b1100011010 '"
17
#1890000
07
#1895000
b1100011001 '"
b11101 x"
17
#1900000
07
#1905000
b11100 x"
b1100011000 '"
17
#1910000
07
#1915000
b1100010111 '"
b11011 x"
17
#1920000
07
#1925000
b11010 x"
b1100010110 '"
17
#1930000
07
#1935000
b1100010101 '"
b11001 x"
17
#1940000
07
#1945000
b11000 x"
b1100010100 '"
17
#1950000
07
#1955000
b1100010011 '"
b10111 x"
17
#1960000
07
#1965000
b10110 x"
b1100010010 '"
17
#1970000
07
#1975000
b1100010001 '"
b10101 x"
17
#1980000
07
#1985000
b10100 x"
b1100010000 '"
17
#1990000
07
#1995000
b1100001111 '"
b10011 x"
17
#2000000
07
#2005000
b10010 x"
b1100001110 '"
17
#2010000
07
#2015000
b1100001101 '"
b10001 x"
17
#2020000
07
#2025000
b10000 x"
b1100001100 '"
17
#2030000
07
#2035000
b1100001011 '"
b1111 x"
17
#2040000
07
#2045000
b1110 x"
b1100001010 '"
17
#2050000
07
#2055000
b1100001001 '"
b1101 x"
17
#2060000
07
#2065000
b1100 x"
b1100001000 '"
17
#2070000
07
#2075000
b1100000111 '"
b1011 x"
17
#2080000
07
#2085000
b1010 x"
b1100000110 '"
17
#2090000
07
#2095000
b1100000101 '"
b1001 x"
17
#2100000
07
#2105000
b1000 x"
b1100000100 '"
17
#2110000
07
#2115000
b1100000011 '"
b111 x"
17
#2120000
07
#2125000
b110 x"
b1100000010 '"
17
#2130000
07
#2135000
b1100000001 '"
b101 x"
17
#2140000
07
#2145000
b100 x"
b1100000000 '"
17
#2150000
07
#2155000
b1011111111 '"
b11 x"
17
