build/sim/bus/wishbone_interconnect_tb.vcd
$date
	Sun Jul 20 20:45:58 2025
$end
$version
	Icarus Verilog
$end
$timescale
	1ps
$end
$scope module tb_wishbone_interconnect $end
$var wire 1 ! wb_s4_gpio_we $end
$var wire 1 " wb_s4_gpio_stb $end
$var wire 4 # wb_s4_gpio_sel [3:0] $end
$var wire 32 $ wb_s4_gpio_data_write [31:0] $end
$var wire 32 % wb_s4_gpio_data_read [31:0] $end
$var wire 1 & wb_s4_gpio_cyc $end
$var wire 32 ' wb_s4_gpio_addr [31:0] $end
$var wire 1 ( wb_s4_gpio_ack $end
$var wire 1 ) wb_s3_timer_we $end
$var wire 1 * wb_s3_timer_stb $end
$var wire 4 + wb_s3_timer_sel [3:0] $end
$var wire 32 , wb_s3_timer_data_write [31:0] $end
$var wire 32 - wb_s3_timer_data_read [31:0] $end
$var wire 1 . wb_s3_timer_cyc $end
$var wire 32 / wb_s3_timer_addr [31:0] $end
$var wire 1 0 wb_s3_timer_ack $end
$var wire 1 1 wb_s2_uart_we $end
$var wire 1 2 wb_s2_uart_stb $end
$var wire 4 3 wb_s2_uart_sel [3:0] $end
$var wire 32 4 wb_s2_uart_data_write [31:0] $end
$var wire 32 5 wb_s2_uart_data_read [31:0] $end
$var wire 1 6 wb_s2_uart_cyc $end
$var wire 32 7 wb_s2_uart_addr [31:0] $end
$var wire 1 8 wb_s2_uart_ack $end
$var wire 1 9 wb_s1_dmem_we $end
$var wire 1 : wb_s1_dmem_stb $end
$var wire 4 ; wb_s1_dmem_sel [3:0] $end
$var wire 32 < wb_s1_dmem_data_write [31:0] $end
$var wire 32 = wb_s1_dmem_data_read [31:0] $end
$var wire 1 > wb_s1_dmem_cyc $end
$var wire 32 ? wb_s1_dmem_addr [31:0] $end
$var wire 1 @ wb_s1_dmem_ack $end
$var wire 1 A wb_s0_imem_we $end
$var wire 1 B wb_s0_imem_stb $end
$var wire 4 C wb_s0_imem_sel [3:0] $end
$var wire 32 D wb_s0_imem_data_write [31:0] $end
$var wire 32 E wb_s0_imem_data_read [31:0] $end
$var wire 1 F wb_s0_imem_cyc $end
$var wire 32 G wb_s0_imem_addr [31:0] $end
$var wire 1 H wb_s0_imem_ack $end
$var wire 1 I wb_m_cpu_we $end
$var wire 1 J wb_m_cpu_stb $end
$var wire 4 K wb_m_cpu_sel [3:0] $end
$var wire 32 L wb_m_cpu_data_write [31:0] $end
$var wire 32 M wb_m_cpu_data_read [31:0] $end
$var wire 1 N wb_m_cpu_cyc $end
$var wire 32 O wb_m_cpu_addr [31:0] $end
$var wire 1 P wb_m_cpu_ack $end
$var parameter 32 Q ADDR_WIDTH $end
$var parameter 32 R CLK_PERIOD $end
$var parameter 32 S DATA_WIDTH $end
$var parameter 32 T DMEM_BASE_ADDR $end
$var parameter 32 U GPIO_BASE_ADDR $end
$var parameter 32 V IMEM_BASE_ADDR $end
$var parameter 32 W TIMER_BASE_ADDR $end
$var parameter 32 X UART_BASE_ADDR $end
$var reg 1 Y clk $end
$var reg 1 Z rst_n $end
$var reg 5 [ slave_accessed [4:0] $end
$var reg 32 \ task_error_count [31:0] $end
$var reg 320 ] test_name [320:1] $end
$var reg 32 ^ test_num [31:0] $end
$var reg 32 _ total_errors [31:0] $end
$scope function check_cyc_stb_timing $end
$var reg 32 ` addr [31:0] $end
$var reg 1 a error $end
$var reg 1 b is_write $end
$upscope $end
$scope module cpu_master $end
$var wire 1 Y clk $end
$var wire 32 c read_data [31:0] $end
$var wire 1 d read_done $end
$var wire 1 Z rst_n $end
$var wire 1 e write_done $end
$var wire 32 f wb_data_i [31:0] $end
$var wire 1 P wb_ack_i $end
$var parameter 32 g ADDR_WIDTH $end
$var parameter 32 h DATA_WIDTH $end
$var parameter 2 i DONE $end
$var parameter 2 j IDLE $end
$var parameter 2 k START $end
$var parameter 2 l WAIT_ACK $end
$var reg 32 m addr_reg [31:0] $end
$var reg 32 n data_reg [31:0] $end
$var reg 1 o operation_type $end
$var reg 1 p read_req $end
$var reg 4 q sel_reg [3:0] $end
$var reg 2 r state [1:0] $end
$var reg 32 s wb_addr_o [31:0] $end
$var reg 1 N wb_cyc_o $end
$var reg 32 t wb_data_o [31:0] $end
$var reg 4 u wb_sel_o [3:0] $end
$var reg 1 J wb_stb_o $end
$var reg 1 I wb_we_o $end
$var reg 1 v write_req $end
$scope task wb_read $end
$var reg 32 w addr [31:0] $end
$var reg 32 x data [31:0] $end
$upscope $end
$scope task wb_read_sel $end
$var reg 32 y addr [31:0] $end
$var reg 32 z read_data_out [31:0] $end
$var reg 4 { sel [3:0] $end
$upscope $end
$scope task wb_write $end
$var reg 32 | addr [31:0] $end
$var reg 32 } data [31:0] $end
$upscope $end
$scope task wb_write_sel $end
$var reg 32 ~ addr [31:0] $end
$var reg 32 !" data [31:0] $end
$var reg 4 "" sel [3:0] $end
$upscope $end
$upscope $end
$scope module dmem_slave $end
$var wire 1 Y clk $end
$var wire 1 #" is_selected $end
$var wire 1 Z rst_n $end
$var wire 1 9 wb_we_i $end
$var wire 1 : wb_stb_i $end
$var wire 4 $" wb_sel_i [3:0] $end
$var wire 32 %" wb_data_i [31:0] $end
$var wire 1 > wb_cyc_i $end
$var wire 32 &" wb_addr_i [31:0] $end
$var wire 32 '" addr_offset [31:0] $end
$var parameter 32 (" ADDR_WIDTH $end
$var parameter 32 )" BASE_ADDR $end
$var parameter 32 *" DATA_WIDTH $end
$var parameter 32 +" SLAVE_ID $end
$var reg 32 ," full_world [31:0] $end
$var reg 1 @ wb_ack_o $end
$var reg 32 -" wb_data_o [31:0] $end
$scope begin $ivl_for_loop0 $end
$var integer 32 ." i [31:0] $end
$upscope $end
$upscope $end
$scope module dut $end
$var wire 1 Y clk $end
$var wire 1 Z rst_n $end
$var wire 32 /" wb_m_cpu_addr [31:0] $end
$var wire 1 N wb_m_cpu_cyc $end
$var wire 32 0" wb_m_cpu_data_write [31:0] $end
$var wire 4 1" wb_m_cpu_sel [3:0] $end
$var wire 1 J wb_m_cpu_stb $end
$var wire 1 I wb_m_cpu_we $end
$var wire 1 @ wb_s1_dmem_ack $end
$var wire 32 2" wb_s1_dmem_data_read [31:0] $end
$var wire 32 3" wb_s4_gpio_data_read [31:0] $end
$var wire 1 ( wb_s4_gpio_ack $end
$var wire 32 4" wb_s3_timer_data_read [31:0] $end
$var wire 1 0 wb_s3_timer_ack $end
$var wire 32 5" wb_s2_uart_data_read [31:0] $end
$var wire 1 8 wb_s2_uart_ack $end
$var wire 32 6" wb_s0_imem_data_read [31:0] $end
$var wire 1 H wb_s0_imem_ack $end
$var parameter 32 7" ADDR_WIDTH $end
$var parameter 32 8" DATA_WIDTH $end
$var parameter 3 9" SLAVE_DMEM $end
$var parameter 3 :" SLAVE_GPIO $end
$var parameter 3 ;" SLAVE_IMEM $end
$var parameter 3 <" SLAVE_NONE $end
$var parameter 3 =" SLAVE_TIMER $end
$var parameter 3 >" SLAVE_UART $end
$var reg 3 ?" sel_slave [2:0] $end
$var reg 1 P wb_m_cpu_ack $end
$var reg 32 @" wb_m_cpu_data_read [31:0] $end
$var reg 32 A" wb_s0_imem_addr [31:0] $end
$var reg 1 F wb_s0_imem_cyc $end
$var reg 32 B" wb_s0_imem_data_write [31:0] $end
$var reg 4 C" wb_s0_imem_sel [3:0] $end
$var reg 1 B wb_s0_imem_stb $end
$var reg 1 A wb_s0_imem_we $end
$var reg 32 D" wb_s1_dmem_addr [31:0] $end
$var reg 1 > wb_s1_dmem_cyc $end
$var reg 32 E" wb_s1_dmem_data_write [31:0] $end
$var reg 4 F" wb_s1_dmem_sel [3:0] $end
$var reg 1 : wb_s1_dmem_stb $end
$var reg 1 9 wb_s1_dmem_we $end
$var reg 32 G" wb_s2_uart_addr [31:0] $end
$var reg 1 6 wb_s2_uart_cyc $end
$var reg 32 H" wb_s2_uart_data_write [31:0] $end
$var reg 4 I" wb_s2_uart_sel [3:0] $end
$var reg 1 2 wb_s2_uart_stb $end
$var reg 1 1 wb_s2_uart_we $end
$var reg 32 J" wb_s3_timer_addr [31:0] $end
$var reg 1 . wb_s3_timer_cyc $end
$var reg 32 K" wb_s3_timer_data_write [31:0] $end
$var reg 4 L" wb_s3_timer_sel [3:0] $end
$var reg 1 * wb_s3_timer_stb $end
$var reg 1 ) wb_s3_timer_we $end
$var reg 32 M" wb_s4_gpio_addr [31:0] $end
$var reg 1 & wb_s4_gpio_cyc $end
$var reg 32 N" wb_s4_gpio_data_write [31:0] $end
$var reg 4 O" wb_s4_gpio_sel [3:0] $end
$var reg 1 " wb_s4_gpio_stb $end
$var reg 1 ! wb_s4_gpio_we $end
$upscope $end
$scope module gpio_slave $end
$var wire 1 Y clk $end
$var wire 1 P" is_selected $end
$var wire 1 Z rst_n $end
$var wire 32 Q" wb_addr_i [31:0] $end
$var wire 1 & wb_cyc_i $end
$var wire 32 R" wb_data_i [31:0] $end
$var wire 4 S" wb_sel_i [3:0] $end
$var wire 1 " wb_stb_i $end
$var wire 1 ! wb_we_i $end
$var wire 32 T" addr_offset [31:0] $end
$var parameter 32 U" ADDR_WIDTH $end
$var parameter 32 V" BASE_ADDR $end
$var parameter 32 W" DATA_WIDTH $end
$var parameter 32 X" SLAVE_ID $end
$var reg 32 Y" full_world [31:0] $end
$var reg 1 ( wb_ack_o $end
$var reg 32 Z" wb_data_o [31:0] $end
$scope begin $ivl_for_loop0 $end
$var integer 32 [" i [31:0] $end
$upscope $end
$upscope $end
$scope module imem_slave $end
$var wire 1 Y clk $end
$var wire 1 \" is_selected $end
$var wire 1 Z rst_n $end
$var wire 32 ]" wb_addr_i [31:0] $end
$var wire 1 F wb_cyc_i $end
$var wire 32 ^" wb_data_i [31:0] $end
$var wire 4 _" wb_sel_i [3:0] $end
$var wire 1 B wb_stb_i $end
$var wire 1 A wb_we_i $end
$var wire 32 `" addr_offset [31:0] $end
$var parameter 32 a" ADDR_WIDTH $end
$var parameter 32 b" BASE_ADDR $end
$var parameter 32 c" DATA_WIDTH $end
$var parameter 32 d" SLAVE_ID $end
$var reg 32 e" full_world [31:0] $end
$var reg 1 H wb_ack_o $end
$var reg 32 f" wb_data_o [31:0] $end
$scope begin $ivl_for_loop0 $end
$var integer 32 g" i [31:0] $end
$upscope $end
$upscope $end
$scope module timer_slave $end
$var wire 1 Y clk $end
$var wire 1 h" is_selected $end
$var wire 1 Z rst_n $end
$var wire 32 i" wb_addr_i [31:0] $end
$var wire 1 . wb_cyc_i $end
$var wire 32 j" wb_data_i [31:0] $end
$var wire 4 k" wb_sel_i [3:0] $end
$var wire 1 * wb_stb_i $end
$var wire 1 ) wb_we_i $end
$var wire 32 l" addr_offset [31:0] $end
$var parameter 32 m" ADDR_WIDTH $end
$var parameter 32 n" BASE_ADDR $end
$var parameter 32 o" DATA_WIDTH $end
$var parameter 32 p" SLAVE_ID $end
$var reg 32 q" full_world [31:0] $end
$var reg 1 0 wb_ack_o $end
$var reg 32 r" wb_data_o [31:0] $end
$scope begin $ivl_for_loop0 $end
$var integer 32 s" i [31:0] $end
$upscope $end
$upscope $end
$scope module uart_slave $end
$var wire 1 Y clk $end
$var wire 1 t" is_selected $end
$var wire 1 Z rst_n $end
$var wire 32 u" wb_addr_i [31:0] $end
$var wire 1 6 wb_cyc_i $end
$var wire 32 v" wb_data_i [31:0] $end
$var wire 4 w" wb_sel_i [3:0] $end
$var wire 1 2 wb_stb_i $end
$var wire 1 1 wb_we_i $end
$var wire 32 x" addr_offset [31:0] $end
$var parameter 32 y" ADDR_WIDTH $end
$var parameter 32 z" BASE_ADDR $end
$var parameter 32 {" DATA_WIDTH $end
$var parameter 32 |" SLAVE_ID $end
$var reg 32 }" full_world [31:0] $end
$var reg 1 8 wb_ack_o $end
$var reg 32 ~" wb_data_o [31:0] $end
$scope begin $ivl_for_loop0 $end
$var integer 32 !# i [31:0] $end
$upscope $end
$upscope $end
$scope task test_address_decoding $end
$var reg 32 "# error_count [31:0] $end
$var reg 320 ## test_name [320:1] $end
$var reg 32 $# tmp_cnt [31:0] $end
$upscope $end
$scope task test_data_path $end
$var reg 32 %# error_count [31:0] $end
$var reg 32 &# test_data [31:0] $end
$var reg 320 '# test_name [320:1] $end
$var reg 32 (# tmp_cnt [31:0] $end
$var integer 32 )# i [31:0] $end
$upscope $end
$scope task test_invalid_address $end
$var reg 32 *# addr [31:0] $end
$var reg 32 +# err_cnt [31:0] $end
$var reg 32 ,# read_data [31:0] $end
$upscope $end
$scope task test_protocol $end
$var reg 32 -# error_count [31:0] $end
$var reg 32 .# test_data [31:0] $end
$var reg 320 /# test_name [320:1] $end
$var reg 32 0# tmp_cnt [31:0] $end
$upscope $end
$scope task test_slave_access $end
$var reg 32 1# addr [31:0] $end
$var reg 32 2# err_cnt [31:0] $end
$var reg 32 3# read_data [31:0] $end
$var reg 32 4# slave_id [31:0] $end
$var reg 64 5# slave_name [64:1] $end
$var reg 32 6# write_data [31:0] $end
$upscope $end
$scope task verify_byte_access $end
$var reg 32 7# addr [31:0] $end
$var reg 8 8# data [7:0] $end
$var reg 32 9# err_cnt [31:0] $end
$var reg 32 :# expected [31:0] $end
$var reg 32 ;# read_data [31:0] $end
$var reg 4 <# sel [3:0] $end
$var reg 32 =# slave_id [31:0] $end
$var reg 64 ># slave_name [64:1] $end
$var reg 32 ?# write_data [31:0] $end
$upscope $end
$scope task verify_consecutive_transfers $end
$var reg 32 @# err_cnt [31:0] $end
$var reg 32 A# read_data [31:0] $end
$var integer 32 B# i [31:0] $end
$upscope $end
$scope task verify_data_transfer $end
$var reg 32 C# addr [31:0] $end
$var reg 32 D# data [31:0] $end
$var reg 32 E# err_cnt [31:0] $end
$var reg 32 F# read_data [31:0] $end
$var reg 32 G# slave_id [31:0] $end
$var reg 64 H# slave_name [64:1] $end
$upscope $end
$scope task verify_error_conditions $end
$var reg 32 I# err_cnt [31:0] $end
$upscope $end
$scope task verify_sel_signals $end
$var reg 32 J# err_cnt [31:0] $end
$var reg 32 K# read_data [31:0] $end
$upscope $end
$scope task verify_single_transfer $end
$var reg 32 L# addr [31:0] $end
$var reg 32 M# data [31:0] $end
$var reg 32 N# err_cnt [31:0] $end
$var reg 32 O# read_data [31:0] $end
$var reg 64 P# slave_name [64:1] $end
$upscope $end
$upscope $end
$enddefinitions $end
$comment Show the parameter values. $end
$dumpall
b10 |"
b100000 {"
b100000000000000000000000000000 z"
b100000 y"
b11 p"
b100000 o"
b110000000000000000000000000000 n"
b100000 m"
b0 d"
b100000 c"
b0 b"
b100000 a"
b100 X"
b100000 W"
b1000000000000000000000000000000 V"
b100000 U"
b10 >"
b11 ="
b111 <"
b0 ;"
b100 :"
b1 9"
b100000 8"
b100000 7"
b1 +"
b100000 *"
b10000000000000000000000000000 )"
b100000 ("
b10 l
b1 k
b0 j
b11 i
b100000 h
b100000 g
b100000000000000000000000000000 X
b110000000000000000000000000000 W
b0 V
b1000000000000000000000000000000 U
b10000000000000000000000000000 T
b100000 S
b1010 R
b100000 Q
$end
#0
$dumpvars
bx P#
bx O#
bx N#
bx M#
bx L#
bx K#
bx J#
bx I#
bx H#
bx G#
bx F#
bx E#
bx D#
bx C#
bx B#
bx A#
bx @#
bx ?#
bx >#
bx =#
bx <#
bx ;#
bx :#
bx 9#
bx 8#
bx 7#
bx 6#
bx 5#
bx 4#
bx 3#
bx 2#
bx 1#
bx 0#
bx /#
bx .#
bx -#
bx ,#
bx +#
bx *#
bx )#
bx (#
bx '#
bx &#
bx %#
bx $#
bx ##
bx "#
b10000000000 !#
b0 ~"
bx }"
bx x"
bx w"
bx v"
bx u"
xt"
b10000000000 s"
b0 r"
bx q"
bx l"
bx k"
bx j"
bx i"
xh"
b10000000000 g"
b0 f"
bx e"
b0 `"
b0 _"
b0 ^"
b0 ]"
1\"
b10000000000 ["
b0 Z"
bx Y"
bx T"
bx S"
bx R"
bx Q"
xP"
bx O"
bx N"
bx M"
bx L"
bx K"
bx J"
bx I"
bx H"
bx G"
bx F"
bx E"
bx D"
b0 C"
b0 B"
b0 A"
b0 @"
b0 ?"
b0 6"
b0 5"
b0 4"
b0 3"
b0 2"
b0 1"
b0 0"
b0 /"
b10000000000 ."
b0 -"
bx ,"
bx '"
bx &"
bx %"
bx $"
x#"
bx ""
bx !"
bx ~
bx }
bx |
bx {
bx z
bx y
bx x
bx w
xv
b0 u
b0 t
b0 s
b0 r
bx q
xp
xo
bx n
bx m
b0 f
0e
0d
b0 c
xb
xa
bx `
b0 _
bx ^
bx ]
b0 \
bx [
0Z
0Y
0P
b0 O
0N
b0 M
b0 L
b0 K
0J
0I
0H
b0 G
0F
b0 E
b0 D
b0 C
0B
0A
0@
bx ?
0>
b0 =
bx <
bx ;
0:
09
08
bx 7
06
b0 5
bx 4
bx 3
02
01
00
bx /
0.
b0 -
bx ,
bx +
0*
0)
0(
bx '
0&
b0 %
bx $
bx #
0"
0!
$end
#5000
b0 [
b10000000000 ["
b10000000000 s"
b10000000000 !#
b10000000000 ."
b10000000000 g"
1Y
#10000
0Y
#15000
b10000000000 ["
b10000000000 s"
b10000000000 !#
b10000000000 ."
b10000000000 g"
1Y
#20000
0Y
#25000
b10000000000 ["
b10000000000 s"
b10000000000 !#
b10000000000 ."
b10000000000 g"
1Y
#30000
0Y
#35000
b10000000000 ["
b10000000000 s"
b10000000000 !#
b10000000000 ."
b10000000000 g"
1Y
#40000
0Y
#45000
b10000000000 ["
b10000000000 s"
b10000000000 !#
b10000000000 ."
b10000000000 g"
1Y
#50000
0Y
#55000
b10000000000 ["
b10000000000 s"
b10000000000 !#
b10000000000 ."
b10000000000 g"
1Y
#60000
0Y
#65000
b10000000000 ["
b10000000000 s"
b10000000000 !#
b10000000000 ."
b10000000000 g"
1Y
#70000
0Y
#75000
b10000000000 ["
b10000000000 s"
b10000000000 !#
b10000000000 ."
b10000000000 g"
1Y
#80000
0Y
#85000
b10000000000 ["
b10000000000 s"
b10000000000 !#
b10000000000 ."
b10000000000 g"
1Y
#90000
0Y
#95000
b10000000000 ["
b10000000000 s"
b10000000000 !#
b10000000000 ."
b10000000000 g"
1Y
#100000
0Y
1Z
#105000
1Y
#110000
0Y
#115000
1Y
#120000
0Y
b1111 ""
b10010001101000101011001111000 !"
b100000000 ~
b10010001101000101011001111000 }
b100000000 |
b0 O#
b0 N#
b1001001010011010100010101001101 P#
b10010001101000101011001111000 M#
b100000000 L#
b10010001101000101011001111000 .#
b0 0#
b0 -#
b10100000111001001101111011101000110111101100011011011110110110000100000010000110110111101101101011100000110110001101001011000010110111001100011011001010010000001010100011001010111001101110100 /#
b101000001110010011011110111010001101111011000110110111101101100 ]
b11 ^
#125000
b1 r
1v
1o
b1111 q
b10010001101000101011001111000 n
b100000000 m
1Y
#130000
0Y
#135000
b0 ?"
b1111 C
b1111 C"
b1111 _"
b10010001101000101011001111000 D
b10010001101000101011001111000 B"
b10010001101000101011001111000 ^"
b100000000 `"
b100000000 G
b100000000 A"
b100000000 ]"
1A
1B
1F
b0 c
b0 M
b0 f
b0 @"
b10 r
b10010001101000101011001111000 L
b10010001101000101011001111000 t
b10010001101000101011001111000 0"
b1111 K
b1111 u
b1111 1"
b100000000 O
b100000000 s
b100000000 /"
1I
1J
1N
0v
1Y
#140000
0Y
#145000
1P
b0 c
b0 M
b0 f
b0 @"
1A
1B
1F
b10000 [
1H
1Y
#150000
0Y
#155000
b1111 {
b100000000 y
b100000000 w
b1 N#
1a
b100000000 `
1b
1e
1P
b0 c
b0 M
b0 f
b0 @"
0A
0B
0F
b11 r
0I
0J
0N
1Y
#160000
0Y
#165000
0P
b0 c
b0 M
b0 f
b0 @"
b0 [
b0 r
0H
0d
0e
1p
0o
1Y
#170000
0Y
#175000
b1 r
0p
1Y
#180000
0Y
#185000
1B
1F
b0 c
b0 M
b0 f
b0 @"
b10 r
1J
1N
1Y
#190000
0Y
#195000
1P
b10010001101000101011001111000 c
b10010001101000101011001111000 M
b10010001101000101011001111000 f
b10010001101000101011001111000 @"
1B
1F
1H
b10010001101000101011001111000 E
b10010001101000101011001111000 6"
b10010001101000101011001111000 f"
b10000 [
b10010001101000101011001111000 e"
1Y
#200000
0Y
#205000
b0 !"
b10000000000000000000100000000 ~
b0 }
b10000000000000000000100000000 |
b1000100010011010100010101001101 P#
b0 M#
b10000000000000000000100000000 L#
b10 -#
b10 0#
b0 N#
1a
0b
b0 O#
b10010001101000101011001111000 x
b10010001101000101011001111000 z
1d
1P
b10010001101000101011001111000 c
b10010001101000101011001111000 M
b10010001101000101011001111000 f
b10010001101000101011001111000 @"
0B
0F
b11 r
0J
0N
1Y
#210000
0Y
#215000
0P
b10010001101000101011001111000 c
b10010001101000101011001111000 M
b10010001101000101011001111000 f
b10010001101000101011001111000 @"
0H
b0 r
b0 [
0d
0e
1v
1o
b0 n
b10000000000000000000100000000 m
1Y
#220000
0Y
#225000
b1 r
0v
1Y
#230000
0Y
#235000
1#"
b1111 ;
b1111 $"
b1111 F"
b0 <
b0 %"
b0 E"
b100000000 '"
b10000000000000000000100000000 ?
b10000000000000000000100000000 &"
b10000000000000000000100000000 D"
19
1:
1>
0\"
b1 ?"
b0 D
b0 B"
b0 ^"
b10000000000000000000100000000 `"
b10000000000000000000100000000 G
b10000000000000000000100000000 A"
b10000000000000000000100000000 ]"
0A
0B
0F
b0 c
b0 M
b0 f
b0 @"
b10 r
b0 L
b0 t
b0 0"
b10000000000000000000100000000 O
b10000000000000000000100000000 s
b10000000000000000000100000000 /"
1I
1J
1N
1Y
#240000
0Y
#245000
1P
b0 c
b0 M
b0 f
b0 @"
19
1:
1>
b1000 [
1@
1Y
#250000
0Y
#255000
b10000000000000000000100000000 y
b10000000000000000000100000000 w
b1 N#
1a
b10000000000000000000100000000 `
1b
1e
1P
b0 c
b0 M
b0 f
b0 @"
09
0:
0>
b11 r
0I
0J
0N
1Y
#260000
0Y
#265000
0P
b0 c
b0 M
b0 f
b0 @"
b0 [
b0 r
0@
0d
0e
1p
0o
1Y
#270000
0Y
#275000
b1 r
0p
1Y
#280000
0Y
#285000
1:
1>
b0 c
b0 M
b0 f
b0 @"
b10 r
1J
1N
1Y
#290000
0Y
#295000
1P
b0 c
b0 M
b0 f
b0 @"
1:
1>
1@
b1000 [
b0 ,"
1Y
#300000
0Y
#305000
b10100101101001011010010110100101 !"
b100000000000000000000000000000 ~
b10100101101001011010010110100101 }
b100000000000000000000000000000 |
b0 B#
b0 A#
b0 @#
b100 -#
b10 N#
1a
0b
b0 x
b0 z
1d
1P
b0 c
b0 M
b0 f
b0 @"
0:
0>
b11 r
0J
0N
1Y
#310000
0Y
#315000
0P
b0 c
b0 M
b0 f
b0 @"
0@
b0 r
b0 [
0d
0e
1v
1o
b10100101101001011010010110100101 n
b100000000000000000000000000000 m
1Y
#320000
0Y
#325000
b1 r
0v
1Y
#330000
0Y
#335000
1t"
b1111 3
b1111 I"
b1111 w"
b10100101101001011010010110100101 4
b10100101101001011010010110100101 H"
b10100101101001011010010110100101 v"
b0 x"
b100000000000000000000000000000 7
b100000000000000000000000000000 G"
b100000000000000000000000000000 u"
11
12
16
0#"
b10 ?"
b10100101101001011010010110100101 <
b10100101101001011010010110100101 %"
b10100101101001011010010110100101 E"
b10000000000000000000000000000 '"
b100000000000000000000000000000 ?
b100000000000000000000000000000 &"
b100000000000000000000000000000 D"
09
0:
0>
b0 c
b0 M
b0 f
b0 @"
b10 r
b10100101101001011010010110100101 L
b10100101101001011010010110100101 t
b10100101101001011010010110100101 0"
b100000000000000000000000000000 O
b100000000000000000000000000000 s
b100000000000000000000000000000 /"
1I
1J
1N
1Y
#340000
0Y
#345000
1P
b0 c
b0 M
b0 f
b0 @"
11
12
16
b100 [
18
1Y
#350000
0Y
#355000
b1011010010110100101101001011010 !"
b100000000000000000000000000100 ~
b1011010010110100101101001011010 }
b100000000000000000000000000100 |
b1 B#
1e
1P
b0 c
b0 M
b0 f
b0 @"
01
02
06
b11 r
0I
0J
0N
1Y
#360000
0Y
#365000
0e
0P
b0 c
b0 M
b0 f
b0 @"
b0 [
b0 r
08
1v
b1011010010110100101101001011010 n
b100000000000000000000000000100 m
1Y
#370000
0Y
#375000
b1 r
0v
1Y
#380000
0Y
#385000
b10 ?"
b1011010010110100101101001011010 4
b1011010010110100101101001011010 H"
b1011010010110100101101001011010 v"
b100 x"
b100000000000000000000000000100 7
b100000000000000000000000000100 G"
b100000000000000000000000000100 u"
11
12
16
b0 c
b0 M
b0 f
b0 @"
b10 r
b1011010010110100101101001011010 L
b1011010010110100101101001011010 t
b1011010010110100101101001011010 0"
b100000000000000000000000000100 O
b100000000000000000000000000100 s
b100000000000000000000000000100 /"
1I
1J
1N
1Y
#390000
0Y
#395000
1P
b0 c
b0 M
b0 f
b0 @"
11
12
16
18
b100 [
1Y
#400000
0Y
#405000
b10010001101000101011001111000 !"
b100000000000000000000000001000 ~
b10010001101000101011001111000 }
b100000000000000000000000001000 |
b10 B#
1e
1P
b0 c
b0 M
b0 f
b0 @"
01
02
06
b11 r
0I
0J
0N
1Y
#410000
0Y
#415000
0P
b0 c
b0 M
b0 f
b0 @"
0e
08
b0 r
b0 [
1v
b10010001101000101011001111000 n
b100000000000000000000000001000 m
1Y
#420000
0Y
#425000
b1 r
0v
1Y
#430000
0Y
#435000
b10 ?"
b10010001101000101011001111000 4
b10010001101000101011001111000 H"
b10010001101000101011001111000 v"
b1000 x"
b100000000000000000000000001000 7
b100000000000000000000000001000 G"
b100000000000000000000000001000 u"
11
12
16
b0 c
b0 M
b0 f
b0 @"
b10 r
b10010001101000101011001111000 L
b10010001101000101011001111000 t
b10010001101000101011001111000 0"
b100000000000000000000000001000 O
b100000000000000000000000001000 s
b100000000000000000000000001000 /"
1I
1J
1N
1Y
#440000
0Y
#445000
1P
b0 c
b0 M
b0 f
b0 @"
11
12
16
b100 [
18
1Y
#450000
0Y
#455000
b10000111011001010100001100100001 !"
b100000000000000000000000001100 ~
b10000111011001010100001100100001 }
b100000000000000000000000001100 |
b11 B#
1e
1P
b0 c
b0 M
b0 f
b0 @"
01
02
06
b11 r
0I
0J
0N
1Y
#460000
0Y
#465000
0e
0P
b0 c
b0 M
b0 f
b0 @"
b0 [
b0 r
08
1v
b10000111011001010100001100100001 n
b100000000000000000000000001100 m
1Y
#470000
0Y
#475000
b1 r
0v
1Y
#480000
0Y
#485000
b10 ?"
b10000111011001010100001100100001 4
b10000111011001010100001100100001 H"
b10000111011001010100001100100001 v"
b1100 x"
b100000000000000000000000001100 7
b100000000000000000000000001100 G"
b100000000000000000000000001100 u"
11
12
16
b0 c
b0 M
b0 f
b0 @"
b10 r
b10000111011001010100001100100001 L
b10000111011001010100001100100001 t
b10000111011001010100001100100001 0"
b100000000000000000000000001100 O
b100000000000000000000000001100 s
b100000000000000000000000001100 /"
1I
1J
1N
1Y
#490000
0Y
#495000
1P
b0 c
b0 M
b0 f
b0 @"
11
12
16
18
b100 [
1Y
#500000
0Y
#505000
b100000000000000000000000000000 y
b100000000000000000000000000000 w
b0 B#
1e
1P
b0 c
b0 M
b0 f
b0 @"
01
02
06
b11 r
0I
0J
0N
1Y
#510000
0Y
#515000
0P
b0 c
b0 M
b0 f
b0 @"
08
b0 r
b0 [
0d
0e
1p
0o
b100000000000000000000000000000 m
1Y
#520000
0Y
#525000
b1 r
0p
1Y
#530000
0Y
#535000
b10 ?"
b0 x"
b100000000000000000000000000000 7
b100000000000000000000000000000 G"
b100000000000000000000000000000 u"
12
16
b0 c
b0 M
b0 f
b0 @"
b10 r
b100000000000000000000000000000 O
b100000000000000000000000000000 s
b100000000000000000000000000000 /"
1J
1N
1Y
#540000
0Y
#545000
1P
b10100101101001011010010110100101 c
b10100101101001011010010110100101 M
b10100101101001011010010110100101 f
b10100101101001011010010110100101 @"
12
16
b100 [
18
b10100101101001011010010110100101 5
b10100101101001011010010110100101 5"
b10100101101001011010010110100101 ~"
b10100101101001011010010110100101 }"
1Y
#550000
0Y
#555000
b100000000000000000000000000100 y
b100000000000000000000000000100 w
b1 B#
b10100101101001011010010110100101 A#
b10100101101001011010010110100101 x
b10100101101001011010010110100101 z
1d
1P
b10100101101001011010010110100101 c
b10100101101001011010010110100101 M
b10100101101001011010010110100101 f
b10100101101001011010010110100101 @"
02
06
b11 r
0J
0N
1Y
#560000
0Y
#565000
0d
0P
b10100101101001011010010110100101 c
b10100101101001011010010110100101 M
b10100101101001011010010110100101 f
b10100101101001011010010110100101 @"
b0 [
b0 r
08
1p
b100000000000000000000000000100 m
1Y
#570000
0Y
#575000
b1 r
0p
1Y
#580000
0Y
#585000
b10 ?"
b100 x"
b100000000000000000000000000100 7
b100000000000000000000000000100 G"
b100000000000000000000000000100 u"
12
16
b10100101101001011010010110100101 c
b10100101101001011010010110100101 M
b10100101101001011010010110100101 f
b10100101101001011010010110100101 @"
b10 r
b100000000000000000000000000100 O
b100000000000000000000000000100 s
b100000000000000000000000000100 /"
1J
1N
1Y
#590000
0Y
#595000
1P
b1011010010110100101101001011010 c
b1011010010110100101101001011010 M
b1011010010110100101101001011010 f
b1011010010110100101101001011010 @"
12
16
18
b1011010010110100101101001011010 5
b1011010010110100101101001011010 5"
b1011010010110100101101001011010 ~"
b100 [
b1011010010110100101101001011010 }"
1Y
#600000
0Y
#605000
b100000000000000000000000001000 y
b100000000000000000000000001000 w
b10 B#
b1011010010110100101101001011010 A#
b1011010010110100101101001011010 x
b1011010010110100101101001011010 z
1d
1P
b1011010010110100101101001011010 c
b1011010010110100101101001011010 M
b1011010010110100101101001011010 f
b1011010010110100101101001011010 @"
02
06
b11 r
0J
0N
1Y
#610000
0Y
