build/sim/bus/wishbone_interconnect_tb.vcd
$date
	Thu Jul 17 16:13:39 2025
$end
$version
	Icarus Verilog
$end
$timescale
	1ps
$end
$scope module tb_wishbone_interconnect $end
$var wire 1 ! wb_s4_gpio_we $end
$var wire 1 " wb_s4_gpio_stb $end
$var wire 4 # wb_s4_gpio_sel [3:0] $end
$var wire 32 $ wb_s4_gpio_data_write [31:0] $end
$var wire 32 % wb_s4_gpio_data_read [31:0] $end
$var wire 1 & wb_s4_gpio_cyc $end
$var wire 32 ' wb_s4_gpio_addr [31:0] $end
$var wire 1 ( wb_s4_gpio_ack $end
$var wire 1 ) wb_s3_timer_we $end
$var wire 1 * wb_s3_timer_stb $end
$var wire 4 + wb_s3_timer_sel [3:0] $end
$var wire 32 , wb_s3_timer_data_write [31:0] $end
$var wire 32 - wb_s3_timer_data_read [31:0] $end
$var wire 1 . wb_s3_timer_cyc $end
$var wire 32 / wb_s3_timer_addr [31:0] $end
$var wire 1 0 wb_s3_timer_ack $end
$var wire 1 1 wb_s2_uart_we $end
$var wire 1 2 wb_s2_uart_stb $end
$var wire 4 3 wb_s2_uart_sel [3:0] $end
$var wire 32 4 wb_s2_uart_data_write [31:0] $end
$var wire 32 5 wb_s2_uart_data_read [31:0] $end
$var wire 1 6 wb_s2_uart_cyc $end
$var wire 32 7 wb_s2_uart_addr [31:0] $end
$var wire 1 8 wb_s2_uart_ack $end
$var wire 1 9 wb_s1_dmem_we $end
$var wire 1 : wb_s1_dmem_stb $end
$var wire 4 ; wb_s1_dmem_sel [3:0] $end
$var wire 32 < wb_s1_dmem_data_write [31:0] $end
$var wire 32 = wb_s1_dmem_data_read [31:0] $end
$var wire 1 > wb_s1_dmem_cyc $end
$var wire 32 ? wb_s1_dmem_addr [31:0] $end
$var wire 1 @ wb_s1_dmem_ack $end
$var wire 1 A wb_s0_imem_we $end
$var wire 1 B wb_s0_imem_stb $end
$var wire 4 C wb_s0_imem_sel [3:0] $end
$var wire 32 D wb_s0_imem_data_write [31:0] $end
$var wire 32 E wb_s0_imem_data_read [31:0] $end
$var wire 1 F wb_s0_imem_cyc $end
$var wire 32 G wb_s0_imem_addr [31:0] $end
$var wire 1 H wb_s0_imem_ack $end
$var wire 1 I wb_m_cpu_we $end
$var wire 1 J wb_m_cpu_stb $end
$var wire 4 K wb_m_cpu_sel [3:0] $end
$var wire 32 L wb_m_cpu_data_write [31:0] $end
$var wire 32 M wb_m_cpu_data_read [31:0] $end
$var wire 1 N wb_m_cpu_cyc $end
$var wire 32 O wb_m_cpu_addr [31:0] $end
$var wire 1 P wb_m_cpu_ack $end
$var parameter 32 Q ADDR_WIDTH $end
$var parameter 32 R CLK_PERIOD $end
$var parameter 32 S DATA_WIDTH $end
$var parameter 32 T DMEM_BASE_ADDR $end
$var parameter 32 U GPIO_BASE_ADDR $end
$var parameter 32 V IMEM_BASE_ADDR $end
$var parameter 32 W TIMER_BASE_ADDR $end
$var parameter 32 X UART_BASE_ADDR $end
$var reg 1 Y clk $end
$var reg 1 Z rst_n $end
$var reg 5 [ slave_accessed [4:0] $end
$var reg 32 \ task_error_count [31:0] $end
$var reg 320 ] test_name [320:1] $end
$var reg 32 ^ test_num [31:0] $end
$var reg 32 _ total_errors [31:0] $end
$scope module cpu_master $end
$var wire 1 Y clk $end
$var wire 32 ` read_data [31:0] $end
$var wire 1 a read_done $end
$var wire 1 Z rst_n $end
$var wire 1 b write_done $end
$var wire 32 c wb_data_i [31:0] $end
$var wire 1 P wb_ack_i $end
$var parameter 32 d ADDR_WIDTH $end
$var parameter 32 e DATA_WIDTH $end
$var parameter 2 f DONE $end
$var parameter 2 g IDLE $end
$var parameter 2 h START $end
$var parameter 2 i WAIT_ACK $end
$var reg 32 j addr_reg [31:0] $end
$var reg 32 k data_reg [31:0] $end
$var reg 1 l operation_type $end
$var reg 1 m read_req $end
$var reg 2 n state [1:0] $end
$var reg 32 o wb_addr_o [31:0] $end
$var reg 1 N wb_cyc_o $end
$var reg 32 p wb_data_o [31:0] $end
$var reg 4 q wb_sel_o [3:0] $end
$var reg 1 J wb_stb_o $end
$var reg 1 I wb_we_o $end
$var reg 1 r write_req $end
$scope task wb_read $end
$var reg 32 s addr [31:0] $end
$var reg 32 t read_data_out [31:0] $end
$upscope $end
$scope task wb_write $end
$var reg 32 u addr [31:0] $end
$var reg 32 v data [31:0] $end
$upscope $end
$upscope $end
$scope module dmem_slave $end
$var wire 1 Y clk $end
$var wire 1 w is_selected $end
$var wire 1 Z rst_n $end
$var wire 1 9 wb_we_i $end
$var wire 1 : wb_stb_i $end
$var wire 4 x wb_sel_i [3:0] $end
$var wire 32 y wb_data_i [31:0] $end
$var wire 1 > wb_cyc_i $end
$var wire 32 z wb_addr_i [31:0] $end
$var wire 32 { addr_offset [31:0] $end
$var parameter 32 | ADDR_WIDTH $end
$var parameter 32 } BASE_ADDR $end
$var parameter 32 ~ DATA_WIDTH $end
$var parameter 32 !" SLAVE_ID $end
$var reg 1 @ wb_ack_o $end
$var reg 32 "" wb_data_o [31:0] $end
$scope begin $ivl_for_loop0 $end
$var integer 32 #" i [31:0] $end
$upscope $end
$upscope $end
$scope module dut $end
$var wire 1 Y clk $end
$var wire 1 Z rst_n $end
$var wire 32 $" wb_m_cpu_addr [31:0] $end
$var wire 1 N wb_m_cpu_cyc $end
$var wire 32 %" wb_m_cpu_data_write [31:0] $end
$var wire 4 &" wb_m_cpu_sel [3:0] $end
$var wire 1 J wb_m_cpu_stb $end
$var wire 1 I wb_m_cpu_we $end
$var wire 1 @ wb_s1_dmem_ack $end
$var wire 32 '" wb_s1_dmem_data_read [31:0] $end
$var wire 32 (" wb_s4_gpio_data_read [31:0] $end
$var wire 1 ( wb_s4_gpio_ack $end
$var wire 32 )" wb_s3_timer_data_read [31:0] $end
$var wire 1 0 wb_s3_timer_ack $end
$var wire 32 *" wb_s2_uart_data_read [31:0] $end
$var wire 1 8 wb_s2_uart_ack $end
$var wire 32 +" wb_s0_imem_data_read [31:0] $end
$var wire 1 H wb_s0_imem_ack $end
$var parameter 32 ," ADDR_WIDTH $end
$var parameter 32 -" DATA_WIDTH $end
$var parameter 3 ." SLAVE_DMEM $end
$var parameter 3 /" SLAVE_GPIO $end
$var parameter 3 0" SLAVE_IMEM $end
$var parameter 3 1" SLAVE_NONE $end
$var parameter 3 2" SLAVE_TIMER $end
$var parameter 3 3" SLAVE_UART $end
$var reg 3 4" sel_slave [2:0] $end
$var reg 1 P wb_m_cpu_ack $end
$var reg 32 5" wb_m_cpu_data_read [31:0] $end
$var reg 32 6" wb_s0_imem_addr [31:0] $end
$var reg 1 F wb_s0_imem_cyc $end
$var reg 32 7" wb_s0_imem_data_write [31:0] $end
$var reg 4 8" wb_s0_imem_sel [3:0] $end
$var reg 1 B wb_s0_imem_stb $end
$var reg 1 A wb_s0_imem_we $end
$var reg 32 9" wb_s1_dmem_addr [31:0] $end
$var reg 1 > wb_s1_dmem_cyc $end
$var reg 32 :" wb_s1_dmem_data_write [31:0] $end
$var reg 4 ;" wb_s1_dmem_sel [3:0] $end
$var reg 1 : wb_s1_dmem_stb $end
$var reg 1 9 wb_s1_dmem_we $end
$var reg 32 <" wb_s2_uart_addr [31:0] $end
$var reg 1 6 wb_s2_uart_cyc $end
$var reg 32 =" wb_s2_uart_data_write [31:0] $end
$var reg 4 >" wb_s2_uart_sel [3:0] $end
$var reg 1 2 wb_s2_uart_stb $end
$var reg 1 1 wb_s2_uart_we $end
$var reg 32 ?" wb_s3_timer_addr [31:0] $end
$var reg 1 . wb_s3_timer_cyc $end
$var reg 32 @" wb_s3_timer_data_write [31:0] $end
$var reg 4 A" wb_s3_timer_sel [3:0] $end
$var reg 1 * wb_s3_timer_stb $end
$var reg 1 ) wb_s3_timer_we $end
$var reg 32 B" wb_s4_gpio_addr [31:0] $end
$var reg 1 & wb_s4_gpio_cyc $end
$var reg 32 C" wb_s4_gpio_data_write [31:0] $end
$var reg 4 D" wb_s4_gpio_sel [3:0] $end
$var reg 1 " wb_s4_gpio_stb $end
$var reg 1 ! wb_s4_gpio_we $end
$upscope $end
$scope module gpio_slave $end
$var wire 1 Y clk $end
$var wire 1 E" is_selected $end
$var wire 1 Z rst_n $end
$var wire 32 F" wb_addr_i [31:0] $end
$var wire 1 & wb_cyc_i $end
$var wire 32 G" wb_data_i [31:0] $end
$var wire 4 H" wb_sel_i [3:0] $end
$var wire 1 " wb_stb_i $end
$var wire 1 ! wb_we_i $end
$var wire 32 I" addr_offset [31:0] $end
$var parameter 32 J" ADDR_WIDTH $end
$var parameter 32 K" BASE_ADDR $end
$var parameter 32 L" DATA_WIDTH $end
$var parameter 32 M" SLAVE_ID $end
$var reg 1 ( wb_ack_o $end
$var reg 32 N" wb_data_o [31:0] $end
$scope begin $ivl_for_loop0 $end
$var integer 32 O" i [31:0] $end
$upscope $end
$upscope $end
$scope module imem_slave $end
$var wire 1 Y clk $end
$var wire 1 P" is_selected $end
$var wire 1 Z rst_n $end
$var wire 32 Q" wb_addr_i [31:0] $end
$var wire 1 F wb_cyc_i $end
$var wire 32 R" wb_data_i [31:0] $end
$var wire 4 S" wb_sel_i [3:0] $end
$var wire 1 B wb_stb_i $end
$var wire 1 A wb_we_i $end
$var wire 32 T" addr_offset [31:0] $end
$var parameter 32 U" ADDR_WIDTH $end
$var parameter 32 V" BASE_ADDR $end
$var parameter 32 W" DATA_WIDTH $end
$var parameter 32 X" SLAVE_ID $end
$var reg 1 H wb_ack_o $end
$var reg 32 Y" wb_data_o [31:0] $end
$scope begin $ivl_for_loop0 $end
$var integer 32 Z" i [31:0] $end
$upscope $end
$upscope $end
$scope module timer_slave $end
$var wire 1 Y clk $end
$var wire 1 [" is_selected $end
$var wire 1 Z rst_n $end
$var wire 32 \" wb_addr_i [31:0] $end
$var wire 1 . wb_cyc_i $end
$var wire 32 ]" wb_data_i [31:0] $end
$var wire 4 ^" wb_sel_i [3:0] $end
$var wire 1 * wb_stb_i $end
$var wire 1 ) wb_we_i $end
$var wire 32 _" addr_offset [31:0] $end
$var parameter 32 `" ADDR_WIDTH $end
$var parameter 32 a" BASE_ADDR $end
$var parameter 32 b" DATA_WIDTH $end
$var parameter 32 c" SLAVE_ID $end
$var reg 1 0 wb_ack_o $end
$var reg 32 d" wb_data_o [31:0] $end
$scope begin $ivl_for_loop0 $end
$var integer 32 e" i [31:0] $end
$upscope $end
$upscope $end
$scope module uart_slave $end
$var wire 1 Y clk $end
$var wire 1 f" is_selected $end
$var wire 1 Z rst_n $end
$var wire 32 g" wb_addr_i [31:0] $end
$var wire 1 6 wb_cyc_i $end
$var wire 32 h" wb_data_i [31:0] $end
$var wire 4 i" wb_sel_i [3:0] $end
$var wire 1 2 wb_stb_i $end
$var wire 1 1 wb_we_i $end
$var wire 32 j" addr_offset [31:0] $end
$var parameter 32 k" ADDR_WIDTH $end
$var parameter 32 l" BASE_ADDR $end
$var parameter 32 m" DATA_WIDTH $end
$var parameter 32 n" SLAVE_ID $end
$var reg 1 8 wb_ack_o $end
$var reg 32 o" wb_data_o [31:0] $end
$scope begin $ivl_for_loop0 $end
$var integer 32 p" i [31:0] $end
$upscope $end
$upscope $end
$scope task test_address_decoding $end
$var reg 32 q" error_count [31:0] $end
$var reg 320 r" test_name [320:1] $end
$var reg 32 s" tmp_cnt [31:0] $end
$upscope $end
$scope task test_invalid_address $end
$var reg 32 t" addr [31:0] $end
$var reg 32 u" err_cnt [31:0] $end
$var reg 32 v" read_data [31:0] $end
$upscope $end
$scope task test_slave_access $end
$var reg 32 w" addr [31:0] $end
$var reg 32 x" err_cnt [31:0] $end
$var reg 32 y" read_data [31:0] $end
$var reg 32 z" slave_id [31:0] $end
$var reg 64 {" slave_name [64:1] $end
$var reg 32 |" write_data [31:0] $end
$upscope $end
$upscope $end
$enddefinitions $end
$comment Show the parameter values. $end
$dumpall
b10 n"
b100000 m"
b100000000000000000000000000000 l"
b100000 k"
b11 c"
b100000 b"
b110000000000000000000000000000 a"
b100000 `"
b0 X"
b100000 W"
b0 V"
b100000 U"
b100 M"
b100000 L"
b1000000000000000000000000000000 K"
b100000 J"
b10 3"
b11 2"
b111 1"
b0 0"
b100 /"
b1 ."
b100000 -"
b100000 ,"
b1 !"
b100000 ~
b10000000000000000000000000000 }
b100000 |
b10 i
b1 h
b0 g
b11 f
b100000 e
b100000 d
b100000000000000000000000000000 X
b110000000000000000000000000000 W
b0 V
b1000000000000000000000000000000 U
b10000000000000000000000000000 T
b100000 S
b1010 R
b100000 Q
$end
#0
$dumpvars
bx |"
bx {"
bx z"
bx y"
bx x"
bx w"
bx v"
bx u"
bx t"
bx s"
bx r"
bx q"
b10000000000 p"
b0 o"
bx j"
bx i"
bx h"
bx g"
xf"
b10000000000 e"
b0 d"
bx _"
bx ^"
bx ]"
bx \"
x["
b10000000000 Z"
b0 Y"
b0 T"
b0 S"
b0 R"
b0 Q"
1P"
b10000000000 O"
b0 N"
bx I"
bx H"
bx G"
bx F"
xE"
bx D"
bx C"
bx B"
bx A"
bx @"
bx ?"
bx >"
bx ="
bx <"
bx ;"
bx :"
bx 9"
b0 8"
b0 7"
b0 6"
b0 5"
b0 4"
b0 +"
b0 *"
b0 )"
b0 ("
b0 '"
b0 &"
b0 %"
b0 $"
b10000000000 #"
b0 ""
bx {
bx z
bx y
bx x
xw
bx v
bx u
bx t
bx s
xr
b0 q
b0 p
b0 o
b0 n
xm
xl
bx k
bx j
b0 c
0b
0a
b0 `
b0 _
bx ^
bx ]
b0 \
bx [
0Z
0Y
0P
b0 O
0N
b0 M
b0 L
b0 K
0J
0I
0H
b0 G
0F
b0 E
b0 D
b0 C
0B
0A
0@
bx ?
0>
b0 =
bx <
bx ;
0:
09
08
bx 7
06
b0 5
bx 4
bx 3
02
01
00
bx /
0.
b0 -
bx ,
bx +
0*
0)
0(
bx '
0&
b0 %
bx $
bx #
0"
0!
$end
#5000
b0 [
b10000000000 O"
b10000000000 e"
b10000000000 p"
b10000000000 #"
b10000000000 Z"
1Y
#10000
0Y
#15000
b10000000000 O"
b10000000000 e"
b10000000000 p"
b10000000000 #"
b10000000000 Z"
1Y
#20000
0Y
#25000
b10000000000 O"
b10000000000 e"
b10000000000 p"
b10000000000 #"
b10000000000 Z"
1Y
#30000
0Y
#35000
b10000000000 O"
b10000000000 e"
b10000000000 p"
b10000000000 #"
b10000000000 Z"
1Y
#40000
0Y
#45000
b10000000000 O"
b10000000000 e"
b10000000000 p"
b10000000000 #"
b10000000000 Z"
1Y
#50000
0Y
#55000
b10000000000 O"
b10000000000 e"
b10000000000 p"
b10000000000 #"
b10000000000 Z"
1Y
#60000
0Y
#65000
b10000000000 O"
b10000000000 e"
b10000000000 p"
b10000000000 #"
b10000000000 Z"
1Y
#70000
0Y
#75000
b10000000000 O"
b10000000000 e"
b10000000000 p"
b10000000000 #"
b10000000000 Z"
1Y
#80000
0Y
#85000
b10000000000 O"
b10000000000 e"
b10000000000 p"
b10000000000 #"
b10000000000 Z"
1Y
#90000
0Y
#95000
b10000000000 O"
b10000000000 e"
b10000000000 p"
b10000000000 #"
b10000000000 Z"
1Y
#100000
0Y
1Z
#105000
1Y
#110000
0Y
#115000
1Y
#120000
0Y
b10100101101001011010010110100101 v
b100000000 u
b10100101101001011010010110100101 |"
b0 x"
b0 z"
b1001001010011010100010101001101 {"
b100000000 w"
b0 s"
b0 q"
b10000010110010001100100011100100110010101110011011100110010000001000100011001010110001101101111011001000110100101101110011001110010000001010100011001010111001101110100 r"
b1000001011001000110010001110010011001010111001101110011001000000100010001100101011000110110111101100100011010010110111001100111 ]
b1 ^
#125000
b1 n
1r
1l
b10100101101001011010010110100101 k
b100000000 j
1Y
#130000
0Y
#135000
b0 4"
b1111 C
b1111 8"
b1111 S"
b10100101101001011010010110100101 D
b10100101101001011010010110100101 7"
b10100101101001011010010110100101 R"
b100000000 T"
b100000000 G
b100000000 6"
b100000000 Q"
1A
1B
1F
b0 `
b0 M
b0 c
b0 5"
b10 n
b1111 K
b1111 q
b1111 &"
b10100101101001011010010110100101 L
b10100101101001011010010110100101 p
b10100101101001011010010110100101 %"
b100000000 O
b100000000 o
b100000000 $"
1I
1J
1N
0r
1Y
#140000
0Y
#145000
1P
b0 `
b0 M
b0 c
b0 5"
1A
1B
1F
b10000 [
1H
1Y
#150000
0Y
#155000
b100000000 s
1b
1P
b0 `
b0 M
b0 c
b0 5"
0A
0B
0F
b11 n
0I
0J
0N
1Y
#160000
0Y
#165000
0P
b0 `
b0 M
b0 c
b0 5"
b0 [
b0 n
0H
0a
0b
1m
0l
1Y
#170000
0Y
#175000
b1 n
0m
1Y
#180000
0Y
#185000
1B
1F
b0 `
b0 M
b0 c
b0 5"
b10 n
1J
1N
1Y
#190000
0Y
#195000
1P
b10100101101001011010010110100101 `
b10100101101001011010010110100101 M
b10100101101001011010010110100101 c
b10100101101001011010010110100101 5"
1B
1F
b10100101101001011010010110100101 E
b10100101101001011010010110100101 +"
b10100101101001011010010110100101 Y"
1H
b10000 [
1Y
#200000
0Y
#205000
b10100101101001011010010110100101 y"
b10100101101001011010010110100101 t
1a
1P
b10100101101001011010010110100101 `
b10100101101001011010010110100101 M
b10100101101001011010010110100101 c
b10100101101001011010010110100101 5"
0B
0F
b11 n
0J
0N
1Y
#210000
0Y
#215000
0P
b10100101101001011010010110100101 `
b10100101101001011010010110100101 M
b10100101101001011010010110100101 c
b10100101101001011010010110100101 5"
0a
0H
b0 n
b0 [
1Y
#220000
0Y
#225000
1Y
#230000
0Y
#235000
b1 n
1r
1l
b10100101101001011010010110100110 k
b10000000000000000000100000000 j
1Y
b10100101101001011010010110100110 v
b10000000000000000000100000000 u
b10100101101001011010010110100110 |"
b1 z"
b1000100010011010100010101001101 {"
b10000000000000000000100000000 w"
#240000
0Y
#245000
1w
b1111 ;
b1111 x
b1111 ;"
b10100101101001011010010110100110 <
b10100101101001011010010110100110 y
b10100101101001011010010110100110 :"
b100000000 {
b10000000000000000000100000000 ?
b10000000000000000000100000000 z
b10000000000000000000100000000 9"
19
1:
1>
0P"
b1 4"
b10100101101001011010010110100110 D
b10100101101001011010010110100110 7"
b10100101101001011010010110100110 R"
b10000000000000000000100000000 T"
b10000000000000000000100000000 G
b10000000000000000000100000000 6"
b10000000000000000000100000000 Q"
0A
0B
0F
b0 `
b0 M
b0 c
b0 5"
b10 n
b10100101101001011010010110100110 L
b10100101101001011010010110100110 p
b10100101101001011010010110100110 %"
b10000000000000000000100000000 O
b10000000000000000000100000000 o
b10000000000000000000100000000 $"
1I
1J
1N
0r
1Y
#250000
0Y
#255000
1P
b0 `
b0 M
b0 c
b0 5"
19
1:
1>
1@
b1000 [
1Y
#260000
0Y
#265000
b10000000000000000000100000000 s
1b
1P
b0 `
b0 M
b0 c
b0 5"
09
0:
0>
b11 n
0I
0J
0N
1Y
#270000
0Y
#275000
0P
b0 `
b0 M
b0 c
b0 5"
0@
b0 n
b0 [
0a
0b
1m
0l
1Y
#280000
0Y
#285000
b1 n
0m
1Y
#290000
0Y
#295000
1:
1>
b0 `
b0 M
b0 c
b0 5"
b10 n
1J
1N
1Y
#300000
0Y
#305000
1P
b10100101101001011010010110100110 `
b10100101101001011010010110100110 M
b10100101101001011010010110100110 c
b10100101101001011010010110100110 5"
1:
1>
b1000 [
b10100101101001011010010110100110 =
b10100101101001011010010110100110 ""
b10100101101001011010010110100110 '"
1@
1Y
#310000
0Y
#315000
b10100101101001011010010110100110 y"
b10100101101001011010010110100110 t
1a
1P
b10100101101001011010010110100110 `
b10100101101001011010010110100110 M
b10100101101001011010010110100110 c
b10100101101001011010010110100110 5"
0:
0>
b11 n
0J
0N
1Y
#320000
0Y
#325000
0a
0P
b10100101101001011010010110100110 `
b10100101101001011010010110100110 M
b10100101101001011010010110100110 c
b10100101101001011010010110100110 5"
b0 [
b0 n
0@
1Y
#330000
0Y
#335000
1Y
#340000
0Y
#345000
b1 n
1r
1l
b10100101101001011010010110100111 k
b100000000000000000000100000000 j
1Y
b10100101101001011010010110100111 v
b100000000000000000000100000000 u
b10100101101001011010010110100111 |"
b10 z"
b1010101010000010101001001010100 {"
b100000000000000000000100000000 w"
#350000
0Y
#355000
1f"
b1111 3
b1111 >"
b1111 i"
b10100101101001011010010110100111 4
b10100101101001011010010110100111 ="
b10100101101001011010010110100111 h"
b100000000 j"
b100000000000000000000100000000 7
b100000000000000000000100000000 <"
b100000000000000000000100000000 g"
11
12
16
0w
b10 4"
b10100101101001011010010110100111 <
b10100101101001011010010110100111 y
b10100101101001011010010110100111 :"
b10000000000000000000100000000 {
b100000000000000000000100000000 ?
b100000000000000000000100000000 z
b100000000000000000000100000000 9"
09
0:
0>
b0 `
b0 M
b0 c
b0 5"
b10 n
b10100101101001011010010110100111 L
b10100101101001011010010110100111 p
b10100101101001011010010110100111 %"
b100000000000000000000100000000 O
b100000000000000000000100000000 o
b100000000000000000000100000000 $"
1I
1J
1N
0r
1Y
#360000
0Y
#365000
1P
b0 `
b0 M
b0 c
b0 5"
11
12
16
b100 [
18
1Y
#370000
0Y
#375000
b100000000000000000000100000000 s
1b
1P
b0 `
b0 M
b0 c
b0 5"
01
02
06
b11 n
0I
0J
0N
1Y
#380000
0Y
#385000
0P
b0 `
b0 M
b0 c
b0 5"
b0 [
b0 n
08
0a
0b
1m
0l
1Y
#390000
0Y
#395000
b1 n
0m
1Y
#400000
0Y
#405000
12
16
b0 `
b0 M
b0 c
b0 5"
b10 n
1J
1N
1Y
#410000
0Y
#415000
1P
b10100101101001011010010110100111 `
b10100101101001011010010110100111 M
b10100101101001011010010110100111 c
b10100101101001011010010110100111 5"
12
16
b10100101101001011010010110100111 5
b10100101101001011010010110100111 *"
b10100101101001011010010110100111 o"
18
b100 [
1Y
#420000
0Y
#425000
b10100101101001011010010110100111 y"
b10100101101001011010010110100111 t
1a
1P
b10100101101001011010010110100111 `
b10100101101001011010010110100111 M
b10100101101001011010010110100111 c
b10100101101001011010010110100111 5"
02
06
b11 n
0J
0N
1Y
#430000
0Y
#435000
0P
b10100101101001011010010110100111 `
b10100101101001011010010110100111 M
b10100101101001011010010110100111 c
b10100101101001011010010110100111 5"
0a
08
b0 n
b0 [
1Y
#440000
0Y
#445000
1Y
#450000
0Y
#455000
b1 n
1r
1l
b10100101101001011010010110101000 k
b110000000000000000000100000000 j
1Y
b10100101101001011010010110101000 v
b110000000000000000000100000000 u
b10100101101001011010010110101000 |"
b11 z"
b101010001001001010011010100010101010010 {"
b110000000000000000000100000000 w"
#460000
0Y
#465000
1["
b1111 +
b1111 A"
b1111 ^"
b10100101101001011010010110101000 ,
b10100101101001011010010110101000 @"
b10100101101001011010010110101000 ]"
b100000000 _"
b110000000000000000000100000000 /
b110000000000000000000100000000 ?"
b110000000000000000000100000000 \"
1)
1*
1.
0f"
b11 4"
b10100101101001011010010110101000 4
b10100101101001011010010110101000 ="
b10100101101001011010010110101000 h"
b10000000000000000000100000000 j"
b110000000000000000000100000000 7
b110000000000000000000100000000 <"
b110000000000000000000100000000 g"
01
02
06
b0 `
b0 M
b0 c
b0 5"
b10 n
b10100101101001011010010110101000 L
b10100101101001011010010110101000 p
b10100101101001011010010110101000 %"
b110000000000000000000100000000 O
b110000000000000000000100000000 o
b110000000000000000000100000000 $"
1I
1J
1N
0r
1Y
#470000
0Y
#475000
1P
b0 `
b0 M
b0 c
b0 5"
1)
1*
1.
10
b10 [
1Y
#480000
0Y
#485000
b110000000000000000000100000000 s
1b
1P
b0 `
b0 M
b0 c
b0 5"
0)
0*
0.
b11 n
0I
0J
0N
1Y
#490000
0Y
#495000
0P
b0 `
b0 M
b0 c
b0 5"
00
b0 n
b0 [
0a
0b
1m
0l
1Y
#500000
0Y
#505000
b1 n
0m
1Y
#510000
0Y
#515000
1*
1.
b0 `
b0 M
b0 c
b0 5"
b10 n
1J
1N
1Y
#520000
0Y
#525000
1P
b10100101101001011010010110101000 `
b10100101101001011010010110101000 M
b10100101101001011010010110101000 c
b10100101101001011010010110101000 5"
1*
1.
b10 [
b10100101101001011010010110101000 -
b10100101101001011010010110101000 )"
b10100101101001011010010110101000 d"
10
1Y
#530000
0Y
#535000
b10100101101001011010010110101000 y"
b10100101101001011010010110101000 t
1a
1P
b10100101101001011010010110101000 `
b10100101101001011010010110101000 M
b10100101101001011010010110101000 c
b10100101101001011010010110101000 5"
0*
0.
b11 n
0J
0N
1Y
#540000
0Y
#545000
0a
0P
b10100101101001011010010110101000 `
b10100101101001011010010110101000 M
b10100101101001011010010110101000 c
b10100101101001011010010110101000 5"
b0 [
b0 n
00
1Y
#550000
0Y
#555000
1Y
#560000
0Y
#565000
b1 n
1r
1l
b10100101101001011010010110101001 k
b1000000000000000000000100000000 j
1Y
b10100101101001011010010110101001 v
b1000000000000000000000100000000 u
b10100101101001011010010110101001 |"
b100 z"
b1000111010100000100100101001111 {"
b1000000000000000000000100000000 w"
#570000
0Y
#575000
1E"
b1111 #
b1111 D"
b1111 H"
b10100101101001011010010110101001 $
b10100101101001011010010110101001 C"
b10100101101001011010010110101001 G"
b100000000 I"
b1000000000000000000000100000000 '
b1000000000000000000000100000000 B"
b1000000000000000000000100000000 F"
1!
1"
1&
0["
b100 4"
b10100101101001011010010110101001 ,
b10100101101001011010010110101001 @"
b10100101101001011010010110101001 ]"
b10000000000000000000100000000 _"
b1000000000000000000000100000000 /
b1000000000000000000000100000000 ?"
b1000000000000000000000100000000 \"
0)
0*
0.
b0 `
b0 M
b0 c
b0 5"
b10 n
b10100101101001011010010110101001 L
b10100101101001011010010110101001 p
b10100101101001011010010110101001 %"
b1000000000000000000000100000000 O
b1000000000000000000000100000000 o
b1000000000000000000000100000000 $"
1I
1J
1N
0r
1Y
#580000
0Y
#585000
1P
b0 `
b0 M
b0 c
b0 5"
1!
1"
1&
b1 [
1(
1Y
#590000
0Y
#595000
b1000000000000000000000100000000 s
1b
1P
b0 `
b0 M
b0 c
b0 5"
0!
0"
0&
b11 n
0I
0J
0N
1Y
#600000
0Y
#605000
0P
b0 `
b0 M
b0 c
b0 5"
b0 [
b0 n
0(
0a
0b
1m
0l
1Y
#610000
0Y
#615000
b1 n
0m
1Y
#620000
0Y
#625000
1"
1&
b0 `
b0 M
b0 c
b0 5"
b10 n
1J
1N
1Y
#630000
0Y
#635000
1P
b10100101101001011010010110101001 `
b10100101101001011010010110101001 M
b10100101101001011010010110101001 c
b10100101101001011010010110101001 5"
1"
1&
b10100101101001011010010110101001 %
b10100101101001011010010110101001 ("
b10100101101001011010010110101001 N"
1(
b1 [
1Y
#640000
0Y
#645000
b10100101101001011010010110101001 y"
b10100101101001011010010110101001 t
1a
1P
b10100101101001011010010110101001 `
b10100101101001011010010110101001 M
b10100101101001011010010110101001 c
b10100101101001011010010110101001 5"
0"
0&
b11 n
0J
0N
1Y
#650000
0Y
#655000
0P
b10100101101001011010010110101001 `
b10100101101001011010010110101001 M
b10100101101001011010010110101001 c
b10100101101001011010010110101001 5"
0a
0(
b0 n
b0 [
1Y
#660000
0Y
#665000
1Y
#670000
0Y
#675000
b1 n
1r
1l
b11011110101011011011111011101111 k
b1010000000000000000000000000000 j
1Y
b11011110101011011011111011101111 v
b1010000000000000000000000000000 u
b0 u"
b1010000000000000000000000000000 t"
#680000
0Y
#685000
1P
0E"
b111 4"
b11011110101011011011111011101111 $
b11011110101011011011111011101111 C"
b11011110101011011011111011101111 G"
b10000000000000000000000000000 I"
b1010000000000000000000000000000 '
b1010000000000000000000000000000 B"
b1010000000000000000000000000000 F"
0!
0"
0&
b11011110101011011101111010101101 `
b11011110101011011101111010101101 M
b11011110101011011101111010101101 c
b11011110101011011101111010101101 5"
b10 n
b11011110101011011011111011101111 L
b11011110101011011011111011101111 p
b11011110101011011011111011101111 %"
b1010000000000000000000000000000 O
b1010000000000000000000000000000 o
b1010000000000000000000000000000 $"
1I
1J
1N
0r
1Y
#690000
0Y
#695000
1b
0P
b11 n
0I
0J
0N
1Y
#700000
0Y
#705000
0b
b0 n
1Y
#710000
0Y
#715000
b1 n
1m
0l
1Y
b1010000000000000000000000000000 s
#720000
0Y
#725000
1P
b10 n
1J
1N
0m
1Y
#730000
0Y
#735000
b11011110101011011101111010101101 v"
b11011110101011011101111010101101 t
1a
0P
b11 n
0J
0N
1Y
#740000
0Y
#745000
0a
b0 n
1Y
