build/sim/mem/gpio/gpio_tb.vcd
$date
	Tue Sep  9 15:59:36 2025
$end
$version
	Icarus Verilog
$end
$timescale
	1ps
$end
$scope module tb_uart $end
$var wire 32 ! wbs_data_read [31:0] $end
$var wire 1 " wbs_ack $end
$var wire 8 # gpio_out [7:0] $end
$var wire 8 $ gpio_oe [7:0] $end
$var parameter 32 % ADDR_WIDTH $end
$var parameter 32 & BASE_ADDR $end
$var parameter 32 ' CLK_FREQ $end
$var parameter 32 ( CLK_PERIOD $end
$var parameter 32 ) DATA_WIDTH $end
$var parameter 32 * N_GPIO $end
$var parameter 32 + SIZE_KB $end
$var reg 1 , clk $end
$var reg 8 - gpio_in [7:0] $end
$var reg 1 . rst_n $end
$var reg 32 / task_error_count [31:0] $end
$var reg 32 0 test_num [31:0] $end
$var reg 32 1 total_errors [31:0] $end
$var reg 32 2 wbs_addr [31:0] $end
$var reg 1 3 wbs_cyc $end
$var reg 32 4 wbs_data_write [31:0] $end
$var reg 4 5 wbs_sel [3:0] $end
$var reg 1 6 wbs_stb $end
$var reg 1 7 wbs_we $end
$scope module gpio_inst $end
$var wire 1 , clk $end
$var wire 8 8 gpio_in [7:0] $end
$var wire 1 9 gpio_select $end
$var wire 1 . rst_n $end
$var wire 32 : wbs_addr [31:0] $end
$var wire 1 3 wbs_cyc $end
$var wire 32 ; wbs_data_write [31:0] $end
$var wire 4 < wbs_sel [3:0] $end
$var wire 1 6 wbs_stb $end
$var wire 1 7 wbs_we $end
$var wire 32 = tmp_wbs_data_read [31:0] $end
$var wire 1 > tmp_wbs_ack $end
$var wire 8 ? gpio_out [7:0] $end
$var wire 8 @ gpio_oe [7:0] $end
$var parameter 32 A ADDR_WIDTH $end
$var parameter 32 B BASE_ADDR $end
$var parameter 32 C DATA_WIDTH $end
$var parameter 32 D N_GPIO $end
$var parameter 32 E SIZE_KB $end
$var reg 1 " wbs_ack $end
$var reg 32 F wbs_data_read [31:0] $end
$scope module gpio_inst $end
$var wire 1 , clk $end
$var wire 8 G data_reg [7:0] $end
$var wire 8 H gpio_in [7:0] $end
$var wire 1 . rst_n $end
$var wire 32 I wbs_addr [31:0] $end
$var wire 1 J wbs_cyc $end
$var wire 32 K wbs_data_write [31:0] $end
$var wire 4 L wbs_sel [3:0] $end
$var wire 1 M wbs_stb $end
$var wire 1 7 wbs_we $end
$var wire 1 N sel_toggle $end
$var wire 1 O sel_set $end
$var wire 1 P sel_dir $end
$var wire 1 Q sel_data $end
$var wire 1 R sel_clear $end
$var wire 12 S reg_offset [11:0] $end
$var wire 8 T gpio_in_sync [7:0] $end
$var parameter 32 U ADDR_WIDTH $end
$var parameter 32 V DATA_WIDTH $end
$var parameter 32 W N_GPIO $end
$var parameter 12 X REG_GPIO_CLEAR $end
$var parameter 12 Y REG_GPIO_DATA $end
$var parameter 12 Z REG_GPIO_DIR $end
$var parameter 12 [ REG_GPIO_SET $end
$var parameter 12 \ REG_GPIO_TOGGLE $end
$var reg 8 ] dir_reg [7:0] $end
$var reg 8 ^ gpio_oe [7:0] $end
$var reg 8 _ gpio_out [7:0] $end
$var reg 8 ` out_reg [7:0] $end
$var reg 1 a tmp_r_ack $end
$var reg 1 b tmp_w_ack $end
$var reg 1 > wbs_ack $end
$var reg 32 c wbs_data_read [31:0] $end
$scope begin gpio_sync[0] $end
$var parameter 2 d i $end
$var reg 2 e sync_reg [1:0] $end
$upscope $end
$scope begin gpio_sync[1] $end
$var parameter 2 f i $end
$var reg 2 g sync_reg [1:0] $end
$upscope $end
$scope begin gpio_sync[2] $end
$var parameter 3 h i $end
$var reg 2 i sync_reg [1:0] $end
$upscope $end
$scope begin gpio_sync[3] $end
$var parameter 3 j i $end
$var reg 2 k sync_reg [1:0] $end
$upscope $end
$scope begin gpio_sync[4] $end
$var parameter 4 l i $end
$var reg 2 m sync_reg [1:0] $end
$upscope $end
$scope begin gpio_sync[5] $end
$var parameter 4 n i $end
$var reg 2 o sync_reg [1:0] $end
$upscope $end
$scope begin gpio_sync[6] $end
$var parameter 4 p i $end
$var reg 2 q sync_reg [1:0] $end
$upscope $end
$scope begin gpio_sync[7] $end
$var parameter 4 r i $end
$var reg 2 s sync_reg [1:0] $end
$upscope $end
$upscope $end
$upscope $end
$scope task test_atomic_operations $end
$var reg 32 t error_count [31:0] $end
$var reg 32 u read_data [31:0] $end
$upscope $end
$scope task test_gpio_configuration $end
$var reg 32 v error_count [31:0] $end
$var reg 32 w read_data [31:0] $end
$upscope $end
$scope task test_input_functionality $end
$var reg 32 x error_count [31:0] $end
$var reg 32 y read_data [31:0] $end
$upscope $end
$scope task test_mixed_io $end
$var reg 32 z error_count [31:0] $end
$var reg 32 { read_data [31:0] $end
$upscope $end
$scope task test_output_functionality $end
$var reg 32 | error_count [31:0] $end
$var reg 32 } read_data [31:0] $end
$upscope $end
$scope task wb_read $end
$var reg 32 ~ addr [31:0] $end
$var reg 32 !" data [31:0] $end
$upscope $end
$scope task wb_write $end
$var reg 32 "" addr [31:0] $end
$var reg 32 #" data [31:0] $end
$var reg 4 $" sel [3:0] $end
$upscope $end
$upscope $end
$enddefinitions $end
$comment Show the parameter values. $end
$dumpall
b111 r
b110 p
b101 n
b100 l
b11 j
b10 h
b1 f
b0 d
b10000 \
b1000 [
b100 Z
b0 Y
b1100 X
b1000 W
b100000 V
b100000 U
b100 E
b1000 D
b100000 C
b1000000000000000000000000000000 B
b100000 A
b100 +
b1000 *
b100000 )
b1010 (
b101111101011110000100000000 '
b1000000000000000000000000000000 &
b100000 %
$end
#0
$dumpvars
bx $"
bx #"
bx ""
bx !"
bx ~
bx }
bx |
bx {
bx z
bx y
bx x
bx w
bx v
bx u
bx t
b0 s
b0 q
b0 o
b0 m
b0 k
b0 i
b0 g
b0 e
b0 c
0b
0a
b0 `
b0 _
b0 ^
b0 ]
b0 T
b0 S
0R
1Q
0P
0O
0N
0M
b0 L
b0 K
0J
b0 I
b0 H
b0 G
bx F
b0 @
b0 ?
0>
b0 =
b0 <
b0 ;
b0 :
09
b0 8
07
06
b0 5
b0 4
03
b0 2
b0 1
b0 0
b0 /
0.
b0 -
0,
b0 $
b0 #
x"
bx !
$end
#5000
0"
b0 !
b0 F
1,
#10000
0,
#15000
1,
#20000
0,
#25000
1,
#30000
0,
#35000
1,
#40000
0,
#45000
1,
#50000
0,
#55000
1,
#60000
0,
#65000
1,
#70000
0,
#75000
1,
#80000
0,
#85000
1,
#90000
0,
#95000
1,
#100000
0,
1.
#105000
1,
#110000
0,
#115000
1,
#120000
0,
b1000000000000000000000000000000 ~
b0 w
b0 v
b1 0
#125000
1a
1J
1M
19
b1000000000000000000000000000000 2
b1000000000000000000000000000000 :
b1000000000000000000000000000000 I
16
13
1,
#130000
0,
#135000
1>
1,
#140000
0,
#145000
1"
1,
#150000
0,
#155000
0a
0M
0J
06
03
b0 !"
1,
#160000
0,
#165000
0>
b1000000000000000000000000000100 ~
1,
#170000
0,
#175000
0"
1a
0Q
1P
b100 S
1M
1J
b1000000000000000000000000000100 2
b1000000000000000000000000000100 :
b1000000000000000000000000000100 I
16
13
1,
#180000
0,
#185000
1>
1,
#190000
0,
#195000
1"
1,
#200000
0,
#205000
0a
0M
0J
06
03
1,
#210000
0,
#215000
0>
b1 $"
b11 #"
b1000000000000000000000000000100 ""
b0 }
b0 |
b10 0
1,
#220000
0,
#225000
0"
1M
1J
b1 5
b1 <
b1 L
b11 4
b11 ;
b11 K
17
16
13
1,
#230000
0,
#235000
b11 ]
1b
1,
#240000
0,
#245000
b11 $
b11 @
b11 ^
1>
1b
1,
#250000
0,
#255000
1b
1"
1,
#260000
0,
#265000
0b
0M
0J
07
06
03
1,
#270000
0,
#275000
0>
b1 #"
b1000000000000000000000000000000 ""
1,
#280000
0,
#285000
0"
1Q
0P
b0 S
1M
1J
b1 4
b1 ;
b1 K
b1000000000000000000000000000000 2
b1000000000000000000000000000000 :
b1000000000000000000000000000000 I
17
16
13
1,
#290000
0,
#295000
b1 G
b1 `
1b
1,
#300000
0,
#305000
b1 #
b1 ?
b1 _
1>
1b
1,
#310000
0,
#315000
1b
1"
1,
#320000
0,
#325000
0b
0M
0J
07
06
03
1,
#330000
0,
#335000
0>
b1000000000000000000000000000000 ~
1,
#340000
0,
#345000
0"
b1 =
b1 c
1a
1M
1J
16
13
1,
#350000
0,
#355000
1>
b1 !
b1 F
1,
#360000
0,
#365000
1"
1,
#370000
0,
#375000
0a
b0 =
b0 c
0M
0J
06
03
b1 !"
1,
#380000
0,
#385000
0>
b0 !
b0 F
b0 #"
b1000000000000000000000000000100 ""
b0 y
b0 x
b11 0
b1 }
1,
#390000
0,
#395000
0"
0Q
1P
b100 S
1M
1J
b0 4
b0 ;
b0 K
b1000000000000000000000000000100 2
b1000000000000000000000000000100 :
b1000000000000000000000000000100 I
17
16
13
1,
#400000
0,
#405000
b0 G
b0 ]
1b
1,
#410000
0,
#415000
1b
1>
b0 $
b0 @
b0 ^
1,
#420000
0,
#425000
1b
1"
1,
#430000
0,
#435000
0b
0M
0J
07
06
03
1,
#440000
0,
#445000
0>
b1 s
b1 o
b1 i
b1 e
b10100101 -
b10100101 8
b10100101 H
1,
#450000
0,
#455000
b10100101 G
b10100101 T
b11 e
b11 i
b11 o
b11 s
0"
1,
#460000
0,
#465000
1,
#470000
0,
#475000
b10100101 =
b10100101 c
1a
1Q
0P
b0 S
1M
1J
b1000000000000000000000000000000 2
b1000000000000000000000000000000 :
b1000000000000000000000000000000 I
16
13
1,
#480000
0,
#485000
1>
b10100101 !
b10100101 F
1,
#490000
0,
#495000
1"
1,
#500000
0,
#505000
0a
b0 =
b0 c
0M
0J
06
03
b10100101 !"
1,
#510000
0,
#515000
0>
b0 !
b0 F
b100 #"
b0 u
b0 t
b100 0
b10100101 y
1,
#520000
0,
#525000
0"
0Q
1P
b100 S
1M
1J
b100 4
b100 ;
b100 K
b1000000000000000000000000000100 2
b1000000000000000000000000000100 :
b1000000000000000000000000000100 I
17
16
13
1,
#530000
0,
#535000
b10100001 G
b100 ]
1b
1,
#540000
0,
#545000
b100 $
b100 @
b100 ^
1>
1b
1,
#550000
0,
#555000
1b
1"
1,
#560000
0,
#565000
0b
0M
0J
07
06
03
1,
#570000
0,
#575000
0>
b1000000000000000000000000001000 ""
1,
#580000
0,
#585000
0"
0P
1O
b1000 S
1M
1J
b1000000000000000000000000001000 2
b1000000000000000000000000001000 :
b1000000000000000000000000001000 I
17
16
13
1,
#590000
0,
#595000
b10100101 G
b101 `
1b
1,
#600000
0,
#605000
b101 #
b101 ?
b101 _
1>
1b
1,
#610000
0,
#615000
1b
1"
1,
#620000
0,
#625000
0b
0M
0J
07
06
03
1,
#630000
0,
#635000
0>
b1000000000000000000000000001100 ""
1,
#640000
0,
#645000
0"
0O
1R
b1100 S
1M
1J
b1000000000000000000000000001100 2
b1000000000000000000000000001100 :
b1000000000000000000000000001100 I
17
16
13
1,
#650000
0,
#655000
b10100001 G
b1 `
1b
1,
#660000
0,
#665000
b1 #
b1 ?
b1 _
1>
1b
1,
#670000
0,
#675000
1b
1"
1,
#680000
0,
#685000
0b
0M
0J
07
06
03
1,
#690000
0,
#695000
0>
b1000000000000000000000000010000 ""
1,
#700000
0,
#705000
0"
0R
1N
b10000 S
1M
1J
b1000000000000000000000000010000 2
b1000000000000000000000000010000 :
b1000000000000000000000000010000 I
17
16
13
1,
#710000
0,
#715000
b10100101 G
b101 `
1b
1,
#720000
0,
#725000
b10100001 G
b101 #
b101 ?
b101 _
1>
b1 `
1b
1,
#730000
0,
#735000
b10100101 G
b101 `
1b
b1 #
b1 ?
b1 _
1"
1,
#740000
0,
#745000
b101 #
b101 ?
b101 _
0b
0M
0J
07
06
03
1,
#750000
0,
#755000
0>
1,
#760000
0,
#765000
0"
1M
1J
17
16
13
1,
#770000
0,
#775000
b10100001 G
b1 `
1b
1,
#780000
0,
#785000
b10100101 G
b1 #
b1 ?
b1 _
1>
b101 `
1b
1,
#790000
0,
#795000
b10100001 G
b1 `
1b
b101 #
b101 ?
b101 _
1"
1,
#800000
0,
#805000
b1 #
b1 ?
b1 _
0b
0M
0J
07
06
03
1,
#810000
0,
#815000
0>
b1111 #"
b1000000000000000000000000000100 ""
b0 {
b0 z
b101 0
1,
#820000
0,
#825000
0"
1P
0N
b100 S
1M
1J
b1111 4
b1111 ;
b1111 K
b1000000000000000000000000000100 2
b1000000000000000000000000000100 :
b1000000000000000000000000000100 I
17
16
13
1,
#830000
0,
#835000
b1111 ]
1b
1,
#840000
0,
#845000
b1111 $
b1111 @
b1111 ^
1>
1b
1,
#850000
0,
#855000
1b
1"
1,
#860000
0,
#865000
0b
0M
0J
07
06
03
1,
#870000
0,
#875000
0>
b101 #"
b1000000000000000000000000000000 ""
1,
#880000
0,
#885000
0"
1Q
0P
b0 S
1M
1J
b101 4
b101 ;
b101 K
b1000000000000000000000000000000 2
b1000000000000000000000000000000 :
b1000000000000000000000000000000 I
17
16
13
1,
#890000
0,
#895000
b10100101 G
b101 `
1b
1,
#900000
0,
#905000
b101 #
b101 ?
b101 _
1>
1b
1,
#910000
0,
#915000
1b
1"
1,
#920000
0,
#925000
0b
0M
0J
07
06
03
1,
#930000
0,
#935000
b10 e
b10 i
b1 m
b1 q
0>
b11110000 -
b11110000 8
b11110000 H
1,
#940000
0,
#945000
b11110101 G
b11110000 T
b11 q
b11 m
b0 i
b0 e
0"
1,
#950000
0,
#955000
1,
#960000
0,
#965000
b11110101 =
b11110101 c
1a
1M
1J
16
13
1,
#970000
0,
#975000
1>
b11110101 !
b11110101 F
1,
#980000
0,
#985000
1"
1,
#990000
0,
#995000
0a
b0 =
b0 c
0M
0J
06
03
b11110101 !"
1,
#1000000
0,
#1005000
0>
b0 !
b0 F
b11110101 {
1,
