build/sim/mem/mem_init/mem_init_tb.vcd
$date
	Fri Sep  5 17:58:09 2025
$end
$version
	Icarus Verilog
$end
$timescale
	1ps
$end
$scope module tb_mem_init $end
$var wire 1 ! init_done $end
$var wire 1 " imem_init_en $end
$var wire 32 # imem_init_data [31:0] $end
$var wire 32 $ imem_init_addr [31:0] $end
$var wire 32 % imem_data_read [31:0] $end
$var wire 1 & imem_ack $end
$var wire 1 ' dmem_init_en $end
$var wire 32 ( dmem_init_data [31:0] $end
$var wire 32 ) dmem_init_addr [31:0] $end
$var wire 32 * dmem_data_read [31:0] $end
$var wire 1 + dmem_ack $end
$var parameter 32 , ADDR_WIDTH $end
$var parameter 32 - CLK_PERIOD $end
$var parameter 32 . DATA_WIDTH $end
$var parameter 32 / DMEM_BASE $end
$var parameter 32 0 IMEM_BASE $end
$var parameter 96 1 INIT_FILE $end
$var parameter 32 2 SIZE_KB $end
$var reg 1 3 clk $end
$var reg 1 4 init_start $end
$var reg 1 5 rst_n $end
$var reg 32 6 task_error_count [31:0] $end
$var reg 320 7 test_name [320:1] $end
$var reg 32 8 test_num [31:0] $end
$var reg 32 9 total_errors [31:0] $end
$scope module dmem_inst $end
$var wire 1 3 clk $end
$var wire 1 : init_select $end
$var wire 1 ; mem_select $end
$var wire 1 5 rst_n $end
$var wire 32 < wbs_addr [31:0] $end
$var wire 1 = wbs_cyc $end
$var wire 32 > wbs_data_write [31:0] $end
$var wire 4 ? wbs_sel [3:0] $end
$var wire 1 @ wbs_stb $end
$var wire 1 A wbs_we $end
$var wire 32 B tmp_wbs_data_read [31:0] $end
$var wire 1 C tmp_wbs_ack $end
$var wire 1 ' init_en $end
$var wire 32 D init_data [31:0] $end
$var wire 32 E init_addr [31:0] $end
$var wire 32 F dmem_wbs_addr [31:0] $end
$var wire 32 G dmem_init_addr [31:0] $end
$var parameter 32 H ADDR_WIDTH $end
$var parameter 32 I BASE_ADDR $end
$var parameter 32 J DATA_WIDTH $end
$var parameter 32 K SIZE_KB $end
$var reg 1 + wbs_ack $end
$var reg 32 L wbs_data_read [31:0] $end
$scope module dmem_inst $end
$var wire 1 3 clk $end
$var wire 32 M init_addr [31:0] $end
$var wire 1 N init_en $end
$var wire 1 5 rst_n $end
$var wire 32 O wbs_addr [31:0] $end
$var wire 1 P wbs_cyc $end
$var wire 32 Q wbs_data_write [31:0] $end
$var wire 4 R wbs_sel [3:0] $end
$var wire 1 S wbs_stb $end
$var wire 1 A wbs_we $end
$var wire 10 T word_addr [9:0] $end
$var wire 10 U init_word_addr [9:0] $end
$var wire 32 V init_data [31:0] $end
$var parameter 32 W ADDR_WIDTH $end
$var parameter 32 X DATA_WIDTH $end
$var parameter 64 Y DEPTH $end
$var parameter 32 Z SIZE_KB $end
$var reg 1 [ tmp_r_ack $end
$var reg 1 \ tmp_w_ack $end
$var reg 1 C wbs_ack $end
$var reg 32 ] wbs_data_read [31:0] $end
$upscope $end
$upscope $end
$scope module dut $end
$var wire 1 3 clk $end
$var wire 1 4 init_start $end
$var wire 1 5 rst_n $end
$var parameter 32 ^ ADDR_WIDTH $end
$var parameter 32 _ DATA_WIDTH $end
$var parameter 32 ` DMEM_BASE $end
$var parameter 2 a DONE $end
$var parameter 2 b IDLE $end
$var parameter 32 c IMEM_BASE $end
$var parameter 96 d INIT_FILE $end
$var parameter 2 e LOAD_DMEM $end
$var parameter 2 f LOAD_IMEM $end
$var reg 32 g dmem_init_addr [31:0] $end
$var reg 32 h dmem_init_data [31:0] $end
$var reg 1 ' dmem_init_en $end
$var reg 32 i imem_init_addr [31:0] $end
$var reg 32 j imem_init_data [31:0] $end
$var reg 1 " imem_init_en $end
$var reg 32 k init_counter [31:0] $end
$var reg 1 ! init_done $end
$var reg 1 l init_pulse $end
$var reg 2 m state [1:0] $end
$upscope $end
$scope module imem_inst $end
$var wire 1 3 clk $end
$var wire 32 n init_addr [31:0] $end
$var wire 32 o init_data [31:0] $end
$var wire 1 " init_en $end
$var wire 1 p init_select $end
$var wire 1 q mem_select $end
$var wire 1 5 rst_n $end
$var wire 32 r wbs_addr [31:0] $end
$var wire 1 s wbs_cyc $end
$var wire 32 t wbs_data_write [31:0] $end
$var wire 4 u wbs_sel [3:0] $end
$var wire 1 v wbs_stb $end
$var wire 1 w wbs_we $end
$var wire 32 x tmp_wbs_data_read [31:0] $end
$var wire 1 y tmp_wbs_ack $end
$var wire 32 z imem_wbs_addr [31:0] $end
$var wire 32 { imem_init_addr [31:0] $end
$var parameter 32 | ADDR_WIDTH $end
$var parameter 32 } BASE_ADDR $end
$var parameter 32 ~ DATA_WIDTH $end
$var parameter 32 !" SIZE_KB $end
$var reg 1 & wbs_ack $end
$var reg 32 "" wbs_data_read [31:0] $end
$scope module imem_inst $end
$var wire 1 3 clk $end
$var wire 32 #" init_addr [31:0] $end
$var wire 32 $" init_data [31:0] $end
$var wire 1 %" init_en $end
$var wire 1 5 rst_n $end
$var wire 32 &" wbs_addr [31:0] $end
$var wire 1 '" wbs_cyc $end
$var wire 32 (" wbs_data_write [31:0] $end
$var wire 4 )" wbs_sel [3:0] $end
$var wire 1 *" wbs_stb $end
$var wire 1 w wbs_we $end
$var wire 10 +" word_addr [9:0] $end
$var wire 10 ," init_word_addr [9:0] $end
$var parameter 32 -" ADDR_WIDTH $end
$var parameter 32 ." DATA_WIDTH $end
$var parameter 64 /" DEPTH $end
$var parameter 32 0" SIZE_KB $end
$var reg 1 1" tmp_r_ack $end
$var reg 1 y wbs_ack $end
$var reg 32 2" wbs_data_read [31:0] $end
$upscope $end
$upscope $end
$scope task create_test_firmware $end
$var integer 32 3" file [31:0] $end
$var integer 32 4" i [31:0] $end
$upscope $end
$scope task read_dmem $end
$var reg 32 5" addr [31:0] $end
$var reg 32 6" data [31:0] $end
$upscope $end
$scope task read_imem $end
$var reg 32 7" addr [31:0] $end
$var reg 32 8" data [31:0] $end
$upscope $end
$scope task test_init_sequence $end
$var reg 32 9" error_count [31:0] $end
$var reg 32 :" expected_data [31:0] $end
$var reg 32 ;" read_data [31:0] $end
$var integer 32 <" i [31:0] $end
$upscope $end
$upscope $end
$enddefinitions $end
$comment Show the parameter values. $end
$dumpall
b100 0"
b10000000000 /"
b100000 ."
b100000 -"
b100 !"
b100000 ~
b0 }
b100000 |
b1 f
b10 e
b11001100110100101110010011011010111011101100001011100100110010100101110011010000110010101111000 d
b0 c
b0 b
b11 a
b10000000000000000000000000000 `
b100000 _
b100000 ^
b100 Z
b10000000000 Y
b100000 X
b100000 W
b100 K
b100000 J
b10000000000000000000000000000 I
b100000 H
b100 2
b11001100110100101110010011011010111011101100001011100100110010100101110011010000110010101111000 1
b0 0
b10000000000000000000000000000 /
b100000 .
b1010 -
b100000 ,
$end
#0
$dumpvars
bx <"
bx ;"
bx :"
bx 9"
bx 8"
bx 7"
bx 6"
bx 5"
b10000000000 4"
b10000000000000000000000000000011 3"
bx 2"
01"
b0 ,"
b0 +"
0*"
b0 )"
b0 ("
0'"
b0 &"
0%"
b0 $"
b0 #"
bx ""
b0 {
b0 z
0y
bx x
0w
0v
b0 u
b0 t
0s
b0 r
1q
1p
b0 o
b0 n
b0 m
0l
b0 k
b0 j
b0 i
b0 h
b0 g
bx ]
0\
0[
b0 V
b0 U
b0 T
0S
b0 R
b0 Q
0P
b11110000000000000000000000000000 O
0N
b11110000000000000000000000000000 M
bx L
b11110000000000000000000000000000 G
b11110000000000000000000000000000 F
b0 E
b0 D
0C
bx B
0A
0@
b0 ?
b0 >
0=
b0 <
0;
0:
b0 9
b0 8
b0 7
b0 6
05
x4
03
x+
bx *
b0 )
b0 (
0'
x&
bx %
b0 $
b0 #
0"
0!
$end
#5000
b0 x
b0 2"
0&
b0 %
b0 ""
b0 B
b0 ]
0+
b0 *
b0 L
13
#10000
03
#15000
13
#20000
03
#25000
13
#30000
03
#35000
13
#40000
03
#45000
13
#50000
03
#55000
13
#60000
03
#65000
13
#70000
03
#75000
13
#80000
03
#85000
13
#90000
03
#95000
13
#100000
03
15
#105000
13
#110000
03
#115000
13
#120000
03
14
b0 9"
b100100101101110011010010111010001101001011000010110110001101001011110100110000101110100011010010110111101101110001000000101001101100101011100010111010101100101011011100110001101100101 7
b1 8
#125000
1l
b1 m
13
#130000
03
#135000
1%"
b1 k
b10100101101001011010010110100101 #
b10100101101001011010010110100101 j
b10100101101001011010010110100101 o
b10100101101001011010010110100101 $"
1"
1l
04
13
#140000
03
#145000
b1 ,"
b10 k
b10100101101001011010010110100110 #
b10100101101001011010010110100110 j
b10100101101001011010010110100110 o
b10100101101001011010010110100110 $"
b100 {
b100 #"
b100 $
b100 i
b100 n
1l
1"
13
#150000
03
#155000
b10 ,"
b11 k
b10100101101001011010010110100111 #
b10100101101001011010010110100111 j
b10100101101001011010010110100111 o
b10100101101001011010010110100111 $"
b1000 {
b1000 #"
b1000 $
b1000 i
b1000 n
1l
1"
13
#160000
03
#165000
b11 ,"
b100 k
b10100101101001011010010110101000 #
b10100101101001011010010110101000 j
b10100101101001011010010110101000 o
b10100101101001011010010110101000 $"
b1100 {
b1100 #"
b1100 $
b1100 i
b1100 n
1l
1"
13
#170000
03
#175000
b100 ,"
b101 k
b10100101101001011010010110101001 #
b10100101101001011010010110101001 j
b10100101101001011010010110101001 o
b10100101101001011010010110101001 $"
b10000 {
b10000 #"
b10000 $
b10000 i
b10000 n
1l
1"
13
#180000
03
#185000
b101 ,"
b110 k
b10100101101001011010010110101010 #
b10100101101001011010010110101010 j
b10100101101001011010010110101010 o
b10100101101001011010010110101010 $"
b10100 {
b10100 #"
b10100 $
b10100 i
b10100 n
1l
1"
13
#190000
03
#195000
b110 ,"
b111 k
b10100101101001011010010110101011 #
b10100101101001011010010110101011 j
b10100101101001011010010110101011 o
b10100101101001011010010110101011 $"
b11000 {
b11000 #"
b11000 $
b11000 i
b11000 n
1l
1"
13
#200000
03
#205000
b111 ,"
b1000 k
b10100101101001011010010110101100 #
b10100101101001011010010110101100 j
b10100101101001011010010110101100 o
b10100101101001011010010110101100 $"
b11100 {
b11100 #"
b11100 $
b11100 i
b11100 n
1l
1"
13
#210000
03
#215000
b1000 ,"
b1001 k
b10100101101001011010010110101101 #
b10100101101001011010010110101101 j
b10100101101001011010010110101101 o
b10100101101001011010010110101101 $"
b100000 {
b100000 #"
b100000 $
b100000 i
b100000 n
1l
1"
13
#220000
03
#225000
b1001 ,"
b1010 k
b10100101101001011010010110101110 #
b10100101101001011010010110101110 j
b10100101101001011010010110101110 o
b10100101101001011010010110101110 $"
b100100 {
b100100 #"
b100100 $
b100100 i
b100100 n
1l
1"
13
#230000
03
#235000
b1010 ,"
b1011 k
b10100101101001011010010110101111 #
b10100101101001011010010110101111 j
b10100101101001011010010110101111 o
b10100101101001011010010110101111 $"
b101000 {
b101000 #"
b101000 $
b101000 i
b101000 n
1l
1"
13
#240000
03
#245000
b1011 ,"
b1100 k
b10100101101001011010010110110000 #
b10100101101001011010010110110000 j
b10100101101001011010010110110000 o
b10100101101001011010010110110000 $"
b101100 {
b101100 #"
b101100 $
b101100 i
b101100 n
1l
1"
13
#250000
03
#255000
b1100 ,"
b1101 k
b10100101101001011010010110110001 #
b10100101101001011010010110110001 j
b10100101101001011010010110110001 o
b10100101101001011010010110110001 $"
b110000 {
b110000 #"
b110000 $
b110000 i
b110000 n
1l
1"
13
#260000
03
#265000
b1101 ,"
b1110 k
b10100101101001011010010110110010 #
b10100101101001011010010110110010 j
b10100101101001011010010110110010 o
b10100101101001011010010110110010 $"
b110100 {
b110100 #"
b110100 $
b110100 i
b110100 n
1l
1"
13
#270000
03
#275000
b1110 ,"
b1111 k
b10100101101001011010010110110011 #
b10100101101001011010010110110011 j
b10100101101001011010010110110011 o
b10100101101001011010010110110011 $"
b111000 {
b111000 #"
b111000 $
b111000 i
b111000 n
1l
1"
13
#280000
03
#285000
b1111 ,"
b10000 k
b10100101101001011010010110110100 #
b10100101101001011010010110110100 j
b10100101101001011010010110110100 o
b10100101101001011010010110110100 $"
b111100 {
b111100 #"
b111100 $
b111100 i
b111100 n
1l
1"
13
#290000
03
#295000
b10000 ,"
b10001 k
b10100101101001011010010110110101 #
b10100101101001011010010110110101 j
b10100101101001011010010110110101 o
b10100101101001011010010110110101 $"
b1000000 {
b1000000 #"
b1000000 $
b1000000 i
b1000000 n
1l
1"
13
#300000
03
#305000
b10001 ,"
b10010 k
b10100101101001011010010110110110 #
b10100101101001011010010110110110 j
b10100101101001011010010110110110 o
b10100101101001011010010110110110 $"
b1000100 {
b1000100 #"
b1000100 $
b1000100 i
b1000100 n
1l
1"
13
#310000
03
#315000
b10010 ,"
b10011 k
b10100101101001011010010110110111 #
b10100101101001011010010110110111 j
b10100101101001011010010110110111 o
b10100101101001011010010110110111 $"
b1001000 {
b1001000 #"
b1001000 $
b1001000 i
b1001000 n
1l
1"
13
#320000
03
#325000
b10011 ,"
b10100 k
b10100101101001011010010110111000 #
b10100101101001011010010110111000 j
b10100101101001011010010110111000 o
b10100101101001011010010110111000 $"
b1001100 {
b1001100 #"
b1001100 $
b1001100 i
b1001100 n
1l
1"
13
#330000
03
#335000
b10100 ,"
b10101 k
b10100101101001011010010110111001 #
b10100101101001011010010110111001 j
b10100101101001011010010110111001 o
b10100101101001011010010110111001 $"
b1010000 {
b1010000 #"
b1010000 $
b1010000 i
b1010000 n
1l
1"
13
#340000
03
#345000
b10101 ,"
b10110 k
b10100101101001011010010110111010 #
b10100101101001011010010110111010 j
b10100101101001011010010110111010 o
b10100101101001011010010110111010 $"
b1010100 {
b1010100 #"
b1010100 $
b1010100 i
b1010100 n
1l
1"
13
#350000
03
#355000
b10110 ,"
b10111 k
b10100101101001011010010110111011 #
b10100101101001011010010110111011 j
b10100101101001011010010110111011 o
b10100101101001011010010110111011 $"
b1011000 {
b1011000 #"
b1011000 $
b1011000 i
b1011000 n
1l
1"
13
#360000
03
#365000
b10111 ,"
b11000 k
b10100101101001011010010110111100 #
b10100101101001011010010110111100 j
b10100101101001011010010110111100 o
b10100101101001011010010110111100 $"
b1011100 {
b1011100 #"
b1011100 $
b1011100 i
b1011100 n
1l
1"
13
#370000
03
#375000
b11000 ,"
b11001 k
b10100101101001011010010110111101 #
b10100101101001011010010110111101 j
b10100101101001011010010110111101 o
b10100101101001011010010110111101 $"
b1100000 {
b1100000 #"
b1100000 $
b1100000 i
b1100000 n
1l
1"
13
#380000
03
#385000
b11001 ,"
b11010 k
b10100101101001011010010110111110 #
b10100101101001011010010110111110 j
b10100101101001011010010110111110 o
b10100101101001011010010110111110 $"
b1100100 {
b1100100 #"
b1100100 $
b1100100 i
b1100100 n
1l
1"
13
#390000
03
#395000
b11010 ,"
b11011 k
b10100101101001011010010110111111 #
b10100101101001011010010110111111 j
b10100101101001011010010110111111 o
b10100101101001011010010110111111 $"
b1101000 {
b1101000 #"
b1101000 $
b1101000 i
b1101000 n
1l
1"
13
#400000
03
#405000
b11011 ,"
b11100 k
b10100101101001011010010111000000 #
b10100101101001011010010111000000 j
b10100101101001011010010111000000 o
b10100101101001011010010111000000 $"
b1101100 {
b1101100 #"
b1101100 $
b1101100 i
b1101100 n
1l
1"
13
#410000
03
#415000
b11100 ,"
b11101 k
b10100101101001011010010111000001 #
b10100101101001011010010111000001 j
b10100101101001011010010111000001 o
b10100101101001011010010111000001 $"
b1110000 {
b1110000 #"
b1110000 $
b1110000 i
b1110000 n
1l
1"
13
#420000
03
#425000
b11101 ,"
b11110 k
b10100101101001011010010111000010 #
b10100101101001011010010111000010 j
b10100101101001011010010111000010 o
b10100101101001011010010111000010 $"
b1110100 {
b1110100 #"
b1110100 $
b1110100 i
b1110100 n
1l
1"
13
#430000
03
#435000
b11110 ,"
b11111 k
b10100101101001011010010111000011 #
b10100101101001011010010111000011 j
b10100101101001011010010111000011 o
b10100101101001011010010111000011 $"
b1111000 {
b1111000 #"
b1111000 $
b1111000 i
b1111000 n
1l
1"
13
#440000
03
#445000
b11111 ,"
b100000 k
b10100101101001011010010111000100 #
b10100101101001011010010111000100 j
b10100101101001011010010111000100 o
b10100101101001011010010111000100 $"
b1111100 {
b1111100 #"
b1111100 $
b1111100 i
b1111100 n
1l
1"
13
#450000
03
#455000
b100000 ,"
b100001 k
b10100101101001011010010111000101 #
b10100101101001011010010111000101 j
b10100101101001011010010111000101 o
b10100101101001011010010111000101 $"
b10000000 {
b10000000 #"
b10000000 $
b10000000 i
b10000000 n
1l
1"
13
#460000
03
#465000
b100001 ,"
b100010 k
b10100101101001011010010111000110 #
b10100101101001011010010111000110 j
b10100101101001011010010111000110 o
b10100101101001011010010111000110 $"
b10000100 {
b10000100 #"
b10000100 $
b10000100 i
b10000100 n
1l
1"
13
#470000
03
#475000
b100010 ,"
b100011 k
b10100101101001011010010111000111 #
b10100101101001011010010111000111 j
b10100101101001011010010111000111 o
b10100101101001011010010111000111 $"
b10001000 {
b10001000 #"
b10001000 $
b10001000 i
b10001000 n
1l
1"
13
#480000
03
#485000
b100011 ,"
b100100 k
b10100101101001011010010111001000 #
b10100101101001011010010111001000 j
b10100101101001011010010111001000 o
b10100101101001011010010111001000 $"
b10001100 {
b10001100 #"
b10001100 $
b10001100 i
b10001100 n
1l
1"
13
#490000
03
#495000
b100100 ,"
b100101 k
b10100101101001011010010111001001 #
b10100101101001011010010111001001 j
b10100101101001011010010111001001 o
b10100101101001011010010111001001 $"
b10010000 {
b10010000 #"
b10010000 $
b10010000 i
b10010000 n
1l
1"
13
#500000
03
#505000
b100101 ,"
b100110 k
b10100101101001011010010111001010 #
b10100101101001011010010111001010 j
b10100101101001011010010111001010 o
b10100101101001011010010111001010 $"
b10010100 {
b10010100 #"
b10010100 $
b10010100 i
b10010100 n
1l
1"
13
#510000
03
#515000
b100110 ,"
b100111 k
b10100101101001011010010111001011 #
b10100101101001011010010111001011 j
b10100101101001011010010111001011 o
b10100101101001011010010111001011 $"
b10011000 {
b10011000 #"
b10011000 $
b10011000 i
b10011000 n
1l
1"
13
#520000
03
#525000
b100111 ,"
b101000 k
b10100101101001011010010111001100 #
b10100101101001011010010111001100 j
b10100101101001011010010111001100 o
b10100101101001011010010111001100 $"
b10011100 {
b10011100 #"
b10011100 $
b10011100 i
b10011100 n
1l
1"
13
#530000
03
#535000
b101000 ,"
b101001 k
b10100101101001011010010111001101 #
b10100101101001011010010111001101 j
b10100101101001011010010111001101 o
b10100101101001011010010111001101 $"
b10100000 {
b10100000 #"
b10100000 $
b10100000 i
b10100000 n
1l
1"
13
#540000
03
#545000
b101001 ,"
b101010 k
b10100101101001011010010111001110 #
b10100101101001011010010111001110 j
b10100101101001011010010111001110 o
b10100101101001011010010111001110 $"
b10100100 {
b10100100 #"
b10100100 $
b10100100 i
b10100100 n
1l
1"
13
#550000
03
#555000
b101010 ,"
b101011 k
b10100101101001011010010111001111 #
b10100101101001011010010111001111 j
b10100101101001011010010111001111 o
b10100101101001011010010111001111 $"
b10101000 {
b10101000 #"
b10101000 $
b10101000 i
b10101000 n
1l
1"
13
#560000
03
#565000
b101011 ,"
b101100 k
b10100101101001011010010111010000 #
b10100101101001011010010111010000 j
b10100101101001011010010111010000 o
b10100101101001011010010111010000 $"
b10101100 {
b10101100 #"
b10101100 $
b10101100 i
b10101100 n
1l
1"
13
#570000
03
#575000
b101100 ,"
b101101 k
b10100101101001011010010111010001 #
b10100101101001011010010111010001 j
b10100101101001011010010111010001 o
b10100101101001011010010111010001 $"
b10110000 {
b10110000 #"
b10110000 $
b10110000 i
b10110000 n
1l
1"
13
#580000
03
#585000
b101101 ,"
b101110 k
b10100101101001011010010111010010 #
b10100101101001011010010111010010 j
b10100101101001011010010111010010 o
b10100101101001011010010111010010 $"
b10110100 {
b10110100 #"
b10110100 $
b10110100 i
b10110100 n
1l
1"
13
#590000
03
#595000
b101110 ,"
b101111 k
b10100101101001011010010111010011 #
b10100101101001011010010111010011 j
b10100101101001011010010111010011 o
b10100101101001011010010111010011 $"
b10111000 {
b10111000 #"
b10111000 $
b10111000 i
b10111000 n
1l
1"
13
#600000
03
#605000
b101111 ,"
b110000 k
b10100101101001011010010111010100 #
b10100101101001011010010111010100 j
b10100101101001011010010111010100 o
b10100101101001011010010111010100 $"
b10111100 {
b10111100 #"
b10111100 $
b10111100 i
b10111100 n
1l
1"
13
#610000
03
#615000
b110000 ,"
b110001 k
b10100101101001011010010111010101 #
b10100101101001011010010111010101 j
b10100101101001011010010111010101 o
b10100101101001011010010111010101 $"
b11000000 {
b11000000 #"
b11000000 $
b11000000 i
b11000000 n
1l
1"
13
#620000
03
#625000
b110001 ,"
b110010 k
b10100101101001011010010111010110 #
b10100101101001011010010111010110 j
b10100101101001011010010111010110 o
b10100101101001011010010111010110 $"
b11000100 {
b11000100 #"
b11000100 $
b11000100 i
b11000100 n
1l
1"
13
#630000
03
#635000
b110010 ,"
b110011 k
b10100101101001011010010111010111 #
b10100101101001011010010111010111 j
b10100101101001011010010111010111 o
b10100101101001011010010111010111 $"
b11001000 {
b11001000 #"
b11001000 $
b11001000 i
b11001000 n
1l
1"
13
#640000
03
#645000
b110011 ,"
b110100 k
b10100101101001011010010111011000 #
b10100101101001011010010111011000 j
b10100101101001011010010111011000 o
b10100101101001011010010111011000 $"
b11001100 {
b11001100 #"
b11001100 $
b11001100 i
b11001100 n
1l
1"
13
#650000
03
#655000
b110100 ,"
b110101 k
b10100101101001011010010111011001 #
b10100101101001011010010111011001 j
b10100101101001011010010111011001 o
b10100101101001011010010111011001 $"
b11010000 {
b11010000 #"
b11010000 $
b11010000 i
b11010000 n
1l
1"
13
#660000
03
#665000
b110101 ,"
b110110 k
b10100101101001011010010111011010 #
b10100101101001011010010111011010 j
b10100101101001011010010111011010 o
b10100101101001011010010111011010 $"
b11010100 {
b11010100 #"
b11010100 $
b11010100 i
b11010100 n
1l
1"
13
#670000
03
#675000
b110110 ,"
b110111 k
b10100101101001011010010111011011 #
b10100101101001011010010111011011 j
b10100101101001011010010111011011 o
b10100101101001011010010111011011 $"
b11011000 {
b11011000 #"
b11011000 $
b11011000 i
b11011000 n
1l
1"
13
#680000
03
#685000
b110111 ,"
b111000 k
b10100101101001011010010111011100 #
b10100101101001011010010111011100 j
b10100101101001011010010111011100 o
b10100101101001011010010111011100 $"
b11011100 {
b11011100 #"
b11011100 $
b11011100 i
b11011100 n
1l
1"
13
#690000
03
#695000
b111000 ,"
b111001 k
b10100101101001011010010111011101 #
b10100101101001011010010111011101 j
b10100101101001011010010111011101 o
b10100101101001011010010111011101 $"
b11100000 {
b11100000 #"
b11100000 $
b11100000 i
b11100000 n
1l
1"
13
#700000
03
#705000
b111001 ,"
b111010 k
b10100101101001011010010111011110 #
b10100101101001011010010111011110 j
b10100101101001011010010111011110 o
b10100101101001011010010111011110 $"
b11100100 {
b11100100 #"
b11100100 $
b11100100 i
b11100100 n
1l
1"
13
#710000
03
#715000
b111010 ,"
b111011 k
b10100101101001011010010111011111 #
b10100101101001011010010111011111 j
b10100101101001011010010111011111 o
b10100101101001011010010111011111 $"
b11101000 {
b11101000 #"
b11101000 $
b11101000 i
b11101000 n
1l
1"
13
#720000
03
#725000
b111011 ,"
b111100 k
b10100101101001011010010111100000 #
b10100101101001011010010111100000 j
b10100101101001011010010111100000 o
b10100101101001011010010111100000 $"
b11101100 {
b11101100 #"
b11101100 $
b11101100 i
b11101100 n
1l
1"
13
#730000
03
#735000
b111100 ,"
b111101 k
b10100101101001011010010111100001 #
b10100101101001011010010111100001 j
b10100101101001011010010111100001 o
b10100101101001011010010111100001 $"
b11110000 {
b11110000 #"
b11110000 $
b11110000 i
b11110000 n
1l
1"
13
#740000
03
#745000
b111101 ,"
b111110 k
b10100101101001011010010111100010 #
b10100101101001011010010111100010 j
b10100101101001011010010111100010 o
b10100101101001011010010111100010 $"
b11110100 {
b11110100 #"
b11110100 $
b11110100 i
b11110100 n
1l
1"
13
#750000
03
#755000
b111110 ,"
b111111 k
b10100101101001011010010111100011 #
b10100101101001011010010111100011 j
b10100101101001011010010111100011 o
b10100101101001011010010111100011 $"
b11111000 {
b11111000 #"
b11111000 $
b11111000 i
b11111000 n
1l
1"
13
#760000
03
#765000
b111111 ,"
b1000000 k
b10100101101001011010010111100100 #
b10100101101001011010010111100100 j
b10100101101001011010010111100100 o
b10100101101001011010010111100100 $"
b11111100 {
b11111100 #"
b11111100 $
b11111100 i
b11111100 n
1l
1"
13
#770000
03
#775000
b1000000 ,"
b1000001 k
b10100101101001011010010111100101 #
b10100101101001011010010111100101 j
b10100101101001011010010111100101 o
b10100101101001011010010111100101 $"
b100000000 {
b100000000 #"
b100000000 $
b100000000 i
b100000000 n
1l
1"
13
#780000
03
#785000
b1000001 ,"
b1000010 k
b10100101101001011010010111100110 #
b10100101101001011010010111100110 j
b10100101101001011010010111100110 o
b10100101101001011010010111100110 $"
b100000100 {
b100000100 #"
b100000100 $
b100000100 i
b100000100 n
1l
1"
13
#790000
03
#795000
b1000010 ,"
b1000011 k
b10100101101001011010010111100111 #
b10100101101001011010010111100111 j
b10100101101001011010010111100111 o
b10100101101001011010010111100111 $"
b100001000 {
b100001000 #"
b100001000 $
b100001000 i
b100001000 n
1l
1"
13
#800000
03
#805000
b1000011 ,"
b1000100 k
b10100101101001011010010111101000 #
b10100101101001011010010111101000 j
b10100101101001011010010111101000 o
b10100101101001011010010111101000 $"
b100001100 {
b100001100 #"
b100001100 $
b100001100 i
b100001100 n
1l
1"
13
#810000
03
#815000
b1000100 ,"
b1000101 k
b10100101101001011010010111101001 #
b10100101101001011010010111101001 j
b10100101101001011010010111101001 o
b10100101101001011010010111101001 $"
b100010000 {
b100010000 #"
b100010000 $
b100010000 i
b100010000 n
1l
1"
13
#820000
03
#825000
b1000101 ,"
b1000110 k
b10100101101001011010010111101010 #
b10100101101001011010010111101010 j
b10100101101001011010010111101010 o
b10100101101001011010010111101010 $"
b100010100 {
b100010100 #"
b100010100 $
b100010100 i
b100010100 n
1l
1"
13
#830000
03
#835000
b1000110 ,"
b1000111 k
b10100101101001011010010111101011 #
b10100101101001011010010111101011 j
b10100101101001011010010111101011 o
b10100101101001011010010111101011 $"
b100011000 {
b100011000 #"
b100011000 $
b100011000 i
b100011000 n
1l
1"
13
#840000
03
#845000
b1000111 ,"
b1001000 k
b10100101101001011010010111101100 #
b10100101101001011010010111101100 j
b10100101101001011010010111101100 o
b10100101101001011010010111101100 $"
b100011100 {
b100011100 #"
b100011100 $
b100011100 i
b100011100 n
1l
1"
13
#850000
03
#855000
b1001000 ,"
b1001001 k
b10100101101001011010010111101101 #
b10100101101001011010010111101101 j
b10100101101001011010010111101101 o
b10100101101001011010010111101101 $"
b100100000 {
b100100000 #"
b100100000 $
b100100000 i
b100100000 n
1l
1"
13
#860000
03
#865000
b1001001 ,"
b1001010 k
b10100101101001011010010111101110 #
b10100101101001011010010111101110 j
b10100101101001011010010111101110 o
b10100101101001011010010111101110 $"
b100100100 {
b100100100 #"
b100100100 $
b100100100 i
b100100100 n
1l
1"
13
#870000
03
#875000
b1001010 ,"
b1001011 k
b10100101101001011010010111101111 #
b10100101101001011010010111101111 j
b10100101101001011010010111101111 o
b10100101101001011010010111101111 $"
b100101000 {
b100101000 #"
b100101000 $
b100101000 i
b100101000 n
1l
1"
13
#880000
03
#885000
b1001011 ,"
b1001100 k
b10100101101001011010010111110000 #
b10100101101001011010010111110000 j
b10100101101001011010010111110000 o
b10100101101001011010010111110000 $"
b100101100 {
b100101100 #"
b100101100 $
b100101100 i
b100101100 n
1l
1"
13
#890000
03
#895000
b1001100 ,"
b1001101 k
b10100101101001011010010111110001 #
b10100101101001011010010111110001 j
b10100101101001011010010111110001 o
b10100101101001011010010111110001 $"
b100110000 {
b100110000 #"
b100110000 $
b100110000 i
b100110000 n
1l
1"
13
#900000
03
#905000
b1001101 ,"
b1001110 k
b10100101101001011010010111110010 #
b10100101101001011010010111110010 j
b10100101101001011010010111110010 o
b10100101101001011010010111110010 $"
b100110100 {
b100110100 #"
b100110100 $
b100110100 i
b100110100 n
1l
1"
13
#910000
03
#915000
b1001110 ,"
b1001111 k
b10100101101001011010010111110011 #
b10100101101001011010010111110011 j
b10100101101001011010010111110011 o
b10100101101001011010010111110011 $"
b100111000 {
b100111000 #"
b100111000 $
b100111000 i
b100111000 n
1l
1"
13
#920000
03
#925000
b1001111 ,"
b1010000 k
b10100101101001011010010111110100 #
b10100101101001011010010111110100 j
b10100101101001011010010111110100 o
b10100101101001011010010111110100 $"
b100111100 {
b100111100 #"
b100111100 $
b100111100 i
b100111100 n
1l
1"
13
#930000
03
#935000
b1010000 ,"
b1010001 k
b10100101101001011010010111110101 #
b10100101101001011010010111110101 j
b10100101101001011010010111110101 o
b10100101101001011010010111110101 $"
b101000000 {
b101000000 #"
b101000000 $
b101000000 i
b101000000 n
1l
1"
13
#940000
03
#945000
b1010001 ,"
b1010010 k
b10100101101001011010010111110110 #
b10100101101001011010010111110110 j
b10100101101001011010010111110110 o
b10100101101001011010010111110110 $"
b101000100 {
b101000100 #"
b101000100 $
b101000100 i
b101000100 n
1l
1"
13
#950000
03
#955000
b1010010 ,"
b1010011 k
b10100101101001011010010111110111 #
b10100101101001011010010111110111 j
b10100101101001011010010111110111 o
b10100101101001011010010111110111 $"
b101001000 {
b101001000 #"
b101001000 $
b101001000 i
b101001000 n
1l
1"
13
#960000
03
#965000
b1010011 ,"
b1010100 k
b10100101101001011010010111111000 #
b10100101101001011010010111111000 j
b10100101101001011010010111111000 o
b10100101101001011010010111111000 $"
b101001100 {
b101001100 #"
b101001100 $
b101001100 i
b101001100 n
1l
1"
13
#970000
03
