build/sim/peripheral/gpio/gpio_latency_tb.vcd
$date
	Sat Sep 13 10:38:24 2025
$end
$version
	Icarus Verilog
$end
$timescale
	1ps
$end
$scope module tb_gpio_latency $end
$var wire 32 ! wbs_data_read [31:0] $end
$var wire 1 " wbs_ack $end
$var wire 8 # gpio_out [7:0] $end
$var wire 8 $ gpio_oe [7:0] $end
$var parameter 32 % ADDR_WIDTH $end
$var parameter 32 & BASE_ADDR $end
$var parameter 32 ' CLK_FREQ $end
$var parameter 32 ( CLK_PERIOD $end
$var parameter 32 ) DATA_WIDTH $end
$var parameter 32 * N_GPIO $end
$var reg 1 + clk $end
$var reg 8 , gpio_in [7:0] $end
$var reg 1 - rst_n $end
$var reg 32 . wbs_addr [31:0] $end
$var reg 1 / wbs_cyc $end
$var reg 32 0 wbs_data_write [31:0] $end
$var reg 4 1 wbs_sel [3:0] $end
$var reg 1 2 wbs_stb $end
$var reg 1 3 wbs_we $end
$var integer 32 4 ack_assert_time [31:0] $end
$var integer 32 5 end_time [31:0] $end
$var integer 32 6 oe_update_latency [31:0] $end
$var integer 32 7 output_update_latency [31:0] $end
$var integer 32 8 read_latency [31:0] $end
$var integer 32 9 start_time [31:0] $end
$var integer 32 : stb_assert_time [31:0] $end
$var integer 32 ; sync_latency [31:0] $end
$var integer 32 < test_start [31:0] $end
$var integer 32 = write_latency [31:0] $end
$scope module dut $end
$var wire 1 + clk $end
$var wire 8 > gpio_in [7:0] $end
$var wire 1 ? gpio_select $end
$var wire 1 - rst_n $end
$var wire 32 @ wbs_addr [31:0] $end
$var wire 1 / wbs_cyc $end
$var wire 32 A wbs_data_write [31:0] $end
$var wire 4 B wbs_sel [3:0] $end
$var wire 1 2 wbs_stb $end
$var wire 1 3 wbs_we $end
$var wire 32 C tmp_wbs_data_read [31:0] $end
$var wire 1 D tmp_wbs_ack $end
$var wire 8 E gpio_out [7:0] $end
$var wire 8 F gpio_oe [7:0] $end
$var parameter 32 G ADDR_WIDTH $end
$var parameter 32 H BASE_ADDR $end
$var parameter 32 I DATA_WIDTH $end
$var parameter 32 J N_GPIO $end
$var parameter 32 K SIZE_KB $end
$var reg 1 " wbs_ack $end
$var reg 32 L wbs_data_read [31:0] $end
$scope module gpio_inst $end
$var wire 1 + clk $end
$var wire 8 M data_reg [7:0] $end
$var wire 8 N gpio_in [7:0] $end
$var wire 1 - rst_n $end
$var wire 32 O wbs_addr [31:0] $end
$var wire 1 P wbs_cyc $end
$var wire 32 Q wbs_data_write [31:0] $end
$var wire 4 R wbs_sel [3:0] $end
$var wire 1 S wbs_stb $end
$var wire 1 3 wbs_we $end
$var wire 1 T sel_toggle $end
$var wire 1 U sel_set $end
$var wire 1 V sel_dir $end
$var wire 1 W sel_data $end
$var wire 1 X sel_clear $end
$var wire 12 Y reg_offset [11:0] $end
$var wire 8 Z gpio_in_sync [7:0] $end
$var parameter 32 [ ADDR_WIDTH $end
$var parameter 32 \ DATA_WIDTH $end
$var parameter 32 ] N_GPIO $end
$var parameter 12 ^ REG_GPIO_CLEAR $end
$var parameter 12 _ REG_GPIO_DATA $end
$var parameter 12 ` REG_GPIO_DIR $end
$var parameter 12 a REG_GPIO_SET $end
$var parameter 12 b REG_GPIO_TOGGLE $end
$var reg 8 c dir_reg [7:0] $end
$var reg 8 d gpio_oe [7:0] $end
$var reg 8 e gpio_out [7:0] $end
$var reg 8 f out_reg [7:0] $end
$var reg 1 g tmp_r_ack $end
$var reg 1 h tmp_w_ack $end
$var reg 1 D wbs_ack $end
$var reg 32 i wbs_data_read [31:0] $end
$scope begin gpio_sync[0] $end
$var parameter 2 j i $end
$var reg 2 k sync_reg [1:0] $end
$upscope $end
$scope begin gpio_sync[1] $end
$var parameter 2 l i $end
$var reg 2 m sync_reg [1:0] $end
$upscope $end
$scope begin gpio_sync[2] $end
$var parameter 3 n i $end
$var reg 2 o sync_reg [1:0] $end
$upscope $end
$scope begin gpio_sync[3] $end
$var parameter 3 p i $end
$var reg 2 q sync_reg [1:0] $end
$upscope $end
$scope begin gpio_sync[4] $end
$var parameter 4 r i $end
$var reg 2 s sync_reg [1:0] $end
$upscope $end
$scope begin gpio_sync[5] $end
$var parameter 4 t i $end
$var reg 2 u sync_reg [1:0] $end
$upscope $end
$scope begin gpio_sync[6] $end
$var parameter 4 v i $end
$var reg 2 w sync_reg [1:0] $end
$upscope $end
$scope begin gpio_sync[7] $end
$var parameter 4 x i $end
$var reg 2 y sync_reg [1:0] $end
$upscope $end
$upscope $end
$upscope $end
$scope task test_atomic_operation_latency $end
$upscope $end
$scope task test_input_sync_latency $end
$var reg 32 z read_data [31:0] $end
$upscope $end
$scope task test_output_propagation_latency $end
$upscope $end
$scope task test_read_latency $end
$var reg 32 { read_data [31:0] $end
$upscope $end
$scope task test_write_latency $end
$upscope $end
$scope task wb_read $end
$var reg 32 | addr [31:0] $end
$var reg 32 } data [31:0] $end
$upscope $end
$scope task wb_write $end
$var reg 32 ~ addr [31:0] $end
$var reg 32 !" data [31:0] $end
$var reg 4 "" sel [3:0] $end
$upscope $end
$upscope $end
$enddefinitions $end
$comment Show the parameter values. $end
$dumpall
b111 x
b110 v
b101 t
b100 r
b11 p
b10 n
b1 l
b0 j
b10000 b
b1000 a
b100 `
b0 _
b1100 ^
b1000 ]
b100000 \
b100000 [
b100 K
b1000 J
b100000 I
b1000000000000000000000000000000 H
b100000 G
b1000 *
b100000 )
b1010 (
b101111101011110000100000000 '
b1000000000000000000000000000000 &
b100000 %
$end
#0
$dumpvars
bx ""
bx !"
bx ~
bx }
bx |
bx {
bx z
b0 y
b0 w
b0 u
b0 s
b0 q
b0 o
b0 m
b0 k
b0 i
0h
0g
b0 f
b0 e
b0 d
b0 c
b0 Z
b0 Y
0X
1W
0V
0U
0T
0S
b0 R
b0 Q
0P
b0 O
b0 N
b0 M
bx L
b0 F
b0 E
0D
b0 C
b0 B
b0 A
b0 @
0?
b0 >
bx =
b0 <
bx ;
b0 :
bx 9
bx 8
bx 7
bx 6
bx 5
b0 4
03
02
b0 1
b0 0
0/
b0 .
0-
b0 ,
0+
b0 $
b0 #
x"
bx !
$end
#5000
0"
b0 !
b0 L
1+
#10000
0+
#15000
1+
#20000
0+
#25000
1+
#30000
0+
#35000
1+
#40000
0+
#45000
1+
#50000
0+
#55000
1+
#60000
0+
#65000
1+
#70000
0+
#75000
1+
#80000
0+
#85000
1+
#90000
0+
#95000
1+
#100000
0+
1-
#105000
1+
#110000
0+
#115000
1+
#120000
0+
#125000
1+
#130000
0+
#135000
1+
#140000
0+
b1 <
#145000
b1 ""
b11111111 !"
b1000000000000000000000000000000 ~
1+
#150000
0+
#155000
1P
1S
1?
b10011011 :
b1 1
b1 B
b1 R
b11111111 0
b11111111 A
b11111111 Q
b1000000000000000000000000000000 .
b1000000000000000000000000000000 @
b1000000000000000000000000000000 O
13
12
1/
1+
#160000
0+
#165000
b11111111 f
1h
b10100101 :
1+
#170000
0+
#175000
1h
1D
b11111111 #
b11111111 E
b11111111 e
b10101111 :
1+
#180000
0+
#185000
1h
1"
b10111001 :
1+
#190000
0+
#195000
0h
0S
0P
b11000011 4
03
02
0/
1+
#200000
0+
#205000
0D
b1 <
b10 =
b11001101 4
1+
#210000
0+
#215000
0"
b11010111 4
b1000000000000000000000000000000 |
1+
#220000
0+
#225000
1g
1S
1P
b11100001 :
12
1/
1+
#230000
0+
#235000
1D
b11101011 :
1+
#240000
0+
#245000
1"
b11110101 :
1+
#250000
0+
#255000
0g
0S
0P
02
0/
b0 }
b11111111 4
b11111111 :
1+
#260000
0+
#265000
0D
b1000000000000000000000000000100 ~
b0 <
b1 8
b0 {
b100001001 4
1+
#270000
0+
#275000
0"
0W
1V
b100 Y
1S
1P
b1000000000000000000000000000100 .
b1000000000000000000000000000100 @
b1000000000000000000000000000100 O
13
12
1/
1+
#280000
0+
#285000
b11111111 M
b11111111 c
1h
1+
#290000
0+
#295000
1h
1D
b11111111 $
b11111111 F
b11111111 d
1+
#300000
0+
#305000
1h
1"
1+
#310000
0+
#315000
0h
0S
0P
03
02
0/
1+
#320000
0+
#325000
0D
1+
#330000
0+
#335000
0"
1+
#340000
0+
#345000
b10101010 !"
b1000000000000000000000000000000 ~
1+
#350000
0+
#355000
1W
0V
b0 Y
1S
1P
b10101010 0
b10101010 A
b10101010 Q
b1000000000000000000000000000000 .
b1000000000000000000000000000000 @
b1000000000000000000000000000000 O
13
12
1/
1+
#360000
0+
#365000
b10101010 M
b10101010 f
1h
1+
#370000
0+
#375000
1h
1D
b10101010 #
b10101010 E
b10101010 e
1+
#380000
0+
#385000
1h
1"
1+
#390000
0+
#395000
0h
0S
0P
03
02
0/
1+
#400000
0+
#405000
0D
b110010101 9
1+
#410000
0+
#415000
0"
b1 7
b110011111 5
1+
#420000
0+
#425000
b1010101 !"
b1000000000000000000000000000100 ~
1+
#430000
0+
#435000
0W
1V
b100 Y
1S
1P
b1010101 0
b1010101 A
b1010101 Q
b1000000000000000000000000000100 .
b1000000000000000000000000000100 @
b1000000000000000000000000000100 O
13
12
1/
1+
#440000
0+
#445000
b0 M
b1010101 c
1h
1+
#450000
0+
#455000
1h
1D
b1010101 $
b1010101 F
b1010101 d
1+
#460000
0+
#465000
1h
1"
1+
#470000
0+
#475000
0h
0S
0P
03
02
0/
1+
#480000
0+
#485000
0D
b111100101 9
1+
#490000
0+
#495000
0"
b0 !"
b1 6
b111101111 5
1+
#500000
0+
#505000
1S
1P
b0 0
b0 A
b0 Q
13
12
1/
1+
#510000
0+
#515000
b0 c
1h
1+
#520000
0+
#525000
b0 $
b0 F
b0 d
1D
1h
1+
#530000
0+
#535000
1h
1"
1+
#540000
0+
#545000
0h
0S
0P
03
02
0/
1+
#550000
0+
#555000
0D
1+
#560000
0+
#565000
0"
1+
#570000
0+
#575000
1g
1W
0V
b0 Y
1S
1P
b1000000000000000000000000000000 .
b1000000000000000000000000000000 @
b1000000000000000000000000000000 O
12
1/
1+
#580000
0+
#585000
1D
1+
#590000
0+
#595000
1"
1+
#600000
0+
#605000
0g
0S
0P
02
0/
1+
#610000
0+
#615000
0D
b0 z
1+
#620000
0+
#625000
b1 y
b1 u
b1 q
b1 m
0"
b1001110001 9
b10101010 ,
b10101010 >
b10101010 N
1+
#630000
0+
#635000
b10101010 M
b10101010 Z
b11 m
b11 q
b11 u
b11 y
1+
#640000
0+
#645000
b10101010 C
b10101010 i
1g
1S
1P
12
1/
1+
#650000
0+
#655000
1D
b10101010 !
b10101010 L
1+
#660000
0+
#665000
1"
1+
#670000
0+
#675000
0g
b0 C
b0 i
0S
0P
02
0/
b10101010 }
1+
#680000
0+
#685000
0D
b0 !
b0 L
b1 !"
b110 ;
b1010101101 5
b10101010 z
1+
#690000
0+
#695000
0"
0W
1V
b100 Y
1S
1P
b1 0
b1 A
b1 Q
b1000000000000000000000000000100 .
b1000000000000000000000000000100 @
b1000000000000000000000000000100 O
13
12
1/
1+
#700000
0+
#705000
b1 c
1h
1+
#710000
0+
#715000
1h
1D
b1 $
b1 F
b1 d
1+
#720000
0+
#725000
1h
1"
1+
#730000
0+
#735000
0h
0S
0P
03
02
0/
1+
#740000
0+
#745000
0D
1+
#750000
0+
#755000
0"
1+
#760000
0+
#765000
b1000000000000000000000000001000 ~
1+
#770000
0+
#775000
0V
1U
b1000 Y
1S
1P
b1000000000000000000000000001000 .
b1000000000000000000000000001000 @
b1000000000000000000000000001000 O
13
12
1/
1+
#780000
0+
#785000
b10101011 M
b10101011 f
1h
1+
#790000
0+
#795000
1h
1D
b10101011 #
b10101011 E
b10101011 e
1+
#800000
0+
#805000
1h
1"
1+
#810000
0+
#815000
0h
0S
0P
03
02
0/
1+
#820000
0+
#825000
0D
b1100111001 9
1+
#830000
0+
#835000
0"
b1101000011 5
1+
