build/sim/peripheral/timer/timer_tb.vcd
$date
	Wed Sep 10 17:33:13 2025
$end
$version
	Icarus Verilog
$end
$timescale
	1ps
$end
$scope module tb_timer $end
$var wire 32 ! wbs_data_read [31:0] $end
$var wire 1 " wbs_ack $end
$var parameter 32 # ADDR_WIDTH $end
$var parameter 32 $ BASE_ADDR $end
$var parameter 32 % CLK_FREQ $end
$var parameter 32 & CLK_PERIOD $end
$var parameter 32 ' DATA_WIDTH $end
$var parameter 32 ( SIZE_KB $end
$var reg 1 ) clk $end
$var reg 1 * rst_n $end
$var reg 32 + task_error_count [31:0] $end
$var reg 32 , test_num [31:0] $end
$var reg 32 - total_errors [31:0] $end
$var reg 32 . wbs_addr [31:0] $end
$var reg 1 / wbs_cyc $end
$var reg 32 0 wbs_data_write [31:0] $end
$var reg 4 1 wbs_sel [3:0] $end
$var reg 1 2 wbs_stb $end
$var reg 1 3 wbs_we $end
$scope module dut $end
$var wire 1 ) clk $end
$var wire 1 * rst_n $end
$var wire 1 4 timer_select $end
$var wire 32 5 wbs_addr [31:0] $end
$var wire 1 / wbs_cyc $end
$var wire 32 6 wbs_data_write [31:0] $end
$var wire 4 7 wbs_sel [3:0] $end
$var wire 1 2 wbs_stb $end
$var wire 1 3 wbs_we $end
$var wire 32 8 tmp_wbs_data_read [31:0] $end
$var wire 1 9 tmp_wbs_ack $end
$var parameter 32 : ADDR_WIDTH $end
$var parameter 32 ; BASE_ADDR $end
$var parameter 32 < DATA_WIDTH $end
$var parameter 32 = SIZE_KB $end
$var reg 1 " wbs_ack $end
$var reg 32 > wbs_data_read [31:0] $end
$scope module timer_inst $end
$var wire 1 ) clk $end
$var wire 1 * rst_n $end
$var wire 32 ? wbs_addr [31:0] $end
$var wire 1 @ wbs_cyc $end
$var wire 32 A wbs_data_write [31:0] $end
$var wire 4 B wbs_sel [3:0] $end
$var wire 1 C wbs_stb $end
$var wire 1 3 wbs_we $end
$var wire 1 D sel_status $end
$var wire 1 E sel_ctrl $end
$var wire 1 F sel_count $end
$var wire 1 G sel_cmp $end
$var wire 12 H reg_offset [11:0] $end
$var wire 2 I prescale_sel [1:0] $end
$var wire 32 J prescale_max [31:0] $end
$var parameter 32 K ADDR_WIDTH $end
$var parameter 32 L CTRL_ENABLE $end
$var parameter 32 M CTRL_ONESHOT $end
$var parameter 32 N CTRL_PRESCALE0 $end
$var parameter 32 O CTRL_PRESCALE1 $end
$var parameter 32 P DATA_WIDTH $end
$var parameter 2 Q PRESCALE_1 $end
$var parameter 2 R PRESCALE_1024 $end
$var parameter 2 S PRESCALE_64 $end
$var parameter 2 T PRESCALE_8 $end
$var parameter 12 U REG_TIMER_CMP $end
$var parameter 12 V REG_TIMER_COUNT $end
$var parameter 12 W REG_TIMER_CTRL $end
$var parameter 12 X REG_TIMER_STATUS $end
$var parameter 32 Y STATUS_MATCH $end
$var parameter 32 Z STATUS_OVERFLOW $end
$var reg 32 [ cmp_reg [31:0] $end
$var reg 1 \ cmp_reg_write $end
$var reg 32 ] count_reg [31:0] $end
$var reg 4 ^ ctrl_reg [3:0] $end
$var reg 1 _ match_flag $end
$var reg 1 ` overflow_flag $end
$var reg 32 a prescaler_counter [31:0] $end
$var reg 1 b prescaler_tick $end
$var reg 1 c status_read_match $end
$var reg 1 d status_read_overflow $end
$var reg 2 e status_reg [1:0] $end
$var reg 1 f tmp_r_ack $end
$var reg 1 g tmp_w_ack $end
$var reg 1 9 wbs_ack $end
$var reg 32 h wbs_data_read [31:0] $end
$upscope $end
$upscope $end
$scope task test_compare_match $end
$var reg 32 i error_count [31:0] $end
$var reg 32 j read_data [31:0] $end
$upscope $end
$scope task test_free_running $end
$var reg 32 k error_count [31:0] $end
$var reg 32 l read_data1 [31:0] $end
$var reg 32 m read_data2 [31:0] $end
$upscope $end
$scope task test_one_shot_mode $end
$var reg 32 n error_count [31:0] $end
$var reg 32 o read_data [31:0] $end
$upscope $end
$scope task test_prescaler $end
$var reg 32 p error_count [31:0] $end
$var reg 32 q read_data1 [31:0] $end
$var reg 32 r read_data2 [31:0] $end
$upscope $end
$scope task test_reset_values $end
$var reg 32 s error_count [31:0] $end
$var reg 32 t read_data [31:0] $end
$upscope $end
$scope task test_status_register $end
$var reg 32 u error_count [31:0] $end
$var reg 32 v read_data [31:0] $end
$upscope $end
$scope task wb_read $end
$var reg 32 w addr [31:0] $end
$var reg 32 x data [31:0] $end
$upscope $end
$scope task wb_write $end
$var reg 32 y addr [31:0] $end
$var reg 32 z data [31:0] $end
$var reg 4 { sel [3:0] $end
$upscope $end
$upscope $end
$enddefinitions $end
$comment Show the parameter values. $end
$dumpall
b1 Z
b0 Y
b1100 X
b1000 W
b0 V
b100 U
b1 T
b10 S
b11 R
b0 Q
b100000 P
b11 O
b10 N
b1 M
b0 L
b100000 K
b100 =
b100000 <
b110000000000000000000000000000 ;
b100000 :
b100 (
b100000 '
b1010 &
b101111101011110000100000000 %
b110000000000000000000000000000 $
b100000 #
$end
#0
$dumpvars
bx {
bx z
bx y
bx x
bx w
bx v
bx u
bx t
bx s
bx r
bx q
bx p
bx o
bx n
bx m
bx l
bx k
bx j
bx i
b0 h
0g
0f
b0 e
0d
0c
0b
b0 a
0`
0_
b0 ^
b0 ]
0\
b0 [
b1 J
b0 I
b0 H
0G
1F
0E
0D
0C
b0 B
b0 A
0@
b0 ?
bx >
09
b0 8
b0 7
b0 6
b0 5
04
03
02
b0 1
b0 0
0/
b0 .
b0 -
b0 ,
b0 +
0*
0)
x"
bx !
$end
#5000
0"
b0 !
b0 >
1)
#10000
0)
#15000
1)
#20000
0)
#25000
1)
#30000
0)
#35000
1)
#40000
0)
#45000
1)
#50000
0)
#55000
1)
#60000
0)
#65000
1)
#70000
0)
#75000
1)
#80000
0)
#85000
1)
#90000
0)
#95000
1)
#100000
0)
1*
#105000
1)
#110000
0)
#115000
1)
#120000
0)
b110000000000000000000000000000 w
b0 s
b1 ,
#125000
1f
1@
1C
14
b110000000000000000000000000000 .
b110000000000000000000000000000 5
b110000000000000000000000000000 ?
12
1/
1)
#130000
0)
#135000
19
1)
#140000
0)
#145000
1"
1)
#150000
0)
#155000
0f
0C
0@
02
0/
b0 x
1)
#160000
0)
#165000
09
b110000000000000000000000000100 w
b0 t
1)
#170000
0)
#175000
0"
1f
0F
1G
b100 H
1C
1@
b110000000000000000000000000100 .
b110000000000000000000000000100 5
b110000000000000000000000000100 ?
12
1/
1)
#180000
0)
#185000
19
1)
#190000
0)
#195000
1"
1)
#200000
0)
#205000
0f
0C
0@
02
0/
1)
#210000
0)
#215000
09
b110000000000000000000000001000 w
1)
#220000
0)
#225000
0"
1f
0G
1E
b1000 H
1C
1@
b110000000000000000000000001000 .
b110000000000000000000000001000 5
b110000000000000000000000001000 ?
12
1/
1)
#230000
0)
#235000
19
1)
#240000
0)
#245000
1"
1)
#250000
0)
#255000
0f
0C
0@
02
0/
1)
#260000
0)
#265000
09
b110000000000000000000000001100 w
1)
#270000
0)
#275000
0"
1f
0E
1D
b1100 H
1C
1@
b110000000000000000000000001100 .
b110000000000000000000000001100 5
b110000000000000000000000001100 ?
12
1/
1)
#280000
0)
#285000
19
1)
#290000
0)
#295000
1"
1)
#300000
0)
#305000
0f
0C
0@
02
0/
1)
#310000
0)
#315000
09
b1 {
b1 z
b110000000000000000000000001000 y
b0 k
b10 ,
1)
#320000
0)
#325000
0"
1E
0D
b1000 H
1C
1@
b1 1
b1 7
b1 B
b1 0
b1 6
b1 A
b110000000000000000000000001000 .
b110000000000000000000000001000 5
b110000000000000000000000001000 ?
13
12
1/
1)
#330000
0)
#335000
b1 ^
1g
1)
#340000
0)
#345000
19
1g
1b
1)
#350000
0)
#355000
b1 ]
1_
1g
1"
1)
#360000
0)
#365000
0g
b1 e
b10 ]
0_
0C
0@
03
02
0/
1)
#370000
0)
#375000
b11 ]
09
b110000000000000000000000000000 w
1)
#380000
0)
#385000
b100 ]
0"
b100 8
b100 h
1f
1F
0E
b0 H
1C
1@
b110000000000000000000000000000 .
b110000000000000000000000000000 5
b110000000000000000000000000000 ?
12
1/
1)
#390000
0)
#395000
1f
b101 8
b101 h
b101 ]
19
b100 !
b100 >
1)
#400000
0)
#405000
1f
b110 8
b110 h
b110 ]
1"
b101 !
b101 >
1)
#410000
0)
#415000
b111 ]
b110 !
b110 >
0f
b0 8
b0 h
0C
0@
02
0/
b101 x
1)
#420000
0)
#425000
09
b1000 ]
b0 !
b0 >
b101 l
1)
#430000
0)
#435000
b1001 ]
0"
1)
#440000
0)
#445000
b1010 ]
1)
#450000
0)
#455000
b1011 ]
1)
#460000
0)
#465000
b1100 ]
1)
#470000
0)
#475000
b1101 ]
b1101 8
b1101 h
1f
1C
1@
12
1/
1)
#480000
0)
#485000
1f
b1110 8
b1110 h
19
b1110 ]
b1101 !
b1101 >
1)
#490000
0)
#495000
1f
b1111 8
b1111 h
b1111 ]
1"
b1110 !
b1110 >
1)
#500000
0)
#505000
b10000 ]
b1111 !
b1111 >
0f
b0 8
b0 h
0C
0@
02
0/
b1110 x
1)
#510000
0)
#515000
b10001 ]
09
b0 !
b0 >
b0 z
b1110 m
1)
#520000
0)
#525000
b10010 ]
0"
0F
1E
b1000 H
1C
1@
b0 0
b0 6
b0 A
b110000000000000000000000001000 .
b110000000000000000000000001000 5
b110000000000000000000000001000 ?
13
12
1/
1)
#530000
0)
#535000
b10011 ]
b0 ^
1g
1)
#540000
0)
#545000
19
1g
0b
1)
#550000
0)
#555000
1g
1"
1)
#560000
0)
#565000
0g
0C
0@
03
02
0/
1)
#570000
0)
#575000
09
1)
#580000
0)
#585000
0"
b10011 8
b10011 h
1f
1F
0E
b0 H
1C
1@
b110000000000000000000000000000 .
b110000000000000000000000000000 5
b110000000000000000000000000000 ?
12
1/
1)
#590000
0)
#595000
19
b10011 !
b10011 >
1)
#600000
0)
#605000
1"
1)
#610000
0)
#615000
0f
b0 8
b0 h
0C
0@
02
0/
b10011 x
1)
#620000
0)
#625000
09
b0 !
b0 >
b10011 l
1)
#630000
0)
#635000
0"
1)
#640000
0)
#645000
1)
#650000
0)
#655000
b10011 8
b10011 h
1f
1C
1@
12
1/
1)
#660000
0)
#665000
19
b10011 !
b10011 >
1)
#670000
0)
#675000
1"
1)
#680000
0)
#685000
0f
b0 8
b0 h
0C
0@
02
0/
1)
#690000
0)
#695000
09
b0 !
b0 >
b1111 {
b1010 z
b110000000000000000000000000100 y
b0 i
b11 ,
b10011 m
1)
#700000
0)
#705000
0"
0F
1G
b100 H
1C
1@
b1111 1
b1111 7
b1111 B
b1010 0
b1010 6
b1010 A
b110000000000000000000000000100 .
b110000000000000000000000000100 5
b110000000000000000000000000100 ?
13
12
1/
1)
#710000
0)
#715000
1\
b1010 [
1g
1)
#720000
0)
#725000
19
1g
1)
#730000
0)
#735000
1g
1"
1)
#740000
0)
#745000
0g
0C
0@
03
02
0/
1)
#750000
0)
#755000
09
b1 {
b1 z
b110000000000000000000000001000 y
1)
#760000
0)
#765000
0"
0G
1E
b1000 H
1C
1@
b1 1
b1 7
b1 B
b1 0
b1 6
b1 A
b110000000000000000000000001000 .
b110000000000000000000000001000 5
b110000000000000000000000001000 ?
13
12
1/
1)
#770000
0)
#775000
b1 ^
1g
1)
#780000
0)
#785000
19
1g
1b
1)
#790000
0)
#795000
b10100 ]
1g
1"
1)
#800000
0)
#805000
0g
b10101 ]
0C
0@
03
02
0/
1)
#810000
0)
#815000
b10110 ]
09
1)
#820000
0)
#825000
b10111 ]
0"
1)
#830000
0)
#835000
b11000 ]
1)
#840000
0)
#845000
b11001 ]
1)
#850000
0)
#855000
b11010 ]
1)
#860000
0)
#865000
b11011 ]
1)
#870000
0)
#875000
b11100 ]
1)
#880000
0)
#885000
b11101 ]
1)
#890000
0)
#895000
b11110 ]
1)
#900000
0)
#905000
b11111 ]
1)
#910000
0)
#915000
b100000 ]
1)
#920000
0)
#925000
b100001 ]
1)
#930000
0)
#935000
b100010 ]
1)
#940000
0)
#945000
b100011 ]
1)
#950000
0)
#955000
b100100 ]
1)
#960000
0)
#965000
b100101 ]
b1 8
b1 h
1f
0E
1D
b1100 H
1C
1@
b110000000000000000000000001100 .
b110000000000000000000000001100 5
b110000000000000000000000001100 ?
12
1/
1)
b110000000000000000000000001100 w
#970000
0)
#975000
1f
b1 8
b1 h
b100110 ]
19
b1 !
b1 >
1)
#980000
0)
#985000
1f
b1 8
b1 h
b100111 ]
1"
1)
#990000
0)
#995000
b101000 ]
0f
b0 8
b0 h
0C
0@
02
0/
b1 x
1)
#1000000
0)
#1005000
09
b101001 ]
b0 !
b0 >
b110000000000000000000000001100 y
b1 j
1)
#1010000
0)
#1015000
b101010 ]
0"
1C
1@
13
12
1/
1)
#1020000
0)
#1025000
1c
1g
b101011 ]
1)
#1030000
0)
#1035000
b101100 ]
b0 e
1g
19
1)
#1040000
0)
#1045000
1g
b101101 ]
1"
1)
#1050000
0)
#1055000
b101110 ]
0g
0C
0@
03
02
0/
1)
#1060000
0)
#1065000
09
b101111 ]
1)
#1070000
0)
#1075000
b110000 ]
0"
1f
1C
1@
12
1/
1)
#1080000
0)
#1085000
1f
19
b110001 ]
1)
#1090000
0)
#1095000
1f
b110010 ]
1"
1)
#1100000
0)
#1105000
b110011 ]
0f
0C
0@
02
0/
b0 x
1)
#1110000
0)
#1115000
b110100 ]
09
b1111 {
b101 z
b110000000000000000000000000100 y
b0 n
b100 ,
b0 j
1)
#1120000
0)
#1125000
b110101 ]
0"
1G
0D
b100 H
1C
1@
b1111 1
b1111 7
b1111 B
b101 0
b101 6
b101 A
b110000000000000000000000000100 .
b110000000000000000000000000100 5
b110000000000000000000000000100 ?
13
12
1/
1)
#1130000
0)
#1135000
b110110 ]
b101 [
1g
1)
#1140000
0)
#1145000
19
1g
b110111 ]
1)
#1150000
0)
#1155000
b111000 ]
1g
1"
1)
#1160000
0)
#1165000
0g
b111001 ]
0C
0@
03
02
0/
1)
#1170000
0)
#1175000
b111010 ]
09
b1 {
b11 z
b110000000000000000000000001000 y
1)
#1180000
0)
#1185000
b111011 ]
0"
0G
1E
b1000 H
1C
1@
b1 1
b1 7
b1 B
b11 0
b11 6
b11 A
b110000000000000000000000001000 .
b110000000000000000000000001000 5
b110000000000000000000000001000 ?
13
12
1/
1)
#1190000
0)
#1195000
b111100 ]
b11 ^
1g
1)
#1200000
0)
#1205000
19
1g
b111101 ]
1)
#1210000
0)
#1215000
b111110 ]
1g
1"
1)
#1220000
0)
#1225000
0g
b111111 ]
0C
0@
03
02
0/
1)
#1230000
0)
#1235000
b1000000 ]
09
1)
#1240000
0)
#1245000
b1000001 ]
0"
1)
#1250000
0)
#1255000
b1000010 ]
1)
#1260000
0)
#1265000
b1000011 ]
1)
#1270000
0)
#1275000
b1000100 ]
1)
#1280000
0)
#1285000
b1000101 ]
1)
#1290000
0)
#1295000
b1000110 ]
1)
#1300000
0)
#1305000
b1000111 ]
1)
#1310000
0)
#1315000
b1001000 ]
1)
#1320000
0)
#1325000
b1001001 ]
1)
#1330000
0)
#1335000
b1001010 ]
b1001010 8
b1001010 h
1f
1F
0E
b0 H
1C
1@
b110000000000000000000000000000 .
b110000000000000000000000000000 5
b110000000000000000000000000000 ?
12
1/
1)
b110000000000000000000000000000 w
#1340000
0)
#1345000
1f
b1001011 8
b1001011 h
19
b1001011 ]
b1001010 !
b1001010 >
1)
#1350000
0)
#1355000
1f
b1001100 8
b1001100 h
b1001100 ]
1"
b1001011 !
b1001011 >
1)
#1360000
0)
#1365000
b1001101 ]
b1001100 !
b1001100 >
0f
b0 8
b0 h
0C
0@
02
0/
b1001011 x
1)
#1370000
0)
#1375000
b1001110 ]
09
b0 !
b0 >
b110000000000000000000000001100 w
b1 n
b1001011 o
1)
#1380000
0)
#1385000
b1001111 ]
0"
1f
0F
1D
b1100 H
1C
1@
b110000000000000000000000001100 .
b110000000000000000000000001100 5
b110000000000000000000000001100 ?
12
1/
1)
#1390000
0)
#1395000
1f
b1010000 ]
19
1)
#1400000
0)
#1405000
1f
b1010001 ]
1"
1)
#1410000
0)
#1415000
b1010010 ]
0f
0C
0@
02
0/
b0 x
1)
#1420000
0)
#1425000
09
b1010011 ]
b101 z
b0 p
b101 ,
b10 -
b0 +
b10 n
b0 o
1)
#1430000
0)
#1435000
b1010100 ]
0"
1E
0D
b1000 H
1C
1@
b101 0
b101 6
b101 A
b110000000000000000000000001000 .
b110000000000000000000000001000 5
b110000000000000000000000001000 ?
13
12
1/
1)
#1440000
0)
#1445000
b1000 J
b1 I
b101 ^
1g
b1010101 ]
1)
#1450000
0)
#1455000
0b
b1 a
b1010110 ]
1g
19
1)
#1460000
0)
#1465000
1g
b10 a
1"
1)
#1470000
0)
#1475000
b11 a
0g
0C
0@
03
02
0/
1)
#1480000
0)
#1485000
09
b100 a
b110000000000000000000000000000 w
1)
#1490000
0)
#1495000
b101 a
0"
b1010110 8
b1010110 h
1f
1F
0E
b0 H
1C
1@
b110000000000000000000000000000 .
b110000000000000000000000000000 5
b110000000000000000000000000000 ?
12
1/
1)
#1500000
0)
#1505000
19
b110 a
b1010110 !
b1010110 >
1)
#1510000
0)
#1515000
b111 a
1"
1)
#1520000
0)
#1525000
1b
b0 a
0f
b0 8
b0 h
0C
0@
02
0/
b1010110 x
1)
#1530000
0)
#1535000
0b
b1 a
b1010111 ]
09
b0 !
b0 >
b1010110 q
1)
#1540000
0)
#1545000
b10 a
0"
1)
#1550000
0)
#1555000
b11 a
1)
#1560000
0)
#1565000
b100 a
1)
#1570000
0)
#1575000
b101 a
1)
#1580000
0)
#1585000
b110 a
1)
#1590000
0)
#1595000
b111 a
1)
#1600000
0)
#1605000
1b
b0 a
1)
#1610000
0)
#1615000
0b
b1 a
b1011000 ]
1)
#1620000
0)
#1625000
b10 a
1)
#1630000
0)
#1635000
b11 a
1)
#1640000
0)
#1645000
b100 a
1)
#1650000
0)
#1655000
b101 a
1)
#1660000
0)
#1665000
b110 a
1)
#1670000
0)
#1675000
b111 a
1)
#1680000
0)
#1685000
1b
b0 a
1)
#1690000
0)
#1695000
0b
b1 a
b1011001 ]
1)
#1700000
0)
#1705000
b10 a
1)
#1710000
0)
#1715000
b11 a
1)
#1720000
0)
#1725000
b100 a
1)
#1730000
0)
#1735000
b101 a
1)
#1740000
0)
#1745000
b110 a
1)
#1750000
0)
#1755000
b111 a
1)
#1760000
0)
#1765000
1b
b0 a
1)
#1770000
0)
#1775000
0b
b1 a
b1011010 ]
1)
#1780000
0)
#1785000
b10 a
1)
#1790000
0)
#1795000
b11 a
1)
#1800000
0)
#1805000
b100 a
1)
#1810000
0)
#1815000
b101 a
1)
#1820000
0)
#1825000
b110 a
1)
#1830000
0)
#1835000
b111 a
1)
#1840000
0)
#1845000
1b
b0 a
1)
#1850000
0)
#1855000
0b
b1 a
b1011011 ]
1)
#1860000
0)
#1865000
b10 a
1)
#1870000
0)
#1875000
b11 a
1)
#1880000
0)
#1885000
b100 a
1)
#1890000
0)
#1895000
b101 a
1)
#1900000
0)
#1905000
b110 a
1)
#1910000
0)
#1915000
b111 a
1)
#1920000
0)
#1925000
1b
b0 a
1)
#1930000
0)
#1935000
0b
b1 a
b1011100 ]
b1011100 8
b1011100 h
1f
1C
1@
12
1/
1)
#1940000
0)
#1945000
19
b10 a
b1011100 !
b1011100 >
1)
#1950000
0)
#1955000
b11 a
1"
1)
#1960000
0)
#1965000
b100 a
0f
b0 8
b0 h
0C
0@
02
0/
b1011100 x
1)
#1970000
0)
#1975000
b101 a
09
b0 !
b0 >
b1 z
b0 u
b110 ,
b11 -
b0 +
b1 p
b1011100 r
1)
#1980000
0)
#1985000
b110 a
0"
0F
1E
b1000 H
1C
1@
b1 0
b1 6
b1 A
b110000000000000000000000001000 .
b110000000000000000000000001000 5
b110000000000000000000000001000 ?
13
12
1/
1)
#1990000
0)
#1995000
b1 J
b0 I
b111 a
b1 ^
1g
1)
#2000000
0)
#2005000
19
1g
b1000 a
1)
#2010000
0)
#2015000
b1001 a
1g
1"
1)
#2020000
0)
#2025000
0g
b1010 a
0C
0@
03
02
0/
1)
#2030000
0)
#2035000
b1011 a
09
b1111 {
b11111111111111111111111111111100 z
b110000000000000000000000000100 y
1)
#2040000
0)
#2045000
b1100 a
0"
1G
0E
b100 H
1C
1@
b1111 1
b1111 7
b1111 B
b11111111111111111111111111111100 0
b11111111111111111111111111111100 6
b11111111111111111111111111111100 A
b110000000000000000000000000100 .
b110000000000000000000000000100 5
b110000000000000000000000000100 ?
13
12
1/
1)
#2050000
0)
#2055000
b1101 a
b11111111111111111111111111111100 [
1g
1)
#2060000
0)
#2065000
19
1g
b1110 a
1)
#2070000
0)
#2075000
b1111 a
1g
1"
1)
#2080000
0)
#2085000
0g
b10000 a
0C
0@
03
02
0/
1)
#2090000
0)
#2095000
b10001 a
09
1)
#2100000
0)
#2105000
b10010 a
0"
1)
#2110000
0)
#2115000
b10011 a
1)
#2120000
0)
#2125000
b10100 a
1)
#2130000
0)
#2135000
b10101 a
1)
#2140000
0)
#2145000
b10110 a
1)
#2150000
0)
#2155000
b10111 a
1)
#2160000
0)
#2165000
b11000 a
1)
#2170000
0)
#2175000
b11001 a
1)
#2180000
0)
#2185000
b11010 a
1)
#2190000
0)
#2195000
b11011 a
1f
0G
1D
b1100 H
1C
1@
b110000000000000000000000001100 .
b110000000000000000000000001100 5
b110000000000000000000000001100 ?
12
1/
1)
b110000000000000000000000001100 w
#2200000
0)
#2205000
19
b11100 a
1)
#2210000
0)
#2215000
b11101 a
1"
1)
#2220000
0)
#2225000
b11110 a
0f
0C
0@
02
0/
b0 x
1)
#2230000
0)
#2235000
b11111 a
09
b1 {
b11 z
b110000000000000000000000001100 y
b1 u
b0 v
1)
#2240000
0)
#2245000
b100000 a
0"
1C
1@
b1 1
b1 7
b1 B
b11 0
b11 6
b11 A
13
12
1/
1)
#2250000
0)
#2255000
b100001 a
1d
1g
1)
#2260000
0)
#2265000
19
1g
b100010 a
1)
#2270000
0)
#2275000
b100011 a
1g
1"
1)
#2280000
0)
#2285000
0g
b100100 a
0C
0@
03
02
0/
1)
#2290000
0)
#2295000
b100101 a
09
1)
#2300000
0)
#2305000
b100110 a
0"
1f
1C
1@
12
1/
1)
#2310000
0)
#2315000
b100111 a
19
1)
#2320000
0)
#2325000
b101000 a
1"
1)
#2330000
0)
#2335000
b101001 a
0f
0C
0@
02
0/
1)
#2340000
0)
#2345000
09
b101010 a
b100 -
b1 +
1)
